^C:\USERS\IMAC\DOCUMENTS\DEFERRED-RENDERER\3DENGINE\3DENGINE\X64\RELEASE\3DENGINE.RES|C:\USERS\IMAC\DOCUMENTS\DEFERRED-RENDERER\3DENGINE\3DENGINE\X64\RELEASE\ASSETMANAGER.OBJ|C:\USERS\IMAC\DOCUMENTS\DEFERRED-RENDERER\3DENGINE\3DENGINE\X64\RELEASE\CAMERA.OBJ|C:\USERS\IMAC\DOCUMENTS\DEFERRED-RENDERER\3DENGINE\3DENGINE\X64\RELEASE\COMPONENT.OBJ|C:\USERS\IMAC\DOCUMENTS\DEFERRED-RENDERER\3DENGINE\3DENGINE\X64\RELEASE\COMPUTESHADER.OBJ|C:\USERS\IMAC\DOCUMENTS\DEFERRED-RENDERER\3DENGINE\3DENGINE\X64\RELEASE\DEFERREDSHADER.OBJ|C:\USERS\IMAC\DOCUMENTS\DEFERRED-RENDERER\3DENGINE\3DENGINE\X64\RELEASE\DEPTHTEXTURE.OBJ|C:\USERS\IMAC\DOCUMENTS\DEFERRED-RENDERER\3DENGINE\3DENGINE\X64\RELEASE\DXMANAGER.OBJ|C:\USERS\IMAC\DOCUMENTS\DEFERRED-RENDERER\3DENGINE\3DENGINE\X64\RELEASE\ENGINE.OBJ|C:\USERS\IMAC\DOCUMENTS\DEFERRED-RENDERER\3DENGINE\3DENGINE\X64\RELEASE\FOLIAGE.OBJ|C:\USERS\IMAC\DOCUMENTS\DEFERRED-RENDERER\3DENGINE\3DENGINE\X64\RELEASE\FOLIAGESHADER.OBJ|C:\USERS\IMAC\DOCUMENTS\DEFERRED-RENDERER\3DENGINE\3DENGINE\X64\RELEASE\FRAMEWORK.OBJ|C:\USERS\IMAC\DOCUMENTS\DEFERRED-RENDERER\3DENGINE\3DENGINE\X64\RELEASE\GAMEOBJECT.OBJ|C:\USERS\IMAC\DOCUMENTS\DEFERRED-RENDERER\3DENGINE\3DENGINE\X64\RELEASE\GRAPHICS.OBJ|C:\USERS\IMAC\DOCUMENTS\DEFERRED-RENDERER\3DENGINE\3DENGINE\X64\RELEASE\INPUT.OBJ|C:\USERS\IMAC\DOCUMENTS\DEFERRED-RENDERER\3DENGINE\3DENGINE\X64\RELEASE\LIGHT.OBJ|C:\USERS\IMAC\DOCUMENTS\DEFERRED-RENDERER\3DENGINE\3DENGINE\X64\RELEASE\MAIN.OBJ|C:\USERS\IMAC\DOCUMENTS\DEFERRED-RENDERER\3DENGINE\3DENGINE\X64\RELEASE\MESH.OBJ|C:\USERS\IMAC\DOCUMENTS\DEFERRED-RENDERER\3DENGINE\3DENGINE\X64\RELEASE\OBJECTPREVIEW.OBJ|C:\USERS\IMAC\DOCUMENTS\DEFERRED-RENDERER\3DENGINE\3DENGINE\X64\RELEASE\PCH.OBJ|C:\USERS\IMAC\DOCUMENTS\DEFERRED-RENDERER\3DENGINE\3DENGINE\X64\RELEASE\RENDERER.OBJ|C:\USERS\IMAC\DOCUMENTS\DEFERRED-RENDERER\3DENGINE\3DENGINE\X64\RELEASE\RENDERTEXTURE.OBJ|C:\USERS\IMAC\DOCUMENTS\DEFERRED-RENDERER\3DENGINE\3DENGINE\X64\RELEASE\SCENE.OBJ|C:\USERS\IMAC\DOCUMENTS\DEFERRED-RENDERER\3DENGINE\3DENGINE\X64\RELEASE\SHADER.OBJ|C:\USERS\IMAC\DOCUMENTS\DEFERRED-RENDERER\3DENGINE\3DENGINE\X64\RELEASE\STANDARDSHADER.OBJ|C:\USERS\IMAC\DOCUMENTS\DEFERRED-RENDERER\3DENGINE\3DENGINE\X64\RELEASE\TERRAINSHADER.OBJ|C:\USERS\IMAC\DOCUMENTS\DEFERRED-RENDERER\3DENGINE\3DENGINE\X64\RELEASE\TEXTURE.OBJ|C:\USERS\IMAC\DOCUMENTS\DEFERRED-RENDERER\3DENGINE\3DENGINE\X64\RELEASE\TEXTURESHADER.OBJ|C:\USERS\IMAC\DOCUMENTS\DEFERRED-RENDERER\3DENGINE\3DENGINE\X64\RELEASE\TIMER.OBJ|C:\USERS\IMAC\DOCUMENTS\DEFERRED-RENDERER\3DENGINE\3DENGINE\X64\RELEASE\TRANSFORM.OBJ|C:\USERS\IMAC\DOCUMENTS\DEFERRED-RENDERER\3DENGINE\3DENGINE\X64\RELEASE\WICTEXTURELOADER.OBJ|C:\USERS\IMAC\DOCUMENTS\DEFERRED-RENDERER\3DENGINE\3DENGINE\X64\RELEASE\WIND.OBJ
C:\WINDOWS\GLOBALIZATION\SORTING\SORTDEFAULT.NLS
C:\USERS\IMAC\DOCUMENTS\DEFERRED-RENDERER\3DENGINE\PACKAGES\DIRECTXTK_DESKTOP_2015.2015.11.30.1\BUILD\NATIVE\LIB\X64\RELEASE\DIRECTXTKAUDIODX.LIB
C:\USERS\IMAC\DOCUMENTS\DEFERRED-RENDERER\3DENGINE\PACKAGES\DIRECTXTK_DESKTOP_2015.2015.11.30.1\BUILD\NATIVE\LIB\X64\RELEASE\DIRECTXTK.LIB
C:\USERS\IMAC\DOCUMENTS\DEFERRED-RENDERER\3DENGINE\3DENGINE\LIB64\ASSIMP.LIB
C:\PROGRAM FILES (X86)\WINDOWS KITS\8.1\LIB\WINV6.3\UM\X64\KERNEL32.LIB
C:\PROGRAM FILES (X86)\WINDOWS KITS\8.1\LIB\WINV6.3\UM\X64\USER32.LIB
C:\PROGRAM FILES (X86)\WINDOWS KITS\8.1\LIB\WINV6.3\UM\X64\GDI32.LIB
C:\PROGRAM FILES (X86)\WINDOWS KITS\8.1\LIB\WINV6.3\UM\X64\WINSPOOL.LIB
C:\PROGRAM FILES (X86)\WINDOWS KITS\8.1\LIB\WINV6.3\UM\X64\COMDLG32.LIB
C:\PROGRAM FILES (X86)\WINDOWS KITS\8.1\LIB\WINV6.3\UM\X64\ADVAPI32.LIB
C:\PROGRAM FILES (X86)\WINDOWS KITS\8.1\LIB\WINV6.3\UM\X64\SHELL32.LIB
C:\PROGRAM FILES (X86)\WINDOWS KITS\8.1\LIB\WINV6.3\UM\X64\OLE32.LIB
C:\PROGRAM FILES (X86)\WINDOWS KITS\8.1\LIB\WINV6.3\UM\X64\OLEAUT32.LIB
C:\PROGRAM FILES (X86)\WINDOWS KITS\8.1\LIB\WINV6.3\UM\X64\UUID.LIB
C:\PROGRAM FILES (X86)\WINDOWS KITS\8.1\LIB\WINV6.3\UM\X64\ODBC32.LIB
C:\PROGRAM FILES (X86)\WINDOWS KITS\8.1\LIB\WINV6.3\UM\X64\ODBCCP32.LIB
C:\USERS\IMAC\DOCUMENTS\DEFERRED-RENDERER\3DENGINE\3DENGINE\X64\RELEASE\3DENGINE.RES
C:\USERS\IMAC\DOCUMENTS\DEFERRED-RENDERER\3DENGINE\3DENGINE\X64\RELEASE\CAMERA.OBJ
C:\USERS\IMAC\DOCUMENTS\DEFERRED-RENDERER\3DENGINE\3DENGINE\X64\RELEASE\COMPONENT.OBJ
C:\USERS\IMAC\DOCUMENTS\DEFERRED-RENDERER\3DENGINE\3DENGINE\X64\RELEASE\COMPUTESHADER.OBJ
C:\USERS\IMAC\DOCUMENTS\DEFERRED-RENDERER\3DENGINE\3DENGINE\X64\RELEASE\DEFERREDSHADER.OBJ
C:\USERS\IMAC\DOCUMENTS\DEFERRED-RENDERER\3DENGINE\3DENGINE\X64\RELEASE\DEPTHTEXTURE.OBJ
C:\USERS\IMAC\DOCUMENTS\DEFERRED-RENDERER\3DENGINE\3DENGINE\X64\RELEASE\ENGINE.OBJ
C:\USERS\IMAC\DOCUMENTS\DEFERRED-RENDERER\3DENGINE\3DENGINE\X64\RELEASE\FOLIAGE.OBJ
C:\USERS\IMAC\DOCUMENTS\DEFERRED-RENDERER\3DENGINE\3DENGINE\X64\RELEASE\FOLIAGESHADER.OBJ
C:\USERS\IMAC\DOCUMENTS\DEFERRED-RENDERER\3DENGINE\3DENGINE\X64\RELEASE\FRAMEWORK.OBJ
C:\USERS\IMAC\DOCUMENTS\DEFERRED-RENDERER\3DENGINE\3DENGINE\X64\RELEASE\GAMEOBJECT.OBJ
C:\USERS\IMAC\DOCUMENTS\DEFERRED-RENDERER\3DENGINE\3DENGINE\X64\RELEASE\GRAPHICS.OBJ
C:\USERS\IMAC\DOCUMENTS\DEFERRED-RENDERER\3DENGINE\3DENGINE\X64\RELEASE\DXMANAGER.OBJ
C:\USERS\IMAC\DOCUMENTS\DEFERRED-RENDERER\3DENGINE\3DENGINE\X64\RELEASE\INPUT.OBJ
C:\USERS\IMAC\DOCUMENTS\DEFERRED-RENDERER\3DENGINE\3DENGINE\X64\RELEASE\LIGHT.OBJ
C:\USERS\IMAC\DOCUMENTS\DEFERRED-RENDERER\3DENGINE\3DENGINE\X64\RELEASE\MAIN.OBJ
C:\USERS\IMAC\DOCUMENTS\DEFERRED-RENDERER\3DENGINE\3DENGINE\X64\RELEASE\OBJECTPREVIEW.OBJ
C:\USERS\IMAC\DOCUMENTS\DEFERRED-RENDERER\3DENGINE\3DENGINE\X64\RELEASE\PCH.OBJ
C:\USERS\IMAC\DOCUMENTS\DEFERRED-RENDERER\3DENGINE\3DENGINE\X64\RELEASE\RENDERER.OBJ
C:\USERS\IMAC\DOCUMENTS\DEFERRED-RENDERER\3DENGINE\3DENGINE\X64\RELEASE\ASSETMANAGER.OBJ
C:\USERS\IMAC\DOCUMENTS\DEFERRED-RENDERER\3DENGINE\3DENGINE\X64\RELEASE\RENDERTEXTURE.OBJ
C:\USERS\IMAC\DOCUMENTS\DEFERRED-RENDERER\3DENGINE\3DENGINE\X64\RELEASE\SCENE.OBJ
C:\USERS\IMAC\DOCUMENTS\DEFERRED-RENDERER\3DENGINE\3DENGINE\X64\RELEASE\SHADER.OBJ
C:\USERS\IMAC\DOCUMENTS\DEFERRED-RENDERER\3DENGINE\3DENGINE\X64\RELEASE\STANDARDSHADER.OBJ
C:\USERS\IMAC\DOCUMENTS\DEFERRED-RENDERER\3DENGINE\3DENGINE\X64\RELEASE\TERRAINSHADER.OBJ
C:\USERS\IMAC\DOCUMENTS\DEFERRED-RENDERER\3DENGINE\3DENGINE\X64\RELEASE\TEXTURE.OBJ
C:\USERS\IMAC\DOCUMENTS\DEFERRED-RENDERER\3DENGINE\3DENGINE\X64\RELEASE\TEXTURESHADER.OBJ
C:\USERS\IMAC\DOCUMENTS\DEFERRED-RENDERER\3DENGINE\3DENGINE\X64\RELEASE\TIMER.OBJ
C:\USERS\IMAC\DOCUMENTS\DEFERRED-RENDERER\3DENGINE\3DENGINE\X64\RELEASE\TRANSFORM.OBJ
C:\USERS\IMAC\DOCUMENTS\DEFERRED-RENDERER\3DENGINE\3DENGINE\X64\RELEASE\MESH.OBJ
C:\USERS\IMAC\DOCUMENTS\DEFERRED-RENDERER\3DENGINE\3DENGINE\X64\RELEASE\WICTEXTURELOADER.OBJ
C:\USERS\IMAC\DOCUMENTS\DEFERRED-RENDERER\3DENGINE\3DENGINE\X64\RELEASE\WIND.OBJ
C:\PROGRAM FILES (X86)\MICROSOFT VISUAL STUDIO 14.0\VC\BIN\X86_AMD64\C2.DLL
C:\PROGRAM FILES (X86)\MICROSOFT VISUAL STUDIO 14.0\VC\LIB\AMD64\MSVCPRT.LIB
C:\PROGRAM FILES (X86)\WINDOWS KITS\8.1\LIB\WINV6.3\UM\X64\DINPUT8.LIB
C:\PROGRAM FILES (X86)\WINDOWS KITS\8.1\LIB\WINV6.3\UM\X64\DXGUID.LIB
C:\PROGRAM FILES (X86)\MICROSOFT VISUAL STUDIO 14.0\VC\LIB\AMD64\MSVCRT.LIB
C:\PROGRAM FILES (X86)\MICROSOFT VISUAL STUDIO 14.0\VC\LIB\AMD64\OLDNAMES.LIB
C:\PROGRAM FILES (X86)\WINDOWS KITS\8.1\LIB\WINV6.3\UM\X64\XINPUT.LIB
C:\PROGRAM FILES (X86)\WINDOWS KITS\8.1\LIB\WINV6.3\UM\X64\WINDOWSCODECS.LIB
C:\PROGRAM FILES (X86)\WINDOWS KITS\8.1\LIB\WINV6.3\UM\X64\D3D11.LIB
C:\PROGRAM FILES (X86)\WINDOWS KITS\8.1\LIB\WINV6.3\UM\X64\DXGI.LIB
C:\PROGRAM FILES (X86)\WINDOWS KITS\8.1\LIB\WINV6.3\UM\X64\D3DCOMPILER.LIB
C:\PROGRAM FILES (X86)\MICROSOFT VISUAL STUDIO 14.0\VC\LIB\AMD64\VCRUNTIME.LIB
C:\PROGRAM FILES (X86)\WINDOWS KITS\10\LIB\10.0.10240.0\UCRT\X64\UCRT.LIB
C:\PROGRAM FILES (X86)\MICROSOFT VISUAL STUDIO 14.0\VC\BIN\X86_AMD64\1033\LINKUI.DLL
C:\USERS\IMAC\DOCUMENTS\DEFERRED-RENDERER\3DENGINE\X64\RELEASE\3DENGINE.IPDB
C:\USERS\IMAC\DOCUMENTS\DEFERRED-RENDERER\3DENGINE\X64\RELEASE\3DENGINE.IOBJ
C:\PROGRAM FILES (X86)\WINDOWS KITS\8.1\BIN\X86\RC.EXE
C:\PROGRAM FILES (X86)\MICROSOFT VISUAL STUDIO 14.0\VC\BIN\CVTRES.EXE
C:\WINDOWS\SYSTEM32\TZRES.DLL
