^C:\USERS\IMAC\DOCUMENTS\DEFERREDRENDERER\3DENGINE\3DENGINE\3DENGINE.RC
/D _UNICODE /D UNICODE /l"0x0409" /IC:\USERS\IMAC\DOCUMENTS\DEFERREDRENDERER\3DENGINE\PACKAGES\DIRECTXTK_DESKTOP_2015.2015.11.30.1\BUILD\NATIVE\../../BUILD/NATIVE/INCLUDE/ /nologo /fo"X64\RELEASE\3DENGINE.RES"   C:\USERS\IMAC\DOCUMENTS\DEFERREDRENDERER\3DENGINE\3DENGINE\3DENGINE.RC
^C:\USERS\IMAC\DOCUMENTS\DEFERRED-RENDERER\3DENGINE\3DENGINE\3DENGINE.RC
/D _UNICODE /D UNICODE /l"0x0409" /I"C:\USERS\IMAC\DOCUMENTS\DEFERRED-RENDERER\3DENGINE\PACKAGES\DIRECTXTK_DESKTOP_2015.2015.11.30.1\BUILD\NATIVE\../../BUILD/NATIVE/INCLUDE/" /nologo /fo"X64\RELEASE\3DENGINE.RES"   C:\USERS\IMAC\DOCUMENTS\DEFERRED-RENDERER\3DENGINE\3DENGINE\3DENGINE.RC
