^C:\USERS\IMAC\DOCUMENTS\DEFERREDRENDERER\3DENGINE\3DENGINE\3DENGINE.RC
C:\USERS\IMAC\DOCUMENTS\DEFERREDRENDERER\3DENGINE\3DENGINE\X64\DEBUG\3DENGINE.RES
^C:\USERS\IMAC\DOCUMENTS\DEFERRED-RENDERER\3DENGINE\3DENGINE\3DENGINE.RC
C:\USERS\IMAC\DOCUMENTS\DEFERRED-RENDERER\3DENGINE\3DENGINE\X64\DEBUG\3DENGINE.RES
