<?xml version="1.0" encoding="utf-8"?>
<COLLADA xmlns="http://www.collada.org/2005/11/COLLADASchema" version="1.4.1">
  <asset>
    <contributor>
      <author>Blender User</author>
      <authoring_tool>Blender 2.77.0 commit date:2016-04-05, commit time:18:12, hash:abf6f08</authoring_tool>
    </contributor>
    <created>2016-05-02T08:52:34</created>
    <modified>2016-05-02T08:52:34</modified>
    <unit name="meter" meter="1"/>
    <up_axis>Z_UP</up_axis>
  </asset>
  <library_images/>
  <library_effects>
    <effect id="Material-effect">
      <profile_COMMON>
        <technique sid="common">
          <phong>
            <emission>
              <color sid="emission">0 0 0 1</color>
            </emission>
            <ambient>
              <color sid="ambient">0 0 0 1</color>
            </ambient>
            <diffuse>
              <color sid="diffuse">0.64 0.64 0.64 1</color>
            </diffuse>
            <specular>
              <color sid="specular">0.5 0.5 0.5 1</color>
            </specular>
            <shininess>
              <float sid="shininess">50</float>
            </shininess>
            <index_of_refraction>
              <float sid="index_of_refraction">1</float>
            </index_of_refraction>
          </phong>
        </technique>
      </profile_COMMON>
    </effect>
  </library_effects>
  <library_materials>
    <material id="Material-material" name="Material">
      <instance_effect url="#Material-effect"/>
    </material>
  </library_materials>
  <library_geometries>
    <geometry id="Cube-mesh" name="Cube">
      <mesh>
        <source id="Cube-mesh-positions">
          <float_array id="Cube-mesh-positions-array" count="288">1 4.76837e-7 -1 1 4.76837e-7 1 -1 4.76837e-7 1 -0.9999997 4.76837e-7 -1 1 3 -0.9999991 0.9999994 3 1.000001 -1 3 1 -1 3 -0.9999995 0.7500001 3 -0.7499995 0.7500001 3 0.7500005 -0.7500001 3 0.75 -0.7499998 3 -0.75 0.7500004 6 -0.7499991 0.7499995 6 0.750001 -0.7500002 6 0.7500005 -0.7499999 6 -0.7499995 0.7000005 4.9 -0.4999995 0.7000005 4.9 0.5000005 0.7000005 5.9 0.5000005 0.7000005 5.9 -0.4999995 3.7 4.9 -0.4999991 3.7 4.9 0.500001 3.7 5.9 0.5000005 3.7 5.9 -0.4999995 3.7 5.2 -0.1999993 3.7 5.2 0.2000007 3.7 5.599999 0.2000007 3.7 5.599999 -0.1999993 6.7 5.2 -0.1999988 6.7 5.2 0.2000012 6.7 5.6 0.2000007 6.7 5.599999 -0.1999993 4.3 5.2 -0.1999993 4.900001 5.2 -0.1999993 5.500001 5.2 -0.1999993 6.099999 5.2 -0.1999988 4.3 5.2 0.2000007 4.900001 5.2 0.2000007 5.500001 5.2 0.2000007 6.099999 5.2 0.2000007 4.3 5.599999 0.2000007 4.900001 5.599999 0.2000007 5.500001 5.599999 0.2000007 6.099999 5.599999 0.2000007 4.3 5.599999 -0.1999993 4.900001 5.599999 -0.1999993 5.500001 5.599999 -0.1999993 6.099999 5.599999 -0.1999993 1.3 4.9 -0.4999995 1.9 4.9 -0.4999995 2.5 4.9 -0.4999991 3.1 4.9 -0.4999991 1.3 4.9 0.5000005 1.9 4.9 0.5000005 2.5 4.9 0.500001 3.1 4.9 0.500001 1.3 5.9 0.5000005 1.9 5.9 0.5000005 2.5 5.9 0.5000005 3.099999 5.9 0.5000005 1.3 5.9 -0.4999995 1.9 5.9 -0.4999995 2.5 5.9 -0.4999995 3.099999 5.9 -0.4999995 0.7500002 3.6 -0.7499995 0.7500002 4.2 -0.7499995 0.7500003 4.800001 -0.7499995 0.7500004 5.400001 -0.7499995 0.75 3.6 0.7500005 0.7499999 4.2 0.7500005 0.7499998 4.800001 0.7500005 0.7499997 5.400001 0.750001 -0.7500001 3.6 0.75 -0.7500001 4.2 0.75 -0.7500002 4.800001 0.75 -0.7500002 5.400001 0.75 -0.7499998 3.6 -0.75 -0.7499998 4.2 -0.7499995 -0.7499998 4.800001 -0.7499995 -0.7499999 5.400001 -0.7499995 1 0.6000004 -0.9999995 1 1.2 -0.9999995 1 1.800001 -0.9999995 1 2.400001 -0.9999995 0.9999999 0.6000004 1 0.9999998 1.2 1 0.9999997 1.800001 1 0.9999995 2.400001 1 -1 0.5999999 1 -1 1.2 0.9999995 -1 1.800001 1 -1 2.400001 1 -0.9999997 0.5999999 -1 -0.9999998 1.2 -1 -0.9999998 1.800001 -1 -0.9999999 2.400001 -0.9999995</float_array>
          <technique_common>
            <accessor source="#Cube-mesh-positions-array" count="96" stride="3">
              <param name="X" type="float"/>
              <param name="Y" type="float"/>
              <param name="Z" type="float"/>
            </accessor>
          </technique_common>
        </source>
        <source id="Cube-mesh-normals">
          <float_array id="Cube-mesh-normals-array" count="285">0 -1 0 0 1 2.08616e-7 1 0 4.76837e-7 -1.98682e-7 -7.94729e-7 1 -1 -3.97364e-7 -1.78814e-7 1.98682e-7 7.94729e-7 -1 0 -1 0 0 1 -2.11928e-7 1 0 4.76838e-7 -5.96045e-7 0 1 -1 0 -2.38419e-7 3.31137e-7 0 -1 -1 0 0 1 -1.90735e-7 0 0 4.76837e-7 1 0 1 0 0 0 -1 1 0 0 -8.07145e-7 0 1 -1.58946e-6 1 0 0 -1.19209e-6 -1 0 -1.1921e-6 -1 0 1 3.97363e-7 0 0 1 0 -5.06639e-7 -1 0 -5.06639e-7 -1 8.9407e-7 -5.06639e-7 -1 -7.94728e-7 0 1 0 -1 0 2.6491e-7 7.94729e-7 -1 -1 0 -2.38419e-7 -1 0 -2.38419e-7 -1 -2.64909e-7 -2.38419e-7 -1 0 -2.38419e-7 -3.31137e-7 0 1 -3.31137e-7 0 1 -2.6491e-7 -7.94731e-7 1 1 0 0 1 -2.64909e-7 2.38419e-7 1 -2.6491e-7 3.57628e-7 1.98682e-7 7.94729e-7 -1 2.98023e-7 0 -1 2.98023e-7 0 -1 -1 0 -2.38419e-7 -1 -3.97364e-7 -2.08616e-7 -1 0 -2.38419e-7 -1 0 -2.08616e-7 0 7.94728e-7 1 -4.96705e-7 0 1 -2.98023e-7 0 1 1 0 1.19209e-7 1 0 2.38419e-7 1 0 3.57628e-7 0 -1 0 1 3.97364e-7 5.66244e-7 -4.96705e-7 0 1 -1 0 -2.08616e-7 1.98682e-7 7.94729e-7 -1 1 2.6491e-7 5.5631e-7 -3.31138e-7 -7.9473e-7 1 3.31137e-7 0 -1 1 4.76837e-7 0 1 -1.19209e-6 0 0 1.19209e-6 1 0 1 -1.98682e-6 0 -1.19209e-6 -1 8.07149e-7 0 -1 0 -5.0664e-7 -1 0 -5.06639e-7 -1 0 4.76837e-7 1 0 -1 0 3.31137e-7 7.94729e-7 -1 -1 0 -2.38419e-7 -1 0 -2.38418e-7 -1 -2.6491e-7 -2.38418e-7 -3.31137e-7 0 1 -3.31137e-7 0 1 -6.62272e-7 0 1 1 0 1.19209e-7 1 2.6491e-7 2.38418e-7 1 5.29819e-7 3.57628e-7 1 2.64909e-7 4.76837e-7 2.98023e-7 7.94729e-7 -1 1.98682e-7 0 -1 1.98682e-7 0 -1 -1 0 -2.08616e-7 -1 0 -2.08616e-7 -1 0 -1.78814e-7 -3.97364e-7 -7.94729e-7 1 -1.98682e-7 -7.94728e-7 1 -1.98682e-7 0 1 1 0 1.19209e-7 1 0 2.38419e-7 1 0 3.57628e-7 1 0 4.76837e-7</float_array>
          <technique_common>
            <accessor source="#Cube-mesh-normals-array" count="95" stride="3">
              <param name="X" type="float"/>
              <param name="Y" type="float"/>
              <param name="Z" type="float"/>
            </accessor>
          </technique_common>
        </source>
        <vertices id="Cube-mesh-vertices">
          <input semantic="POSITION" source="#Cube-mesh-positions"/>
        </vertices>
        <polylist material="Material-material" count="176">
          <input semantic="VERTEX" source="#Cube-mesh-vertices" offset="0"/>
          <input semantic="NORMAL" source="#Cube-mesh-normals" offset="1"/>
          <vcount>3 3 3 3 3 3 3 3 3 3 3 3 3 3 3 3 3 3 3 3 3 3 3 3 3 3 3 3 3 3 3 3 3 3 3 3 3 3 3 3 3 3 3 3 3 3 3 3 3 3 3 3 3 3 3 3 3 3 3 3 3 3 3 3 3 3 3 3 3 3 3 3 3 3 3 3 3 3 3 3 3 3 3 3 3 3 3 3 3 3 3 3 3 3 3 3 3 3 3 3 3 3 3 3 3 3 3 3 3 3 3 3 3 3 3 3 3 3 3 3 3 3 3 3 3 3 3 3 3 3 3 3 3 3 3 3 3 3 3 3 3 3 3 3 3 3 3 3 3 3 3 3 3 3 3 3 3 3 3 3 3 3 3 3 3 3 3 3 3 3 3 3 3 3 3 3 </vcount>
          <p>1 0 3 0 0 0 7 1 5 1 4 1 4 2 87 2 83 2 5 3 91 3 87 3 6 4 95 4 91 4 0 5 92 5 80 5 8 6 10 6 11 6 15 7 13 7 12 7 12 8 71 8 67 8 13 9 75 9 71 9 75 10 15 10 79 10 8 11 76 11 64 11 17 12 19 12 16 12 20 13 22 13 21 13 20 0 55 0 51 0 55 14 22 14 59 14 22 15 63 15 59 15 16 16 60 16 48 16 25 12 27 12 24 12 31 17 29 17 28 17 28 0 39 0 35 0 29 18 43 18 39 18 30 19 47 19 43 19 24 16 44 16 32 16 35 20 31 20 28 20 35 21 46 21 47 21 34 16 45 16 46 16 32 16 45 16 33 16 40 15 27 15 26 15 41 15 44 15 40 15 42 15 45 15 41 15 43 22 46 22 42 22 36 23 26 23 25 23 37 23 40 23 36 23 38 23 41 23 37 23 39 23 42 23 38 23 32 0 25 0 24 0 33 0 36 0 32 0 34 0 37 0 33 0 35 0 38 0 34 0 51 24 23 24 20 24 50 25 63 25 51 25 49 26 62 26 50 26 48 16 61 16 49 16 56 15 19 15 18 15 57 15 60 15 56 15 58 15 61 15 57 15 59 15 62 15 58 15 52 23 18 23 17 23 53 23 56 23 52 23 54 27 57 27 53 27 54 14 59 14 58 14 48 0 17 0 16 0 48 0 53 0 52 0 50 28 53 28 49 28 51 0 54 0 50 0 67 29 15 29 12 29 66 16 79 16 67 16 65 16 78 16 66 16 64 16 77 16 65 16 72 30 11 30 10 30 72 31 77 31 76 31 74 32 77 32 73 32 75 33 78 33 74 33 68 34 10 34 9 34 69 35 72 35 68 35 70 34 73 34 69 34 71 36 74 36 70 36 64 17 9 17 8 17 65 37 68 37 64 37 66 38 69 38 65 38 67 39 70 39 66 39 83 40 7 40 4 40 82 16 95 16 83 16 81 41 94 41 82 41 80 42 93 42 81 42 2 43 92 43 3 43 89 44 92 44 88 44 89 45 94 45 93 45 90 46 95 46 94 46 1 23 88 23 2 23 84 47 89 47 88 47 86 48 89 48 85 48 87 49 90 49 86 49 80 17 1 17 0 17 81 50 84 50 80 50 82 51 85 51 81 51 83 52 86 52 82 52 1 53 2 53 3 53 7 15 6 15 5 15 4 54 5 54 87 54 5 55 6 55 91 55 6 56 7 56 95 56 0 57 3 57 92 57 8 0 9 0 10 0 15 15 14 15 13 15 12 58 13 58 71 58 13 59 14 59 75 59 75 30 14 30 15 30 8 60 11 60 76 60 17 12 18 12 19 12 20 61 23 61 22 61 20 0 21 0 55 0 55 14 21 14 22 14 22 15 23 15 63 15 16 16 19 16 60 16 25 12 26 12 27 12 31 62 30 62 29 62 28 0 29 0 39 0 29 63 30 63 43 63 30 64 31 64 47 64 24 16 27 16 44 16 35 65 47 65 31 65 35 66 34 66 46 66 34 16 33 16 45 16 32 16 44 16 45 16 40 15 44 15 27 15 41 15 45 15 44 15 42 15 46 15 45 15 43 15 47 15 46 15 36 23 40 23 26 23 37 23 41 23 40 23 38 23 42 23 41 23 39 23 43 23 42 23 32 0 36 0 25 0 33 0 37 0 36 0 34 0 38 0 37 0 35 0 39 0 38 0 51 67 63 67 23 67 50 68 62 68 63 68 49 16 61 16 62 16 48 16 60 16 61 16 56 15 60 15 19 15 57 15 61 15 60 15 58 15 62 15 61 15 59 15 63 15 62 15 52 23 56 23 18 23 53 23 57 23 56 23 54 14 58 14 57 14 54 69 55 69 59 69 48 0 52 0 17 0 48 70 49 70 53 70 50 0 54 0 53 0 51 0 55 0 54 0 67 16 79 16 15 16 66 16 78 16 79 16 65 16 77 16 78 16 64 71 76 71 77 71 72 30 76 30 11 30 72 72 73 72 77 72 74 73 78 73 77 73 75 74 79 74 78 74 68 75 72 75 10 75 69 75 73 75 72 75 70 76 74 76 73 76 71 77 75 77 74 77 64 78 68 78 9 78 65 79 69 79 68 79 66 80 70 80 69 80 67 81 71 81 70 81 83 16 95 16 7 16 82 82 94 82 95 82 81 83 93 83 94 83 80 84 92 84 93 84 2 85 88 85 92 85 89 45 93 45 92 45 89 86 90 86 94 86 90 87 91 87 95 87 1 23 84 23 88 23 84 88 85 88 89 88 86 89 90 89 89 89 87 90 91 90 90 90 80 91 84 91 1 91 81 92 85 92 84 92 82 93 86 93 85 93 83 94 87 94 86 94</p>
        </polylist>
      </mesh>
    </geometry>
  </library_geometries>
  <library_controllers>
    <controller id="Armature_003_BoneTest-skin" name="Armature.003">
      <skin source="#Cube-mesh">
        <bind_shape_matrix>1 0 2.22045e-16 0 0 1 0 0 -2.22045e-16 0 1 0 0 0 0 1</bind_shape_matrix>
        <source id="Armature_003_BoneTest-skin-joints">
          <Name_array id="Armature_003_BoneTest-skin-joints-array" count="4">BoneLevel4 BoneLevel1 BoneLevel2 BoneLevel3</Name_array>
          <technique_common>
            <accessor source="#Armature_003_BoneTest-skin-joints-array" count="4" stride="1">
              <param name="JOINT" type="name"/>
            </accessor>
          </technique_common>
        </source>
        <source id="Armature_003_BoneTest-skin-bind_poses">
          <float_array id="Armature_003_BoneTest-skin-bind_poses-array" count="64">0 -1 -3.97364e-7 5.4 1 0 1.58946e-7 -4 -1.58946e-7 -3.97364e-7 1 2.78155e-6 0 0 0 1 1 0 0 0 0 1 1.58946e-7 0 0 -1.58946e-7 1 4.76837e-7 0 0 0 1 1 0 0 0 0 1 0 -3 0 0 1 0 0 0 0 1 0 -1 0 5.4 1 0 0 -1 0 0 1 0 0 0 0 1</float_array>
          <technique_common>
            <accessor source="#Armature_003_BoneTest-skin-bind_poses-array" count="4" stride="16">
              <param name="TRANSFORM" type="float4x4"/>
            </accessor>
          </technique_common>
        </source>
        <source id="Armature_003_BoneTest-skin-weights">
          <float_array id="Armature_003_BoneTest-skin-weights-array" count="96">1 1 1 1 1 1 1 1 1 1 1 1 1 1 1 1 1 1 1 1 1 1 1 1 1 1 1 1 1 1 1 1 1 1 1 1 1 1 1 1 1 1 1 1 1 1 1 1 1 1 1 1 1 1 1 1 1 1 1 1 1 1 1 1 1 1 1 1 1 1 1 1 1 1 1 1 1 1 1 1 1 1 1 1 1 1 1 1 1 1 1 1 1 1 1 1</float_array>
          <technique_common>
            <accessor source="#Armature_003_BoneTest-skin-weights-array" count="96" stride="1">
              <param name="WEIGHT" type="float"/>
            </accessor>
          </technique_common>
        </source>
        <joints>
          <input semantic="JOINT" source="#Armature_003_BoneTest-skin-joints"/>
          <input semantic="INV_BIND_MATRIX" source="#Armature_003_BoneTest-skin-bind_poses"/>
        </joints>
        <vertex_weights count="96">
          <input semantic="JOINT" source="#Armature_003_BoneTest-skin-joints" offset="0"/>
          <input semantic="WEIGHT" source="#Armature_003_BoneTest-skin-weights" offset="1"/>
          <vcount>1 1 1 1 1 1 1 1 1 1 1 1 1 1 1 1 1 1 1 1 1 1 1 1 1 1 1 1 1 1 1 1 1 1 1 1 1 1 1 1 1 1 1 1 1 1 1 1 1 1 1 1 1 1 1 1 1 1 1 1 1 1 1 1 1 1 1 1 1 1 1 1 1 1 1 1 1 1 1 1 1 1 1 1 1 1 1 1 1 1 1 1 1 1 1 1 </vcount>
          <v>1 0 1 1 1 2 1 3 1 4 1 5 1 6 1 7 2 8 2 9 2 10 2 11 2 12 2 13 2 14 2 15 3 16 3 17 3 18 3 19 3 20 3 21 3 22 3 23 0 24 0 25 0 26 0 27 0 28 0 29 0 30 0 31 0 32 0 33 0 34 0 35 0 36 0 37 0 38 0 39 0 40 0 41 0 42 0 43 0 44 0 45 0 46 0 47 3 48 3 49 3 50 3 51 3 52 3 53 3 54 3 55 3 56 3 57 3 58 3 59 3 60 3 61 3 62 3 63 2 64 2 65 2 66 2 67 2 68 2 69 2 70 2 71 2 72 2 73 2 74 2 75 2 76 2 77 2 78 2 79 1 80 1 81 1 82 1 83 1 84 1 85 1 86 1 87 1 88 1 89 1 90 1 91 1 92 1 93 1 94 1 95</v>
        </vertex_weights>
      </skin>
    </controller>
  </library_controllers>
  <library_visual_scenes>
    <visual_scene id="Scene" name="Scene">
      <node id="Armature_003" name="Armature_003" type="NODE">
        <matrix sid="transform">1 0 0 0 0 1 0 0 0 0 1 0 0 0 0 1</matrix>
        <node id="BoneLevel1" name="BoneLevel1" sid="BoneLevel1" type="JOINT">
          <matrix sid="transform">1 -2.22045e-16 0 1.33227e-15 2.22045e-16 1 -1.58946e-7 0 0 1.58946e-7 1 -4.76837e-7 0 0 0 1</matrix>
          <node id="BoneLevel2" name="BoneLevel2" sid="BoneLevel2" type="JOINT">
            <matrix sid="transform">1 0 0 0 0 1 1.58946e-7 3 0 -1.58946e-7 1 0 0 0 0 1</matrix>
            <node id="BoneLevel3" name="BoneLevel3" sid="BoneLevel3" type="JOINT">
              <matrix sid="transform">0 1 0 1 -1 0 0 2.4 0 0 1 0 0 0 0 1</matrix>
              <node id="BoneLevel4" name="BoneLevel4" sid="BoneLevel4" type="JOINT">
                <matrix sid="transform">1 2.22045e-16 3.97364e-7 0 6.31594e-14 1 -1.58946e-7 3 -3.97364e-7 1.58946e-7 1 0 0 0 0 1</matrix>
              </node>
            </node>
          </node>
        </node>
      </node>
      <node id="BoneTest" name="BoneTest" type="NODE">
        <translate sid="location">0 0 0</translate>
        <rotate sid="rotationZ">0 0 1 0</rotate>
        <rotate sid="rotationY">0 1 0 0</rotate>
        <rotate sid="rotationX">1 0 0 0</rotate>
        <scale sid="scale">1 1 1</scale>
        <instance_controller url="#Armature_003_BoneTest-skin">
          <skeleton>#BoneLevel1</skeleton>
          <bind_material>
            <technique_common>
              <instance_material symbol="Material-material" target="#Material-material"/>
            </technique_common>
          </bind_material>
        </instance_controller>
      </node>
    </visual_scene>
  </library_visual_scenes>
  <scene>
    <instance_visual_scene url="#Scene"/>
  </scene>
</COLLADA>