<?xml version="1.0" encoding="utf-8"?>
<COLLADA xmlns="http://www.collada.org/2005/11/COLLADASchema" version="1.4.1">
  <asset>
    <contributor>
      <author>Blender User</author>
      <authoring_tool>Blender 2.77.0 commit date:2016-04-05, commit time:18:12, hash:abf6f08</authoring_tool>
    </contributor>
    <created>2016-05-22T17:32:40</created>
    <modified>2016-05-22T17:32:40</modified>
    <unit name="meter" meter="1"/>
    <up_axis>Z_UP</up_axis>
  </asset>
  <library_images/>
  <library_effects>
    <effect id="Material-effect">
      <profile_COMMON>
        <technique sid="common">
          <phong>
            <emission>
              <color sid="emission">0 0 0 1</color>
            </emission>
            <ambient>
              <color sid="ambient">0 0 0 1</color>
            </ambient>
            <diffuse>
              <color sid="diffuse">0.8082645 0.8082645 0.8082645 1</color>
            </diffuse>
            <specular>
              <color sid="specular">0.885675 0.885675 0.885675 1</color>
            </specular>
            <shininess>
              <float sid="shininess">2</float>
            </shininess>
            <index_of_refraction>
              <float sid="index_of_refraction">1</float>
            </index_of_refraction>
          </phong>
        </technique>
      </profile_COMMON>
    </effect>
    <effect id="Material_001-effect">
      <profile_COMMON>
        <technique sid="common">
          <phong>
            <emission>
              <color sid="emission">0 0 0 1</color>
            </emission>
            <ambient>
              <color sid="ambient">0 0 0 1</color>
            </ambient>
            <diffuse>
              <color sid="diffuse">0.64 0.252391 0.07269076 1</color>
            </diffuse>
            <specular>
              <color sid="specular">0.5 0.5 0.5 1</color>
            </specular>
            <shininess>
              <float sid="shininess">50</float>
            </shininess>
            <index_of_refraction>
              <float sid="index_of_refraction">1</float>
            </index_of_refraction>
          </phong>
        </technique>
      </profile_COMMON>
    </effect>
  </library_effects>
  <library_materials>
    <material id="Material-material" name="Material">
      <instance_effect url="#Material-effect"/>
    </material>
    <material id="Material_001-material" name="Material_001">
      <instance_effect url="#Material_001-effect"/>
    </material>
  </library_materials>
  <library_geometries>
    <geometry id="CopperSeperation-mesh" name="CopperSeperation">
      <mesh>
        <source id="CopperSeperation-mesh-positions">
          <float_array id="CopperSeperation-mesh-positions-array" count="24">10 -0.007929921 3.99674 -9.999997 -0.007869005 3.996755 10 0.01337105 3.99674 -9.999997 0.01337969 3.996755 10 0.01337105 4.098734 -9.999997 0.01337969 4.098749 10 -0.00780487 4.098734 -9.999997 -0.007796227 4.098749</float_array>
          <technique_common>
            <accessor source="#CopperSeperation-mesh-positions-array" count="8" stride="3">
              <param name="X" type="float"/>
              <param name="Y" type="float"/>
              <param name="Z" type="float"/>
            </accessor>
          </technique_common>
        </source>
        <source id="CopperSeperation-mesh-normals">
          <float_array id="CopperSeperation-mesh-normals-array" count="18">-6.99552e-7 0 -1 4.31579e-7 1 -1.46098e-7 7.38865e-7 0 1 -6.9314e-7 0 -1 4.31572e-7 1 -1.75318e-7 7.17477e-7 0 1</float_array>
          <technique_common>
            <accessor source="#CopperSeperation-mesh-normals-array" count="6" stride="3">
              <param name="X" type="float"/>
              <param name="Y" type="float"/>
              <param name="Z" type="float"/>
            </accessor>
          </technique_common>
        </source>
        <source id="CopperSeperation-mesh-map-0">
          <float_array id="CopperSeperation-mesh-map-0-array" count="36">0 0 0 0 0 0 0 0 0 0 0 0 0 0 0 0 0 0 0 0 0 0 0 0 0 0 0 0 0 0 0 0 0 0 0 0</float_array>
          <technique_common>
            <accessor source="#CopperSeperation-mesh-map-0-array" count="18" stride="2">
              <param name="S" type="float"/>
              <param name="T" type="float"/>
            </accessor>
          </technique_common>
        </source>
        <vertices id="CopperSeperation-mesh-vertices">
          <input semantic="POSITION" source="#CopperSeperation-mesh-positions"/>
        </vertices>
        <polylist material="Material_001-material" count="6">
          <input semantic="VERTEX" source="#CopperSeperation-mesh-vertices" offset="0"/>
          <input semantic="NORMAL" source="#CopperSeperation-mesh-normals" offset="1"/>
          <input semantic="TEXCOORD" source="#CopperSeperation-mesh-map-0" offset="2" set="0"/>
          <vcount>3 3 3 3 3 3 </vcount>
          <p>1 0 0 2 0 1 0 0 2 3 1 3 4 1 4 2 1 5 5 2 6 6 2 7 4 2 8 1 3 9 3 3 10 2 3 11 3 4 12 5 4 13 4 4 14 5 5 15 7 5 16 6 5 17</p>
        </polylist>
      </mesh>
    </geometry>
  </library_geometries>
  <library_controllers/>
  <library_visual_scenes>
    <visual_scene id="Scene" name="Scene">
      <node id="GroundStones_001" name="GroundStones_001" type="NODE">
        <matrix sid="transform">1 -7.15256e-7 -7.15256e-7 0 -7.15256e-7 -1.6292e-7 -1 0 7.15256e-7 1 -1.62921e-7 0 0 0 0 1</matrix>
        <instance_geometry url="#CopperSeperation-mesh" name="GroundStones_001">
          <bind_material>
            <technique_common>
              <instance_material symbol="Material-material" target="#Material-material"/>
              <instance_material symbol="Material_001-material" target="#Material_001-material"/>
            </technique_common>
          </bind_material>
        </instance_geometry>
      </node>
    </visual_scene>
  </library_visual_scenes>
  <scene>
    <instance_visual_scene url="#Scene"/>
  </scene>
</COLLADA>