<?xml version="1.0" encoding="utf-8"?>
<COLLADA xmlns="http://www.collada.org/2005/11/COLLADASchema" version="1.4.1">
  <asset>
    <contributor>
      <author>Blender User</author>
      <authoring_tool>Blender 2.77.0 commit date:2016-04-05, commit time:18:12, hash:abf6f08</authoring_tool>
    </contributor>
    <created>2016-05-23T13:41:10</created>
    <modified>2016-05-23T13:41:10</modified>
    <unit name="meter" meter="1"/>
    <up_axis>Z_UP</up_axis>
  </asset>
  <library_images/>
  <library_effects/>
  <library_geometries>
    <geometry id="Plane_001-mesh" name="Plane.001">
      <mesh>
        <source id="Plane_001-mesh-positions">
          <float_array id="Plane_001-mesh-positions-array" count="1170">21.20414 -0.1888458 -5.002821 21.3437 -0.9727239 5.016944 21.28649 -0.9056831 3.362527 21.27066 -0.6536985 1.666884 21.30153 -0.477638 -0.004660904 21.25023 -0.472153 -1.710863 21.22971 -0.3313376 -3.354172 12.06993 -0.1225939 -3.237514 14.02384 -0.1727614 -3.290041 15.88408 -0.2175498 -3.373176 17.67081 -0.3129301 -3.25441 19.41488 -0.20863 -3.302491 12.10745 -0.3081966 -1.611504 14.10063 -0.2280742 -1.587186 15.93457 -0.2096279 -1.664181 17.66536 -0.4018045 -1.670953 19.41612 -0.4648162 -1.657893 12.16039 -0.5046944 -0.07358103 14.06909 -0.3312233 -0.02177757 15.87791 -0.5107266 -0.008098304 17.65784 -0.5907791 0.003927826 19.43915 -0.5667753 0.01618617 12.17892 -0.49804 1.568562 14.00067 -0.6316884 1.563267 15.82365 -0.7415521 1.618977 17.64618 -0.7519969 1.60553 19.4229 -0.7850552 1.656866 12.14048 -0.7857855 3.238975 13.98824 -0.8410627 3.268554 15.85014 -0.8054298 3.255724 17.64036 -0.7426477 3.245643 19.41608 -0.8668638 3.313896 12.13864 -0.9307011 4.941527 14.01303 -0.9295488 4.98743 15.80699 -0.9059061 4.929062 17.51197 -0.782145 4.962668 19.40896 -0.8448014 4.942131 12.1217 -0.1375585 -4.904679 13.99726 -0.04458218 -4.921671 15.90227 -0.1479612 -4.962372 17.70659 -0.1234313 -4.915866 19.42357 -0.1433882 -4.967232 -21.05064 -0.8877477 4.995875 -21.1873 -0.06196099 -5.024391 -21.13118 -0.2294322 -3.377384 -21.11421 -0.359074 -1.672014 -21.14864 -0.4608137 0.005436837 -21.09616 -0.6566682 1.702041 -21.07922 -0.7311215 3.340327 -11.90942 -0.9470919 3.229973 -13.87522 -0.9410545 3.280686 -15.72768 -0.7522737 3.364458 -17.51501 -0.8361465 3.258538 -19.25449 -0.8711871 3.292495 -11.95622 -0.6598244 1.617628 -13.94328 -0.870765 1.577032 -15.7779 -0.7984616 1.657351 -17.51112 -0.6455731 1.65873 -19.26099 -0.610004 1.640623 -11.99395 -0.5930386 0.06599998 -13.91376 -0.7036051 0.01340711 -15.71943 -0.4947939 0.007467091 -17.49212 -0.368999 -0.004439473 -19.28608 -0.4451696 -0.02611631 -12.02141 -0.5612733 -1.576866 -13.84401 -0.386792 -1.570136 -15.66543 -0.3424246 -1.627916 -17.48596 -0.2449691 -1.612627 -19.26932 -0.2089627 -1.659088 -11.98529 -0.2480443 -3.246031 -13.82991 -0.1635741 -3.273375 -15.68367 -0.3138213 -3.274036 -17.48163 -0.2618404 -3.253363 -19.26091 -0.2295804 -3.315374 -11.98188 -0.07555395 -4.947216 -13.86154 0.005231797 -4.985299 -15.65332 -0.1095414 -4.937055 -17.35976 -0.1626225 -4.958972 -19.25639 -0.2327385 -4.955254 -11.96568 -0.8991639 4.897164 -13.84782 -1.067384 4.903659 -15.74669 -0.8871138 4.953993 -17.55191 -0.7740036 4.931197 -19.26772 -0.8786891 4.959908 11.22223 -0.9750251 4.873425 21.36165 -0.9684279 5.813428 22.14735 -0.2473369 -4.979964 12.20048 -0.136618 -5.78184 11.21143 -0.2720876 -4.952926 11.0555 -0.1770536 -3.335798 11.07726 -0.3969873 -1.650643 11.13206 -0.5767359 -0.05783855 11.2175 -0.5331349 1.638775 11.22755 -0.7293726 3.266664 22.27005 -0.9199084 5.168968 22.25007 -0.9058234 3.397584 22.2149 -0.733872 1.616414 22.22153 -0.542465 -0.01329976 22.20034 -0.4606234 -1.707406 22.19788 -0.3572198 -3.298231 12.12129 -0.9286855 4.063772 12.16298 -0.6328551 2.420835 12.1954 -0.4771803 0.7051879 12.11095 -0.4476356 -0.8491978 12.0977 -0.1117325 -2.368358 12.03709 -0.0964381 -4.105022 12.14518 -1.127408 5.800876 14.01691 -1.066874 5.844014 15.77781 -0.9031661 5.735727 17.49887 -0.9496703 5.773081 19.44046 -0.9670423 5.7488 21.12548 -0.1779112 -5.78184 19.34841 -0.112873 -5.78184 17.64882 -0.08800452 -5.78184 15.92123 -0.0550338 -5.78184 14.04893 0.01648396 -5.78184 21.3288 -0.9112622 4.219908 19.37681 -0.7605001 4.131823 17.5258 -0.7466499 4.137914 15.83414 -0.8621353 4.123992 14.01372 -0.8923139 4.120704 21.24582 -0.8174347 2.510356 19.45635 -0.9084186 2.489297 17.75537 -0.772605 2.351556 15.85438 -0.6352904 2.397374 13.96788 -0.7156128 2.423912 21.29747 -0.5921006 0.8134033 19.38789 -0.6471316 0.826 17.54499 -0.657274 0.8640813 15.78242 -0.6608653 0.8469286 14.03543 -0.5367817 0.7049726 21.30739 -0.4077511 -0.8273058 19.50032 -0.5435696 -0.7889458 17.75838 -0.5869215 -0.8668727 15.97921 -0.2853621 -0.8469538 14.0961 -0.2572246 -0.7696663 21.19417 -0.3785274 -2.590384 19.33038 -0.2184005 -2.499903 17.57077 -0.1536126 -2.457531 15.88533 -0.2399637 -2.483223 14.10515 -0.1367524 -2.402244 21.28498 -0.1497594 -4.097311 19.49828 -0.1558629 -4.101778 17.77039 -0.3495926 -4.064914 15.87963 -0.2038159 -4.257914 13.94316 -0.1431612 -4.180715 13.08193 -0.117932 -3.147058 14.96828 -0.2791071 -3.435716 16.79603 -0.291188 -3.305872 18.54348 -0.2300807 -3.217747 20.28705 -0.09013503 -3.378452 13.13907 -0.2418959 -1.577352 15.06177 -0.205524 -1.596854 16.80443 -0.2892677 -1.735625 18.53222 -0.4352748 -1.586661 20.29973 -0.4694305 -1.717311 13.16822 -0.2671758 -0.08931094 14.96491 -0.4321906 0.03515678 16.79733 -0.5098647 -0.03525274 18.51045 -0.7548879 0.03657329 20.38319 -0.510436 -0.005769073 13.14249 -0.4673507 1.49821 14.86606 -0.6437126 1.648267 16.77451 -0.6987627 1.599877 18.51791 -0.9059835 1.604021 20.32896 -0.7381249 1.699749 13.05766 -0.743766 3.226838 14.92109 -0.8478904 3.318304 16.76988 -0.6254813 3.206126 18.51181 -0.7967026 3.284754 20.32364 -0.8919507 3.334082 13.04693 -1.036667 4.99737 14.98119 -0.8828909 4.968221 16.62752 -0.8230502 4.895569 18.39669 -0.7563496 5.027402 20.42347 -0.8341043 4.866686 13.02336 0.08663934 -4.854837 14.97571 -0.05213856 -4.973675 16.82891 -0.2639742 -4.9501 18.58716 -0.2223709 -4.920976 20.26081 -0.05759394 -5.032683 -11.06939 -0.1325131 -4.886252 -21.20767 -0.119677 -5.78184 -21.99323 -0.7978585 4.970062 -12.03324 -0.9693579 5.695297 -11.05395 -0.7670728 4.945492 -10.90361 -0.7898517 3.323817 -10.92078 -0.6401117 1.640606 -10.97688 -0.4382155 0.04905354 -11.06169 -0.490009 -1.645932 -11.07552 -0.3513695 -3.286937 -22.11386 -0.09782886 -5.176903 -22.09507 -0.2122406 -3.415922 -22.05938 -0.3516455 -1.630353 -22.06614 -0.5233213 0.001907527 -22.045 -0.5746635 1.700963 -22.04206 -0.6742666 3.290431 -11.96491 -0.08655869 -4.067213 -12.00778 -0.4173023 -2.430903 -12.0371 -0.5846092 -0.7138819 -11.96909 -0.4959909 0.8498731 -11.94435 -0.8454141 2.369498 -11.88546 -0.905083 4.097271 -11.99684 0.01219493 -5.78184 -13.85547 -0.01416075 -5.78184 -15.62179 -0.1273989 -5.78184 -17.34376 -0.09432971 -5.78184 -19.28236 -0.06981128 -5.78184 -20.97004 -0.7656944 5.896975 -19.19598 -0.9424419 5.823819 -17.4882 -1.010518 5.77931 -15.76604 -0.9810921 5.658597 -13.89329 -1.139227 5.645903 -21.16993 -0.07245713 -4.225661 -19.22494 -0.3334016 -4.139237 -17.37303 -0.2650285 -4.143448 -15.68304 -0.1119704 -4.128506 -13.85833 -0.1731811 -4.131546 -21.09099 -0.2049574 -2.517773 -19.30471 -0.0765922 -2.497345 -17.59667 -0.2380927 -2.359172 -15.69725 -0.3924294 -2.40352 -13.81255 -0.3284112 -2.432801 -21.13958 -0.4710886 -0.8237394 -19.23727 -0.290753 -0.8225771 -17.3839 -0.3101687 -0.8663484 -15.63168 -0.4488874 -0.8637604 -13.88208 -0.5311802 -0.7185304 -21.15186 -0.5220411 0.8277508 -19.34811 -0.4382169 0.7851879 -17.60154 -0.4229543 0.8630641 -15.82465 -0.7990953 0.830693 -13.94003 -0.7711941 0.7621693 -21.03733 -0.6313787 2.584837 -19.17226 -0.7761421 2.496076 -17.41536 -0.937434 2.446475 -15.7344 -0.8829274 2.476102 -13.94894 -0.8341731 2.396534 -21.11647 -0.8082634 4.09277 -19.33565 -0.9085513 4.093378 -17.61665 -0.7466511 4.057161 -15.72404 -0.8035516 4.251703 -13.7947 -0.9371967 4.169035 -12.92838 -0.9918953 3.132675 -14.81336 -0.7764782 3.429414 -16.64135 -0.7763777 3.299451 -18.38812 -0.8127187 3.212236 -20.12842 -0.8941914 3.380034 -12.98482 -0.7646964 1.571907 -14.90583 -0.8250774 1.589261 -16.65177 -0.7791305 1.723811 -18.37629 -0.6037093 1.576082 -20.14514 -0.5950499 1.707931 -13.01534 -0.702836 0.08639299 -14.81513 -0.6796744 -0.05934065 -16.64207 -0.528765 0.02516013 -18.35491 -0.3113667 -0.04634815 -20.2299 -0.4592746 0.003335475 -12.98567 -0.5355085 -1.501781 -14.7097 -0.3650572 -1.65469 -16.61865 -0.3590354 -1.608741 -18.36141 -0.1129244 -1.609835 -20.17519 -0.239125 -1.70295 -12.90271 -0.3389612 -3.243041 -14.76528 -0.1642661 -3.324989 -16.61526 -0.3270036 -3.207965 -18.35167 -0.1529315 -3.302046 -20.16789 -0.2136746 -3.340439 -12.89065 0.01784038 -5.003881 -14.83057 -0.02412831 -4.970923 -16.47377 -0.1498498 -4.899492 -18.24143 -0.3009117 -5.038737 -20.26704 -0.1612462 -4.871599 -12.86754 -1.104162 4.847754 -14.81317 -0.8876817 4.987068 -16.67383 -0.7999938 4.938773 -18.43178 -0.824777 4.910675 -20.10624 -0.9207746 5.018065 11.2489 -0.9111606 5.714104 22.26538 -0.8893045 5.990574 11.35143 -0.1178141 -5.78184 22.06887 -0.1281993 -5.78184 11.05468 -0.3075095 -4.262475 11.05404 -0.09176015 -2.408944 11.10611 -0.7349261 -0.8928847 11.17864 -0.5291861 0.7778114 11.25556 -0.4787303 2.503977 11.20431 -0.9148164 4.04147 22.27041 -1.054433 4.348449 22.22698 -0.7729256 2.449903 22.20335 -0.6002494 0.7935379 22.24179 -0.3780517 -0.810894 22.16092 -0.4015777 -2.601179 22.22709 -0.3889684 -3.99758 13.0536 -1.186844 5.903014 14.97978 -0.9346779 5.787139 16.57596 -0.8530485 5.687544 18.41991 -0.9331516 5.872281 20.46223 -0.9009301 5.637053 20.17939 -0.3756086 -5.78184 18.51396 0.07694512 -5.78184 16.77623 -0.154931 -5.78184 15.07158 0.07852798 -5.78184 13.03003 -0.04186439 -5.78184 20.38052 -0.8672427 4.089877 18.37284 -0.6972776 4.172241 16.67677 -0.7348735 4.1086 14.98613 -0.9166753 4.145011 13.03915 -0.9150138 4.089902 20.26125 -0.7580432 2.580266 18.6477 -0.9695352 2.403038 16.86086 -0.6174207 2.299634 14.85593 -0.8051781 2.487653 13.07432 -0.652813 2.35395 20.38969 -0.602201 0.8303257 18.38775 -0.7615423 0.8156627 16.69308 -0.6436312 0.9042194 14.87426 -0.5823596 0.7987514 13.20711 -0.4131373 0.6257214 20.38074 -0.5127375 -0.8486127 18.63266 -0.7293881 -0.7415207 16.89904 -0.3484424 -0.9756788 15.0574 -0.2508538 -0.7219669 13.1395 -0.3394173 -0.8229883 20.226 -0.3733326 -2.582171 18.43123 -0.155119 -2.426292 16.70974 -0.2048581 -2.494116 15.06497 -0.204323 -2.471791 13.14367 -0.1630218 -2.331203 20.34105 0.07625436 -4.195623 18.6534 -0.3762101 -4.007338 16.88395 -0.3005934 -4.122396 14.87934 -0.2359918 -4.398426 13.02431 0.08978819 -3.949333 -11.09081 -0.0882526 -5.78184 -22.10696 -0.209123 -5.78184 -11.20801 -0.8187438 5.638741 -21.91227 -0.9684904 5.949521 -10.90554 -0.6782329 4.252737 -10.89772 -0.959663 2.399131 -10.94135 -0.3430896 0.8784483 -11.02831 -0.4291856 -0.7856509 -11.10261 -0.5738489 -2.5159 -11.0481 -0.09650021 -4.046962 -22.11813 -0.02502781 -4.356559 -22.07078 -0.3085637 -2.46078 -22.04717 -0.3943795 -0.7988595 -22.08502 -0.5668704 0.8077738 -22.00546 -0.6467093 2.592246 -22.06965 -0.6291481 3.992326 -12.89769 0.1943233 -5.78184 -14.82371 -0.09688377 -5.78184 -16.42156 -0.1357235 -5.78184 -18.26483 -0.0588591 -5.78184 -20.3052 -0.07213026 -5.78184 -20.0237 -0.669961 5.841557 -18.35811 -1.058652 5.815704 -16.62091 -0.8752326 5.758907 -14.91837 -1.154445 5.545831 -12.87512 -0.9839895 5.751899 -20.22858 -0.2188813 -4.099111 -18.21668 -0.3200944 -4.180632 -16.52385 -0.2311248 -4.110207 -14.83379 -0.03156888 -4.148458 -12.88403 -0.1048685 -4.093323 -20.10924 -0.2127187 -2.583659 -18.49268 -0.07293558 -2.409226 -16.70792 -0.5029793 -2.308055 -14.70042 -0.235088 -2.497016 -12.92258 -0.4400743 -2.371418 -20.23666 -0.3753712 -0.8316089 -18.23284 -0.3183327 -0.8272145 -16.53402 -0.2807709 -0.9033014 -14.71909 -0.4548937 -0.808018 -13.05063 -0.6154618 -0.6336753 -20.22104 -0.5742856 0.8368821 -18.47714 -0.2607386 0.739017 -16.75223 -0.7486828 0.9578992 -14.90155 -0.7726363 0.7150318 -12.97643 -0.7712408 0.8102482 -20.07206 -0.7058852 2.566411 -18.27482 -0.8833404 2.419393 -16.55394 -0.816875 2.486463 -14.91065 -0.8877984 2.464996 -12.9883 -0.8032788 2.329926 -20.18462 -1.068548 4.187857 -18.50196 -0.6037859 4.000999 -16.72877 -0.7989916 4.111979 -14.72244 -0.777744 4.393155 -12.86843 -1.121235 3.941842</float_array>
          <technique_common>
            <accessor source="#Plane_001-mesh-positions-array" count="390" stride="3">
              <param name="X" type="float"/>
              <param name="Y" type="float"/>
              <param name="Z" type="float"/>
            </accessor>
          </technique_common>
        </source>
        <source id="Plane_001-mesh-normals">
          <float_array id="Plane_001-mesh-normals-array" count="1170">0.09805756 0.9949502 -0.02142429 -0.02056956 0.9994558 0.02578824 0.2057574 0.971656 0.1163985 0.1087998 0.9903073 0.08633792 0.009338796 0.9960833 0.08792561 -0.0293287 0.9962604 -0.08127194 -0.05978631 0.9771206 -0.2041097 0.06457906 0.9978024 0.01483243 0.04724365 0.9959932 0.07593166 -0.005188167 0.9998881 -0.01403862 -0.05166846 0.9950383 -0.08502566 0.08417069 0.9957658 0.03695815 0.08710157 0.995168 0.04532086 0.06854474 0.9966458 0.04470974 0.00540179 0.9984805 0.05484211 0.06112974 0.9970893 -0.045565 0.03335726 0.9933322 0.1103566 0.006073236 0.9929931 0.1180165 -0.01181083 0.9910128 0.1332459 0.02850455 0.9977508 0.06067132 -0.06473082 0.9907388 0.1193599 -0.004822015 0.9922438 0.1242136 0.06763029 0.9942511 0.08301192 0.008545279 0.9936089 0.1125543 -0.04031604 0.9919399 0.1201241 -0.05050879 0.9962903 0.06967467 0.009644031 0.9945265 0.1040396 0.02819967 0.9909263 0.1314154 0.04196298 0.992921 0.111118 -0.04431354 0.9989777 0.008942008 -0.01535093 0.9994922 0.02792471 -0.05774199 0.9982777 0.01037645 -0.0169686 0.9998081 -0.009796619 0.01455748 0.9971446 0.07409989 0.04941034 0.9916868 0.1188107 0.002227902 0.9963606 0.0852096 0.007843315 0.9751068 0.2215971 0.1627888 0.9781064 0.1296451 0.02609407 0.9996028 0.01065123 0.1652921 0.9813151 0.09848552 -0.04931831 0.9984213 0.02688699 -0.006714224 0.9879385 0.154702 0.005249142 0.9899311 0.1414536 0.02646034 0.9918529 0.124611 0.02829086 0.9963153 0.08096623 -0.1713931 0.9849001 -0.02441495 -0.08966451 0.9931154 -0.07538163 0.02237027 0.9992792 0.03067141 0.1086463 0.9940533 0.007354974 0.04052859 0.9988108 -0.02710044 0.0242322 0.9995029 -0.02017313 0.1698376 0.9835933 0.06082409 0.008453667 0.9999142 -0.01001012 0.00112915 0.9999819 -0.005920648 -0.01278734 0.999918 -8.24008e-4 0.04532045 0.9968373 -0.06527978 0.0353105 0.9983091 0.0461753 0.0445584 0.9967665 0.06686818 0.005218684 0.9991536 0.04080355 -0.01236033 0.9942932 -0.1059635 0.02444559 0.994365 0.1031537 -0.02942061 0.993618 -0.108893 0.03234982 0.9965882 0.07593053 0.1084646 0.9847882 0.1357486 -0.06448763 0.9969797 0.0432766 0.03689795 0.9779641 0.2054872 -0.195443 0.9791992 0.05450671 -0.08288949 0.9964443 0.01510685 -0.09222835 0.9697105 0.2261762 -0.2231253 0.9713627 0.08166915 -0.1575077 0.9829813 0.09454733 -0.04638946 0.9915147 0.1214367 -0.005096673 0.9953199 0.09650141 -0.06436562 0.9283422 0.3661119 -0.02929824 0.9961711 0.08237081 -0.1048628 0.9941216 0.02694815 -0.01297056 0.9978814 0.06375426 0.01229918 0.9990137 0.04266571 0.05642992 0.9855256 0.1598595 0.03704994 0.9983046 0.04489332 0.1373989 0.9833088 0.1192703 0.08060157 0.9905056 0.1113651 0.07916575 0.9682393 0.2371615 0.1779553 0.9741614 0.1390743 0.05237156 0.9530348 0.2982983 0.02414077 0.9807686 0.1936755 -0.0163275 0.9901817 0.1388299 -0.1135609 0.9922308 0.05081397 -0.1038254 0.9942154 0.02749752 -0.05273723 0.9984979 -0.01486283 -0.05279749 0.9986052 -3.05188e-4 0.003174006 0.9923077 0.1237561 -0.106816 0.9915274 0.07391667 -0.1302229 0.9895358 -0.06213587 0.08728379 0.979837 0.1797252 0.09628832 0.9789366 0.1800332 0.06726497 0.9754035 0.2099131 0.03396809 0.9898356 0.1381003 0.04171955 0.9761227 0.2131758 -0.003326535 0.993172 0.1166121 0.04962414 0.9851284 0.1644983 0.0280162 0.9876788 0.1539672 0.08478111 0.9907918 0.1055644 0.1518956 0.9856584 0.07352149 0.03466987 0.9946843 0.09695971 0.0035097 0.9995673 0.02920693 -0.09641116 0.9879171 0.1213456 -0.1278458 0.9902935 0.05453813 0.01962351 0.9995489 0.02273643 0.0651893 0.9889489 0.1331559 -0.02191281 0.9952326 0.09503692 0.05273741 0.9885823 0.1411519 0.06585919 0.9881626 0.1385545 0.08011335 0.9899265 0.1167366 0.06851452 0.9894172 0.1279039 0.02432328 0.9957599 0.08871746 0.05203527 0.9887931 0.1399307 -0.07568687 0.996137 0.04452705 0.02996945 0.9993695 -0.01904374 0.004547357 0.9998775 -0.01498502 0.1285143 0.9905154 0.04861629 0.0592069 0.9973006 -0.04342854 0.1703552 0.9851732 -0.02032542 0.02768045 0.9928953 0.1157269 -0.09042704 0.9845654 0.149847 0.06708091 0.9975163 -0.02148538 -0.1144465 0.9930301 0.02816909 0.05154699 0.9647745 0.2579792 -0.003540158 0.9947034 0.1027267 0.03143495 0.9800397 0.1963009 0.00714153 0.9916062 0.1290971 0.03143501 0.9861144 0.1630654 0.1422497 0.9847002 0.1006521 0.04467988 0.9932119 0.1073965 -0.02417069 0.9981416 0.05594056 -0.01837217 0.9978044 0.06363117 -0.02539181 0.9890302 0.1455147 -0.09579944 0.9931829 0.06640952 -0.1232961 0.9854838 0.116704 -0.07547336 0.9917438 0.1036729 -0.01577824 0.9973264 0.07135313 -0.0155341 0.9987322 0.04788416 0.08819913 0.9960095 -0.01364183 0.02194285 0.999759 -8.54521e-4 0.09122055 0.9886555 -0.1193284 0.06933981 0.9973098 -0.0237745 0.02044767 0.9972676 -0.07098704 -0.03369343 0.9970704 0.06866872 0.04873847 0.9945161 0.09253299 0.08063197 0.9944407 0.06772232 0.1351674 0.9696102 0.2039261 3.0519e-4 0.9893651 0.1454535 -0.02887052 0.9994824 -0.01419109 -0.1169796 0.9803033 0.1591265 -0.08890193 0.9919908 0.08972597 -0.06033629 0.9944663 0.08600294 -0.008209466 0.9998831 0.01290935 -0.03146535 0.9994155 0.01336741 -0.04318493 0.9989302 0.01654148 -0.0350362 0.9974028 0.06293088 -0.07312381 0.9957476 0.05603307 -0.008514761 0.9994354 0.03250271 -0.0283522 0.9938843 0.1067252 0.01730442 0.978877 0.2037165 0.02267587 0.9908726 0.1328814 0.01947104 0.9865846 0.1620858 0.03582912 0.9927481 0.1147509 -0.1694099 0.9839568 0.05594092 -0.1716079 0.9849675 -0.0197457 -0.01483237 0.9988679 -0.04519915 -0.08346891 0.9956759 -0.04077309 -0.06799584 0.9943023 0.0820955 0.06799614 0.993055 0.09601247 0.01901322 0.9858202 0.1667245 0.01937931 0.9800464 0.197822 -0.03784358 0.9953783 0.088261 -0.03604263 0.9952479 -0.09045761 0.1176802 0.9873724 0.1060525 -0.01272648 0.9966057 0.08133375 0.02557504 0.9916288 0.126563 0.1346828 0.9842252 0.114723 0.03903335 0.9880723 0.1489616 -0.03717172 0.985662 0.1645872 0.01773148 0.9792932 0.2016694 0.07953184 0.9657961 0.246805 -0.1520482 0.9856892 0.07278907 -0.04519885 0.9986782 -0.02447634 -0.04352045 0.9589465 -0.2802281 0.1792996 0.9783199 0.1036428 0.05743676 0.9981852 -0.01809775 0.01443523 0.9989943 0.04245126 0.1876943 0.9754004 0.1156075 0.1117909 0.9838393 0.1398683 -0.06116032 0.9977015 0.02917629 -0.1218028 0.9793661 -0.1612643 -0.05075371 0.9801 -0.191906 0.027345 0.9994068 -0.02093601 0.0134589 0.9982479 0.05761992 -0.05264562 0.994072 -0.09512841 -0.04739677 0.9923121 -0.1143261 0.01464897 0.9978092 0.06451654 0.07754969 0.9915739 0.1037658 0.09055 0.9918995 0.0890851 0.003845334 0.9973779 0.072268 0.1028808 0.9934367 0.04999071 0.0152291 0.9891307 0.1462485 -0.0402854 0.996179 0.07748836 -0.06579989 0.9960327 0.05990964 0.01913553 0.9995653 -0.02243161 -0.07693898 0.9897694 0.1201542 -0.06689757 0.9878385 0.1403568 0.03100693 0.9970148 0.07071179 -0.005249261 0.9980022 0.06296068 -0.08145529 0.9886944 0.125891 -0.03100693 0.9962518 0.08075243 -0.01431322 0.9986026 0.05087465 0.0436415 0.9969502 0.06469935 -0.06274729 0.9920545 0.1090448 0.009918749 0.9950528 0.09885215 0.01260423 0.9981789 0.05899286 -0.06131237 0.9932056 0.09891158 0.04986858 0.9958161 0.07657307 0.03189218 0.9980585 0.05349951 0.02594143 0.9961828 0.08334839 -0.02121078 0.9964513 0.0814557 0.05435395 0.9826137 0.1775278 0.1174392 0.9884366 0.09592294 0.05942064 0.9981883 -0.009460866 0.1357163 0.9877963 0.07641863 -0.08844321 0.9957954 0.02386564 0.02920663 0.9860062 0.1641309 0.03366208 0.9777276 0.2071609 0.009949207 0.9857094 0.1681608 -0.007263422 0.9994543 0.03222763 -0.1952595 0.9802038 -0.03277719 -0.1602576 0.9786369 -0.1287921 -0.01181066 0.9978369 0.06466895 0.1084042 0.993431 0.03665357 0.01297038 0.9999141 0.001922667 0.08703905 0.9947543 -0.05374324 0.1664192 0.9845373 0.0546897 0.01370292 0.9993688 -0.03277719 0.0421769 0.9988487 -0.02285856 -0.0431233 0.9990385 -0.00790441 -0.05536091 0.9981142 -0.02652072 0.007080435 0.9999659 0.004272699 0.002533078 0.9977933 0.06634861 9.46085e-4 0.9964715 0.08392685 0.006286799 0.9954571 -0.09500449 0.08063066 0.9892063 0.1223499 0.0260635 0.9923983 -0.1202768 0.06711083 0.9974154 -0.02566629 0.06677627 0.987514 0.1426779 -0.06949168 0.9963837 0.04889136 0.06311303 0.9832269 0.1711193 -0.1822919 0.9822646 0.04388678 -0.06476086 0.9977513 0.0172736 -0.06326597 0.9728257 0.2227281 -0.1118518 0.9881409 0.1051986 -0.1823846 0.9828504 0.0272234 -0.1319641 0.9903412 0.04254347 -0.02963399 0.9889391 0.1453317 0.009979784 0.9384074 0.3453869 -0.00552392 0.999374 0.03494417 -0.1273253 0.9912269 0.03546303 0.004730463 0.9947768 0.101965 0.01236027 0.9985877 0.05166894 0.02649027 0.985756 0.166083 0.03698891 0.9983954 0.04287904 0.1615386 0.9779909 0.132057 0.0414139 0.9957963 0.08169865 0.1120657 0.9587542 0.2612121 0.208383 0.9627492 0.1723096 0.04828125 0.9484735 0.3131568 0.003845393 0.9777131 0.209911 0.00225836 0.9916139 0.1292162 -0.1280291 0.9874269 0.09271812 -0.1413961 0.989803 -0.01724338 -0.1311715 0.9913554 -0.002960324 -0.07977569 0.9964026 0.02859592 0.005615472 0.9937571 0.1114246 -0.05606281 0.9924682 0.1089212 -0.148689 0.9877505 -0.04733508 0.01403868 0.9889037 0.1478945 0.0746805 0.9771032 0.1992294 0.08231043 0.9811332 0.1749364 0.1169191 0.9854046 0.1237249 0.08871984 0.9732636 0.2118656 0.02240079 0.9969879 0.07425218 0.06421184 0.9681835 0.2418627 0.02655124 0.9915528 0.1269578 0.03253287 0.9959459 0.08386528 0.1338565 0.9864977 0.09436488 0.04199457 0.9930686 0.1097781 0.005249261 0.9999638 0.006714224 -0.06976568 0.9879201 0.1383717 -0.09646946 0.9931689 0.06564563 -0.01074272 0.999745 -0.01986789 0.03677558 0.9893092 0.1411206 -0.03662306 0.9962704 0.07812929 0.06250256 0.9911909 0.116765 0.07889217 0.991203 0.1062679 0.08923828 0.9889461 0.1184147 0.1035497 0.9859656 0.1309555 0.002502501 0.9950688 0.0991559 0.02276712 0.9784084 0.2054233 -0.07617545 0.9963853 0.03759944 0.03195369 0.9994472 0.009186267 0.01409971 0.9927803 -0.1191153 0.1436239 0.9893144 0.02508687 0.05136287 0.9985401 -0.01672422 0.2177546 0.9759129 -0.01330637 0.0460534 0.9916902 0.1201235 -0.06964492 0.9898924 0.123542 0.05307304 0.9985 -0.01345896 -0.06445592 0.9973579 -0.03350973 0.08856588 0.9588126 0.2698787 0.0153203 0.993655 0.1114234 0.03100723 0.9757221 0.2168067 -0.00915575 0.9894925 0.1442946 0.04205578 0.9771419 0.2083869 0.1579059 0.9842115 0.0799601 0.06518828 0.9917111 0.1107225 0.02337741 0.9939085 0.1077011 -0.04876953 0.9922983 0.1138668 -0.03836232 0.9904631 0.1323303 -0.1096841 0.9868513 0.1187176 -0.09363377 0.9853214 0.1427396 -0.07220786 0.990585 0.1163078 0.003845334 0.9922523 0.1241803 -0.03726315 0.9967984 0.07074207 0.1041316 0.9945605 0.002441525 -0.01757866 0.9993909 -0.03015232 0.04068231 0.9924295 -0.1158821 0.02273637 0.9997302 -0.004760861 -0.04083478 0.9914798 -0.1236946 -0.05386644 0.9984372 -0.01489335 0.06906402 0.995432 0.06592059 0.0830127 0.9938328 0.07352113 0.125495 0.9836952 0.1288216 0.01879972 0.9892134 0.1452706 0.04684728 0.9988085 0.01367264 -0.09244263 0.9952923 0.02911531 -0.005340754 0.9980838 0.06164777 -0.04654216 0.9960634 -0.07544404 -0.05905467 0.9977344 -0.03222829 -0.003601253 0.9945953 0.1037658 -0.04168909 0.9983415 -0.03970533 -0.07031553 0.9975102 -0.00540179 0.006500542 0.9999572 0.006592094 -0.04147493 0.9975655 0.05606287 -0.02942067 0.9925828 0.1179575 -0.07922685 0.9928077 0.08975583 -0.02731448 0.990768 0.132788 0.04388588 0.9801387 0.193397 0.06793546 0.9872313 0.1440806 -0.1741115 0.9840276 0.0370807 -0.1874775 0.9820977 0.01834183 -0.04501539 0.9985486 -0.02957278 -0.148871 0.9887503 0.01449644 -0.1584858 0.9858285 0.05499541 0.09115922 0.9891711 0.1150248 0.09006065 0.9910944 0.09808707 0.05041778 0.9584569 0.2807465 -0.0300917 0.9873496 0.1556772 -0.03766041 0.9954687 -0.08731484 0.06982815 0.9841867 0.16279 0.02758938 0.9959049 0.08609485 0.1586059 0.9798042 0.1217697 0.0189526 0.9308453 0.3649219 -0.009766101 0.9893079 0.1455152 -0.04245167 0.9856668 0.1632757 0.03827142 0.9670101 0.2518469 -0.05078345 0.9719969 0.2294412 -0.01202452 0.999562 -0.02703988 0.011536 0.979618 -0.200538 0.1740186 0.9787101 0.1088303 -0.07983696 0.9961009 -0.03753799 -0.03271627 0.9977563 0.05841326 -0.1996891 0.977723 -0.0646708 0.01116991 0.9879889 0.1541205 -0.03454792 0.985899 0.1637366 0.009399831 0.978807 0.2045692 -0.09732598 0.9786311 -0.1811319 -0.04864674 0.9982961 0.03222769 -0.222696 0.9747108 -0.01858597 0.007568597 0.9898417 0.1419727 -0.008118033 0.9751735 0.2212932 0.01266533 0.9508773 0.309309 -0.01028484 0.9957075 0.09198373</float_array>
          <technique_common>
            <accessor source="#Plane_001-mesh-normals-array" count="390" stride="3">
              <param name="X" type="float"/>
              <param name="Y" type="float"/>
              <param name="Z" type="float"/>
            </accessor>
          </technique_common>
        </source>
        <source id="Plane_001-mesh-map-0">
          <float_array id="Plane_001-mesh-map-0-array" count="4032">0.7281792 -0.8546131 0.9226671 -0.6810038 0.715133 -0.6541386 0.715133 -0.6541386 0.5196577 -0.8448939 0.7281792 -0.8546131 0.7281792 -0.8546131 0.5341709 -1.063297 0.7430133 -1.054306 0.7430133 -1.054306 0.9387338 -0.8638687 0.7281792 -0.8546131 0.70833 1.375329 0.9048003 1.510518 0.7065186 1.551294 0.7065186 1.551294 0.5038843 1.412118 0.70833 1.375329 0.70833 1.375329 0.5019111 1.228941 0.7119519 1.198337 0.7119519 1.198337 0.9135875 1.340134 0.70833 1.375329 0.720709 1.008791 0.9218058 1.168442 0.7119519 1.198337 0.7119519 1.198337 0.5082509 1.017065 0.720709 1.008791 0.720709 1.008791 0.5125031 0.8062088 0.7290682 0.8197295 0.7290682 0.8197295 0.9331629 1.001408 0.720709 1.008791 0.9307692 0.6388051 0.7290682 0.8197295 0.7220954 0.6303545 0.7220954 0.6303545 0.5125031 0.8062088 0.5131331 0.6222094 0.5131331 0.6222094 0.7149699 0.4415841 0.7220954 0.6303545 0.7220954 0.6303545 0.9155744 0.4444243 0.9307692 0.6388051 0.9160957 0.2585198 0.7149699 0.4415841 0.7130689 0.2591415 0.7130689 0.2591415 0.5149505 0.4384147 0.5094776 0.2599049 0.5094776 0.2599049 0.7106549 0.07667386 0.7130689 0.2591415 0.7106549 0.07667386 0.9160957 0.2585198 0.7130689 0.2591415 0.7241753 -0.1197274 0.9172019 0.07195311 0.7106549 0.07667386 0.7106549 0.07667386 0.5136055 -0.1186277 0.7241753 -0.1197274 0.7241753 -0.1197274 0.5212018 -0.3163674 0.7357514 -0.3167784 0.7357514 -0.3167784 0.9355286 -0.1214413 0.7241753 -0.1197274 0.9369779 -0.5015411 0.7357514 -0.3167784 0.724116 -0.4862031 0.724116 -0.4862031 0.5212018 -0.3163674 0.5107847 -0.4705628 0.724116 -0.4862031 0.501914 -0.6250657 0.715133 -0.6541386 0.715133 -0.6541386 0.9369779 -0.5015411 0.724116 -0.4862031 2.770372 -0.4742339 2.998632 -0.2935104 2.766838 -0.2799755 2.766838 -0.2799755 2.5447 -0.4513607 2.770372 -0.4742339 2.770372 -0.4742339 2.557002 -0.6329244 2.776697 -0.6675412 2.776697 -0.6675412 2.995772 -0.4986972 2.770372 -0.4742339 2.5447 -0.4513607 2.317066 -0.2836022 2.3339 -0.4818612 2.3339 -0.4818612 2.102368 -0.2984504 2.122821 -0.513284 2.122821 -0.513284 2.349398 -0.6796942 2.3339 -0.4818612 2.3339 -0.4818612 2.557002 -0.6329244 2.5447 -0.4513607 1.919034 -0.4992086 2.102368 -0.2984504 1.919132 -0.3005596 1.919034 -0.4992086 1.734516 -0.3023648 1.714898 -0.4846526 1.919034 -0.4992086 1.695077 -0.6667837 1.920292 -0.6968967 1.920292 -0.6968967 2.122821 -0.513284 1.919034 -0.4992086 1.714898 -0.4846526 1.542929 -0.294249 1.520894 -0.4737725 1.520894 -0.4737725 1.353572 -0.2883481 1.327533 -0.4634347 1.327533 -0.4634347 1.4978 -0.6527299 1.520894 -0.4737725 1.520894 -0.4737725 1.695077 -0.6667837 1.714898 -0.4846526 1.327533 -0.4634347 1.154204 -0.3028109 1.132495 -0.4818704 1.132495 -0.4818704 0.9517539 -0.3151575 0.9369779 -0.5015411 0.9369779 -0.5015411 1.112521 -0.6614999 1.132495 -0.4818704 1.132495 -0.4818704 1.303986 -0.639338 1.327533 -0.4634347 2.766459 -0.1043658 2.999485 0.06942248 2.766702 0.07049906 2.766702 0.07049906 2.533914 -0.09831827 2.766459 -0.1043658 2.766459 -0.1043658 2.532408 -0.2682793 2.766838 -0.2799755 2.766838 -0.2799755 2.99717 -0.1130627 2.766459 -0.1043658 2.318425 -0.1004022 2.534096 0.0720846 2.318964 0.08253681 2.318964 0.08253681 2.103579 -0.1031801 2.318425 -0.1004022 2.103579 -0.1031801 2.317066 -0.2836022 2.318425 -0.1004022 2.318425 -0.1004022 2.532408 -0.2682793 2.533914 -0.09831827 2.103579 -0.1031801 1.899342 0.06497049 1.908844 -0.1177703 1.908844 -0.1177703 1.694266 0.03864687 1.713739 -0.1313706 1.908844 -0.1177703 1.734516 -0.3023648 1.919132 -0.3005596 1.908844 -0.1177703 2.102368 -0.2984504 2.103579 -0.1031801 1.520959 -0.1120684 1.694266 0.03864687 1.498165 0.06947016 1.498165 0.06947016 1.329293 -0.09376627 1.520959 -0.1120684 1.520959 -0.1120684 1.353572 -0.2883481 1.542929 -0.294249 1.542929 -0.294249 1.713739 -0.1313706 1.520959 -0.1120684 1.132577 -0.1078749 1.305681 0.1010854 1.112444 0.08622425 1.112444 0.08622425 0.9355286 -0.1214413 1.132577 -0.1078749 1.132577 -0.1078749 0.9517539 -0.3151575 1.154204 -0.3028109 1.154204 -0.3028109 1.329293 -0.09376627 1.132577 -0.1078749 2.752185 0.2445235 2.964768 0.4372217 2.740918 0.417418 2.752185 0.2445235 2.515177 0.3970336 2.523017 0.2350925 2.752185 0.2445235 2.534096 0.0720846 2.766702 0.07049906 2.766702 0.07049906 2.979618 0.2542878 2.752185 0.2445235 2.32411 0.2505196 2.515177 0.3970336 2.328851 0.4179494 2.328851 0.4179494 2.123706 0.2652894 2.32411 0.2505196 2.123706 0.2652894 2.318964 0.08253681 2.32411 0.2505196 2.318964 0.08253681 2.523017 0.2350925 2.32411 0.2505196 2.123706 0.2652894 1.940171 0.4501922 1.919991 0.2579681 1.919991 0.2579681 1.738088 0.4615169 1.715939 0.2505987 1.715939 0.2505987 1.899342 0.06497049 1.919991 0.2579681 1.919991 0.2579681 2.104396 0.09195142 2.123706 0.2652894 1.715939 0.2505987 1.548924 0.452354 1.524261 0.2609891 1.524261 0.2609891 1.359977 0.4432977 1.332989 0.2708618 1.332989 0.2708618 1.498165 0.06947016 1.524261 0.2609891 1.524261 0.2609891 1.694266 0.03864687 1.715939 0.2505987 1.332989 0.2708618 1.136998 0.4432187 1.124583 0.264153 1.124583 0.264153 0.9155744 0.4444243 0.9160957 0.2585198 0.9160957 0.2585198 1.112444 0.08622425 1.124583 0.264153 1.124583 0.264153 1.305681 0.1010854 1.332989 0.2708618 2.954359 0.6259056 2.745664 0.8007947 2.742577 0.6090139 2.742577 0.6090139 2.542446 0.7855771 2.529486 0.5910822 2.529486 0.5910822 2.740918 0.417418 2.742577 0.6090139 2.742577 0.6090139 2.964768 0.4372217 2.954359 0.6259056 2.336123 0.6099626 2.542446 0.7855771 2.343338 0.801964 2.343338 0.801964 2.143295 0.6286792 2.336123 0.6099626 2.336123 0.6099626 2.142116 0.4387923 2.328851 0.4179494 2.328851 0.4179494 2.529486 0.5910822 2.336123 0.6099626 2.143295 0.6286792 1.923049 0.7939295 1.929849 0.6210389 1.923049 0.7939295 1.719755 0.6166405 1.929849 0.6210389 1.929849 0.6210389 1.738088 0.4615169 1.940171 0.4501922 1.940171 0.4501922 2.143295 0.6286792 1.929849 0.6210389 1.525713 0.6181105 1.701232 0.772288 1.501427 0.7834717 1.501427 0.7834717 1.330918 0.6199782 1.525713 0.6181105 1.525713 0.6181105 1.359977 0.4432977 1.548924 0.452354 1.548924 0.452354 1.719755 0.6166405 1.525713 0.6181105 1.130767 0.6287006 1.301494 0.7938293 1.125636 0.8129946 1.125636 0.8129946 0.9307692 0.6388051 1.130767 0.6287006 1.130767 0.6287006 0.9155744 0.4444243 1.136998 0.4432187 1.136998 0.4432187 1.330918 0.6199782 1.130767 0.6287006 2.951134 0.992778 2.751583 1.171874 2.74886 0.9862193 2.74886 0.9862193 2.54767 1.176077 2.545254 0.9804333 2.545254 0.9804333 2.745664 0.8007947 2.74886 0.9862193 2.74886 0.9862193 2.949735 0.8160734 2.951134 0.992778 2.337812 0.9915806 2.54767 1.176077 2.331074 1.180846 2.331074 1.180846 2.13131 1.001901 2.337812 0.9915806 2.337812 0.9915806 2.14607 0.8184921 2.343338 0.801964 2.343338 0.801964 2.545254 0.9804333 2.337812 0.9915806 2.13131 1.001901 1.92892 1.178162 1.926566 0.9867562 1.926566 0.9867562 1.741143 1.171744 1.720988 0.9714676 1.720988 0.9714676 1.923049 0.7939295 1.926566 0.9867562 1.926566 0.9867562 2.14607 0.8184921 2.13131 1.001901 1.720988 0.9714676 1.553341 1.178134 1.527418 0.9807804 1.527418 0.9807804 1.366433 1.185687 1.334774 0.9892476 1.334774 0.9892476 1.501427 0.7834717 1.527418 0.9807804 1.527418 0.9807804 1.701232 0.772288 1.720988 0.9714676 1.334774 0.9892476 1.144785 1.177448 1.134134 0.9951829 1.134134 0.9951829 0.9218058 1.168442 0.9331629 1.001408 1.134134 0.9951829 0.946368 0.8329492 1.125636 0.8129946 1.134134 0.9951829 1.301494 0.7938293 1.334774 0.9892476 2.746819 1.366301 2.942911 1.536836 2.740981 1.560693 2.740981 1.560693 2.544188 1.379456 2.746819 1.366301 2.746819 1.366301 2.54767 1.176077 2.751583 1.171874 2.751583 1.171874 2.949308 1.351747 2.746819 1.366301 2.544188 1.379456 2.327592 1.563952 2.329067 1.372878 2.329067 1.372878 2.114236 1.546613 2.115575 1.366075 2.115575 1.366075 2.331074 1.180846 2.329067 1.372878 2.331074 1.180846 2.544188 1.379456 2.329067 1.372878 2.115575 1.366075 1.938695 1.533356 1.93381 1.355753 1.93381 1.355753 1.762799 1.52137 1.752009 1.346627 1.752009 1.346627 1.92892 1.178162 1.93381 1.355753 1.93381 1.355753 2.115953 1.184694 2.115575 1.366075 1.556305 1.360682 1.762799 1.52137 1.558809 1.543393 1.558809 1.543393 1.361272 1.373937 1.556305 1.360682 1.556305 1.360682 1.366433 1.185687 1.553341 1.178134 1.553341 1.178134 1.752009 1.346627 1.556305 1.360682 1.361272 1.373937 1.130161 1.537294 1.137411 1.357277 1.137411 1.357277 0.9048003 1.510518 0.9135875 1.340134 0.9135875 1.340134 1.144785 1.177448 1.137411 1.357277 1.137411 1.357277 1.366433 1.185687 1.361272 1.373937 2.960973 -0.8569641 2.776697 -0.6675412 2.75811 -0.8444732 2.776697 -0.6675412 2.555102 -0.8296988 2.75811 -0.8444732 2.555102 -0.8296988 2.736861 -1.020133 2.75811 -0.8444732 2.75811 -0.8444732 2.924069 -1.011041 2.960973 -0.8569641 2.555102 -0.8296988 2.349398 -0.6796942 2.339182 -0.8452025 2.339182 -0.8452025 2.142389 -0.7255225 2.122098 -0.8586572 2.122098 -0.8586572 2.328716 -1.009718 2.339182 -0.8452025 2.339182 -0.8452025 2.552898 -1.029698 2.555102 -0.8296988 2.122098 -0.8586572 1.920292 -0.6968967 1.915595 -0.8542437 1.920292 -0.6968967 1.709023 -0.8503834 1.915595 -0.8542437 1.915595 -0.8542437 1.722174 -1.032091 1.912291 -1.011494 1.915595 -0.8542437 2.102337 -0.9924522 2.122098 -0.8586572 1.512284 -0.8475128 1.695077 -0.6667837 1.4978 -0.6527299 1.4978 -0.6527299 1.315205 -0.8439035 1.512284 -0.8475128 1.512284 -0.8475128 1.335189 -1.052725 1.529229 -1.042818 1.529229 -1.042818 1.709023 -0.8503834 1.512284 -0.8475128 1.315205 -0.8439035 1.112521 -0.6614999 1.126851 -0.8548781 1.112521 -0.6614999 0.9387338 -0.8638687 1.126851 -0.8548781 1.126851 -0.8548781 0.9564942 -1.05603 1.146932 -1.047752 1.146932 -1.047752 1.315205 -0.8439035 1.126851 -0.8548781 0.2731127 1.386956 0.07748347 1.212313 0.2866447 1.183815 0.2866447 1.183815 0.4839143 1.375961 0.2731127 1.386956 0.2731127 1.386956 0.469611 1.595203 0.2570349 1.589434 0.2570349 1.589434 0.06185424 1.395423 0.2731127 1.386956 0.2943084 -0.8457287 0.09867322 -0.9812434 0.2981031 -1.022234 0.2981031 -1.022234 0.4990609 -0.880909 0.2943084 -0.8457287 0.2943084 -0.8457287 0.5008781 -0.6990193 0.2914406 -0.6693152 0.2914406 -0.6693152 0.08987933 -0.8101223 0.2943084 -0.8457287 0.2814183 -0.4787206 0.0812602 -0.6386413 0.2914406 -0.6693152 0.2914406 -0.6693152 0.4948545 -0.4869372 0.2814183 -0.4787206 0.2814183 -0.4787206 0.4891805 -0.2749366 0.2717152 -0.2886697 0.2717152 -0.2886697 0.06795048 -0.4706819 0.2814183 -0.4787206 0.06993412 -0.1082684 0.2717152 -0.2886697 0.2789111 -0.09908741 0.2789111 -0.09908741 0.4891805 -0.2749366 0.4878289 -0.09105557 0.4878289 -0.09105557 0.2854353 0.08955264 0.2789111 -0.09908741 0.2789111 -0.09908741 0.08503675 0.08666789 0.06993412 -0.1082684 0.08441179 0.2728344 0.2854353 0.08955264 0.2884099 0.2727104 0.2884099 0.2727104 0.4863851 0.09325987 0.4919487 0.2724301 0.4919487 0.2724301 0.2897356 0.4554037 0.2884099 0.2727104 0.2897356 0.4554037 0.08441179 0.2728344 0.2884099 0.2727104 0.2773461 0.6513133 0.08323311 0.4593957 0.2897356 0.4554037 0.2897356 0.4554037 0.4879324 0.64857 0.2773461 0.6513133 0.2773461 0.6513133 0.4800117 0.8464745 0.2654904 0.8469937 0.2654904 0.8469937 0.06558001 0.6530798 0.2773461 0.6513133 0.06310164 1.032025 0.2654904 0.8469937 0.2767105 1.016217 0.2767105 1.016217 0.4800117 0.8464745 0.4906076 1.000713 0.2767105 1.016217 0.5008802 1.155957 0.2866447 1.183815 0.2866447 1.183815 0.06310164 1.032025 0.2767105 1.016217 -1.771605 1.005695 -1.999485 0.8238751 -1.765526 0.8108754 -1.765526 0.8108754 -1.543394 0.9830227 -1.771605 1.005695 -1.771605 1.005695 -1.555307 1.163971 -1.776982 1.19976 -1.776982 1.19976 -1.998001 1.030918 -1.771605 1.005695 -1.543394 0.9830227 -1.315481 0.8142598 -1.331154 1.013621 -1.331154 1.013621 -1.100351 0.8301792 -1.119318 1.046273 -1.119318 1.046273 -1.346493 1.211836 -1.331154 1.013621 -1.331154 1.013621 -1.555307 1.163971 -1.543394 0.9830227 -0.9169836 1.031124 -1.100351 0.8301792 -0.9169193 0.8321198 -0.9169836 1.031124 -0.7336998 0.8343738 -0.7141801 1.015904 -0.9169836 1.031124 -0.6937401 1.196575 -0.9173994 1.228515 -0.9173994 1.228515 -1.119318 1.046273 -0.9169836 1.031124 -0.7141801 1.015904 -0.5420287 0.8260436 -0.5197337 1.00615 -0.5197337 1.00615 -0.3535116 0.8198095 -0.3266972 0.9951606 -0.3266972 0.9951606 -0.4960111 1.183833 -0.5197337 1.00615 -0.5197337 1.00615 -0.6937401 1.196575 -0.7141801 1.015904 -0.3266972 0.9951606 -0.1520125 0.8339447 -0.1323199 1.01375 -0.1323199 1.01375 0.05012392 0.8463042 0.06310164 1.032025 0.06310164 1.032025 -0.1114829 1.193398 -0.1323199 1.01375 -0.1323199 1.01375 -0.3022379 1.170759 -0.3266972 0.9951606 -1.763745 0.6371816 -1.99193 0.4632626 -1.76278 0.4626184 -1.76278 0.4626184 -1.531683 0.6282114 -1.763745 0.6371816 -1.763745 0.6371816 -1.530924 0.7985825 -1.765526 0.8108754 -1.765526 0.8108754 -1.993405 0.6428844 -1.763745 0.6371816 -1.316235 0.631133 -1.530816 0.4576517 -1.315929 0.4481124 -1.315929 0.4481124 -1.101218 0.634153 -1.316235 0.631133 -1.101218 0.634153 -1.315481 0.8142598 -1.316235 0.631133 -1.316235 0.631133 -1.530924 0.7985825 -1.531683 0.6282114 -1.101218 0.634153 -0.8967106 0.4663605 -0.9067719 0.6494036 -0.9067719 0.6494036 -0.692461 0.4932431 -0.7119291 0.6632439 -0.9067719 0.6494036 -0.7336998 0.8343738 -0.9169193 0.8321198 -0.9067719 0.6494036 -1.100351 0.8301792 -1.101218 0.634153 -0.5189211 0.6419749 -0.692461 0.4932431 -0.4950228 0.4611871 -0.4950228 0.4611871 -0.3280146 0.6249707 -0.5189211 0.6419749 -0.5189211 0.6419749 -0.3535116 0.8198095 -0.5420287 0.8260436 -0.5420287 0.8260436 -0.7119291 0.6632439 -0.5189211 0.6419749 -0.1318007 0.6391802 -0.3038609 0.4301952 -0.1123434 0.4451596 -0.1123434 0.4451596 0.06558001 0.6530798 -0.1318007 0.6391802 -0.1318007 0.6391802 0.05012392 0.8463042 -0.1520125 0.8339447 -0.1520125 0.8339447 -0.3280146 0.6249707 -0.1318007 0.6391802 -1.749691 0.2879031 -1.963332 0.09667831 -1.73842 0.1149227 -1.749691 0.2879031 -1.512938 0.1342754 -1.521291 0.2958731 -1.749691 0.2879031 -1.530816 0.4576517 -1.76278 0.4626184 -1.76278 0.4626184 -1.976972 0.2798644 -1.749691 0.2879031 -1.321201 0.2805618 -1.512938 0.1342754 -1.327004 0.1132953 -1.327004 0.1132953 -1.120901 0.2647128 -1.321201 0.2805618 -1.120901 0.2647128 -1.315929 0.4481124 -1.321201 0.2805618 -1.315929 0.4481124 -1.521291 0.2958731 -1.321201 0.2805618 -1.120901 0.2647128 -0.9382548 0.08098793 -0.9170724 0.2734122 -0.9170724 0.2734122 -0.7360125 0.06964451 -0.7135304 0.2819381 -0.7135304 0.2819381 -0.8967106 0.4663605 -0.9170724 0.2734122 -0.9170724 0.2734122 -1.1013 0.4383222 -1.120901 0.2647128 -0.7135304 0.2819381 -0.5474174 0.0787211 -0.522266 0.2707853 -0.522266 0.2707853 -0.3592016 0.08754146 -0.3313683 0.2597036 -0.3313683 0.2597036 -0.4950228 0.4611871 -0.522266 0.2707853 -0.522266 0.2707853 -0.692461 0.4932431 -0.7135304 0.2819381 -0.3313683 0.2597036 -0.1370584 0.08736032 -0.1240702 0.265819 -0.1240702 0.265819 0.08503675 0.08666789 0.08441179 0.2728344 0.08441179 0.2728344 -0.1123434 0.4451596 -0.1240702 0.265819 -0.1240702 0.265819 -0.3038609 0.4301952 -0.3313683 0.2597036 -1.953435 -0.09275674 -1.745043 -0.2691226 -1.741442 -0.07632249 -1.741442 -0.07632249 -1.540961 -0.2543686 -1.527297 -0.05978369 -1.527297 -0.05978369 -1.73842 0.1149227 -1.741442 -0.07632249 -1.741442 -0.07632249 -1.963332 0.09667831 -1.953435 -0.09275674 -1.334212 -0.07867699 -1.540961 -0.2543686 -1.341856 -0.270474 -1.341856 -0.270474 -1.141664 -0.09783154 -1.334212 -0.07867699 -1.334212 -0.07867699 -1.140584 0.09143775 -1.327004 0.1132953 -1.327004 0.1132953 -1.527297 -0.05978369 -1.334212 -0.07867699 -1.141664 -0.09783154 -0.9208832 -0.2624589 -0.9287033 -0.09041792 -0.9208832 -0.2624589 -0.717489 -0.08675956 -0.9287033 -0.09041792 -0.9287033 -0.09041792 -0.7360125 0.06964451 -0.9382548 0.08098793 -0.9382548 0.08098793 -1.141664 -0.09783154 -0.9287033 -0.09041792 -0.5237652 -0.08752983 -0.6992694 -0.2420181 -0.4993633 -0.2526203 -0.4993633 -0.2526203 -0.3292651 -0.08941799 -0.5237652 -0.08752983 -0.5237652 -0.08752983 -0.3592016 0.08754146 -0.5474174 0.0787211 -0.5474174 0.0787211 -0.717489 -0.08675956 -0.5237652 -0.08752983 -0.1298694 -0.09780222 -0.2999116 -0.2635696 -0.1235519 -0.2827522 -0.1235519 -0.2827522 0.06993412 -0.1082684 -0.1298694 -0.09780222 -0.1298694 -0.09780222 0.08503675 0.08666789 -0.1370584 0.08736032 -0.1370584 0.08736032 -0.3292651 -0.08941799 -0.1298694 -0.09780222 -1.950554 -0.4617477 -1.750717 -0.64053 -1.747887 -0.4548919 -1.747887 -0.4548919 -1.545722 -0.6439434 -1.544323 -0.4480445 -1.544323 -0.4480445 -1.745043 -0.2691226 -1.747887 -0.4548919 -1.747887 -0.4548919 -1.949209 -0.2847503 -1.950554 -0.4617477 -1.336473 -0.4605183 -1.545722 -0.6439434 -1.3293 -0.6494384 -1.3293 -0.6494384 -1.12892 -0.4714524 -1.336473 -0.4605183 -1.336473 -0.4605183 -1.144033 -0.287212 -1.341856 -0.270474 -1.341856 -0.270474 -1.544323 -0.4480445 -1.336473 -0.4605183 -1.12892 -0.4714524 -0.9255297 -0.648944 -0.9233577 -0.4555848 -0.9233577 -0.4555848 -0.7379871 -0.6413954 -0.7182587 -0.4406703 -0.7182587 -0.4406703 -0.9208832 -0.2624589 -0.9233577 -0.4555848 -0.9233577 -0.4555848 -1.144033 -0.287212 -1.12892 -0.4714524 -0.7182587 -0.4406703 -0.5494871 -0.6476151 -0.5256808 -0.450125 -0.5256808 -0.450125 -0.3627227 -0.6555098 -0.3322101 -0.4591125 -0.3322101 -0.4591125 -0.4993633 -0.2526203 -0.5256808 -0.450125 -0.5256808 -0.450125 -0.6992694 -0.2420181 -0.7182587 -0.4406703 -0.3322101 -0.4591125 -0.1410484 -0.6467575 -0.1320804 -0.4647083 -0.1410484 -0.6467575 0.06795048 -0.4706819 -0.1320804 -0.4647083 -0.1320804 -0.4647083 0.0549544 -0.3032227 -0.1235519 -0.2827522 -0.1320804 -0.4647083 -0.2999116 -0.2635696 -0.3322101 -0.4591125 -1.745494 -0.8358042 -1.941674 -1.006773 -1.741352 -1.028781 -1.741352 -1.028781 -1.54232 -0.8493702 -1.745494 -0.8358042 -1.745494 -0.8358042 -1.545722 -0.6439434 -1.750717 -0.64053 -1.750717 -0.64053 -1.947424 -0.8233356 -1.745494 -0.8358042 -1.54232 -0.8493702 -1.324303 -1.034041 -1.326008 -0.8419172 -1.326008 -0.8419172 -1.110731 -1.018501 -1.112045 -0.8365254 -1.326008 -0.8419172 -1.112992 -0.6559353 -1.3293 -0.6494384 -1.3293 -0.6494384 -1.54232 -0.8493702 -1.326008 -0.8419172 -1.112045 -0.8365254 -0.9350247 -1.005042 -0.92998 -0.8272448 -0.92998 -0.8272448 -0.7589306 -0.9920951 -0.7486321 -0.8170267 -0.7486321 -0.8170267 -0.9255297 -0.648944 -0.92998 -0.8272448 -0.92998 -0.8272448 -1.112992 -0.6559353 -1.112045 -0.8365254 -0.7486321 -0.8170267 -0.5552583 -1.011975 -0.5528445 -0.8292071 -0.5552583 -1.011975 -0.356939 -0.8439207 -0.5528445 -0.8292071 -0.5528445 -0.8292071 -0.3627227 -0.6555098 -0.5494871 -0.6476151 -0.5494871 -0.6476151 -0.7486321 -0.8170267 -0.5528445 -0.8292071 -0.356939 -0.8439207 -0.1272751 -1.007853 -0.1339145 -0.8272548 -0.1272751 -1.007853 0.08987933 -0.8101223 -0.1339145 -0.8272548 0.08987933 -0.8101223 -0.1410484 -0.6467575 -0.1339145 -0.8272548 -0.1339145 -0.8272548 -0.3627227 -0.6555098 -0.356939 -0.8439207 -1.960575 1.390058 -1.776982 1.19976 -1.757691 1.376469 -1.776982 1.19976 -1.553884 1.363523 -1.757691 1.376469 -1.553884 1.363523 -1.738049 1.552459 -1.757691 1.376469 -1.757691 1.376469 -1.923042 1.542438 -1.960575 1.390058 -1.553884 1.363523 -1.346493 1.211836 -1.337183 1.377431 -1.337183 1.377431 -1.13843 1.258337 -1.120285 1.390864 -1.120285 1.390864 -1.325808 1.542025 -1.337183 1.377431 -1.337183 1.377431 -1.552713 1.564587 -1.553884 1.363523 -0.9129105 1.386433 -1.13843 1.258337 -0.9173994 1.228515 -0.9173994 1.228515 -0.7049931 1.380891 -0.9129105 1.386433 -0.7049931 1.380891 -0.9077935 1.544322 -0.9129105 1.386433 -0.9129105 1.386433 -1.099315 1.527421 -1.120285 1.390864 -0.50994 1.37749 -0.6937401 1.196575 -0.4960111 1.183833 -0.4960111 1.183833 -0.3137646 1.374572 -0.50994 1.37749 -0.50994 1.37749 -0.330673 1.582442 -0.5233836 1.57231 -0.5233836 1.57231 -0.7049931 1.380891 -0.50994 1.37749 -0.3137646 1.374572 -0.1114829 1.193398 -0.1258265 1.386677 -0.1114829 1.193398 0.06185424 1.395423 -0.1258265 1.386677 -0.1258265 1.386677 0.04634332 1.585539 -0.1445952 1.579658 -0.1445952 1.579658 -0.3137646 1.374572 -0.1258265 1.386677 0.7281792 -0.8546131 0.9387338 -0.8638687 0.9226671 -0.6810038 0.715133 -0.6541386 0.501914 -0.6250657 0.5196577 -0.8448939 0.7281792 -0.8546131 0.5196577 -0.8448939 0.5341709 -1.063297 0.7430133 -1.054306 0.9564942 -1.05603 0.9387338 -0.8638687 0.70833 1.375329 0.9135875 1.340134 0.9048003 1.510518 0.7065186 1.551294 0.5070967 1.593385 0.5038843 1.412118 0.70833 1.375329 0.5038843 1.412118 0.5019111 1.228941 0.7119519 1.198337 0.9218058 1.168442 0.9135875 1.340134 0.720709 1.008791 0.9331629 1.001408 0.9218058 1.168442 0.7119519 1.198337 0.5019111 1.228941 0.5082509 1.017065 0.720709 1.008791 0.5082509 1.017065 0.5125031 0.8062088 0.7290682 0.8197295 0.946368 0.8329492 0.9331629 1.001408 0.9307692 0.6388051 0.946368 0.8329492 0.7290682 0.8197295 0.7220954 0.6303545 0.7290682 0.8197295 0.5125031 0.8062088 0.5131331 0.6222094 0.5149505 0.4384147 0.7149699 0.4415841 0.7220954 0.6303545 0.7149699 0.4415841 0.9155744 0.4444243 0.9160957 0.2585198 0.9155744 0.4444243 0.7149699 0.4415841 0.7130689 0.2591415 0.7149699 0.4415841 0.5149505 0.4384147 0.5094776 0.2599049 0.5039841 0.08017677 0.7106549 0.07667386 0.7106549 0.07667386 0.9172019 0.07195311 0.9160957 0.2585198 0.7241753 -0.1197274 0.9355286 -0.1214413 0.9172019 0.07195311 0.7106549 0.07667386 0.5039841 0.08017677 0.5136055 -0.1186277 0.7241753 -0.1197274 0.5136055 -0.1186277 0.5212018 -0.3163674 0.7357514 -0.3167784 0.9517539 -0.3151575 0.9355286 -0.1214413 0.9369779 -0.5015411 0.9517539 -0.3151575 0.7357514 -0.3167784 0.724116 -0.4862031 0.7357514 -0.3167784 0.5212018 -0.3163674 0.724116 -0.4862031 0.5107847 -0.4705628 0.501914 -0.6250657 0.715133 -0.6541386 0.9226671 -0.6810038 0.9369779 -0.5015411 2.770372 -0.4742339 2.995772 -0.4986972 2.998632 -0.2935104 2.766838 -0.2799755 2.532408 -0.2682793 2.5447 -0.4513607 2.770372 -0.4742339 2.5447 -0.4513607 2.557002 -0.6329244 2.776697 -0.6675412 2.998388 -0.7053214 2.995772 -0.4986972 2.5447 -0.4513607 2.532408 -0.2682793 2.317066 -0.2836022 2.3339 -0.4818612 2.317066 -0.2836022 2.102368 -0.2984504 2.122821 -0.513284 2.142389 -0.7255225 2.349398 -0.6796942 2.3339 -0.4818612 2.349398 -0.6796942 2.557002 -0.6329244 1.919034 -0.4992086 2.122821 -0.513284 2.102368 -0.2984504 1.919034 -0.4992086 1.919132 -0.3005596 1.734516 -0.3023648 1.919034 -0.4992086 1.714898 -0.4846526 1.695077 -0.6667837 1.920292 -0.6968967 2.142389 -0.7255225 2.122821 -0.513284 1.714898 -0.4846526 1.734516 -0.3023648 1.542929 -0.294249 1.520894 -0.4737725 1.542929 -0.294249 1.353572 -0.2883481 1.327533 -0.4634347 1.303986 -0.639338 1.4978 -0.6527299 1.520894 -0.4737725 1.4978 -0.6527299 1.695077 -0.6667837 1.327533 -0.4634347 1.353572 -0.2883481 1.154204 -0.3028109 1.132495 -0.4818704 1.154204 -0.3028109 0.9517539 -0.3151575 0.9369779 -0.5015411 0.9226671 -0.6810038 1.112521 -0.6614999 1.132495 -0.4818704 1.112521 -0.6614999 1.303986 -0.639338 2.766459 -0.1043658 2.99717 -0.1130627 2.999485 0.06942248 2.766702 0.07049906 2.534096 0.0720846 2.533914 -0.09831827 2.766459 -0.1043658 2.533914 -0.09831827 2.532408 -0.2682793 2.766838 -0.2799755 2.998632 -0.2935104 2.99717 -0.1130627 2.318425 -0.1004022 2.533914 -0.09831827 2.534096 0.0720846 2.318964 0.08253681 2.104396 0.09195142 2.103579 -0.1031801 2.103579 -0.1031801 2.102368 -0.2984504 2.317066 -0.2836022 2.318425 -0.1004022 2.317066 -0.2836022 2.532408 -0.2682793 2.103579 -0.1031801 2.104396 0.09195142 1.899342 0.06497049 1.908844 -0.1177703 1.899342 0.06497049 1.694266 0.03864687 1.908844 -0.1177703 1.713739 -0.1313706 1.734516 -0.3023648 1.908844 -0.1177703 1.919132 -0.3005596 2.102368 -0.2984504 1.520959 -0.1120684 1.713739 -0.1313706 1.694266 0.03864687 1.498165 0.06947016 1.305681 0.1010854 1.329293 -0.09376627 1.520959 -0.1120684 1.329293 -0.09376627 1.353572 -0.2883481 1.542929 -0.294249 1.734516 -0.3023648 1.713739 -0.1313706 1.132577 -0.1078749 1.329293 -0.09376627 1.305681 0.1010854 1.112444 0.08622425 0.9172019 0.07195311 0.9355286 -0.1214413 1.132577 -0.1078749 0.9355286 -0.1214413 0.9517539 -0.3151575 1.154204 -0.3028109 1.353572 -0.2883481 1.329293 -0.09376627 2.752185 0.2445235 2.979618 0.2542878 2.964768 0.4372217 2.752185 0.2445235 2.740918 0.417418 2.515177 0.3970336 2.752185 0.2445235 2.523017 0.2350925 2.534096 0.0720846 2.766702 0.07049906 2.999485 0.06942248 2.979618 0.2542878 2.32411 0.2505196 2.523017 0.2350925 2.515177 0.3970336 2.328851 0.4179494 2.142116 0.4387923 2.123706 0.2652894 2.123706 0.2652894 2.104396 0.09195142 2.318964 0.08253681 2.318964 0.08253681 2.534096 0.0720846 2.523017 0.2350925 2.123706 0.2652894 2.142116 0.4387923 1.940171 0.4501922 1.919991 0.2579681 1.940171 0.4501922 1.738088 0.4615169 1.715939 0.2505987 1.694266 0.03864687 1.899342 0.06497049 1.919991 0.2579681 1.899342 0.06497049 2.104396 0.09195142 1.715939 0.2505987 1.738088 0.4615169 1.548924 0.452354 1.524261 0.2609891 1.548924 0.452354 1.359977 0.4432977 1.332989 0.2708618 1.305681 0.1010854 1.498165 0.06947016 1.524261 0.2609891 1.498165 0.06947016 1.694266 0.03864687 1.332989 0.2708618 1.359977 0.4432977 1.136998 0.4432187 1.124583 0.264153 1.136998 0.4432187 0.9155744 0.4444243 0.9160957 0.2585198 0.9172019 0.07195311 1.112444 0.08622425 1.124583 0.264153 1.112444 0.08622425 1.305681 0.1010854 2.954359 0.6259056 2.949735 0.8160734 2.745664 0.8007947 2.742577 0.6090139 2.745664 0.8007947 2.542446 0.7855771 2.529486 0.5910822 2.515177 0.3970336 2.740918 0.417418 2.742577 0.6090139 2.740918 0.417418 2.964768 0.4372217 2.336123 0.6099626 2.529486 0.5910822 2.542446 0.7855771 2.343338 0.801964 2.14607 0.8184921 2.143295 0.6286792 2.336123 0.6099626 2.143295 0.6286792 2.142116 0.4387923 2.328851 0.4179494 2.515177 0.3970336 2.529486 0.5910822 2.143295 0.6286792 2.14607 0.8184921 1.923049 0.7939295 1.923049 0.7939295 1.701232 0.772288 1.719755 0.6166405 1.929849 0.6210389 1.719755 0.6166405 1.738088 0.4615169 1.940171 0.4501922 2.142116 0.4387923 2.143295 0.6286792 1.525713 0.6181105 1.719755 0.6166405 1.701232 0.772288 1.501427 0.7834717 1.301494 0.7938293 1.330918 0.6199782 1.525713 0.6181105 1.330918 0.6199782 1.359977 0.4432977 1.548924 0.452354 1.738088 0.4615169 1.719755 0.6166405 1.130767 0.6287006 1.330918 0.6199782 1.301494 0.7938293 1.125636 0.8129946 0.946368 0.8329492 0.9307692 0.6388051 1.130767 0.6287006 0.9307692 0.6388051 0.9155744 0.4444243 1.136998 0.4432187 1.359977 0.4432977 1.330918 0.6199782 2.951134 0.992778 2.954225 1.168236 2.751583 1.171874 2.74886 0.9862193 2.751583 1.171874 2.54767 1.176077 2.545254 0.9804333 2.542446 0.7855771 2.745664 0.8007947 2.74886 0.9862193 2.745664 0.8007947 2.949735 0.8160734 2.337812 0.9915806 2.545254 0.9804333 2.54767 1.176077 2.331074 1.180846 2.115953 1.184694 2.13131 1.001901 2.337812 0.9915806 2.13131 1.001901 2.14607 0.8184921 2.343338 0.801964 2.542446 0.7855771 2.545254 0.9804333 2.13131 1.001901 2.115953 1.184694 1.92892 1.178162 1.926566 0.9867562 1.92892 1.178162 1.741143 1.171744 1.720988 0.9714676 1.701232 0.772288 1.923049 0.7939295 1.926566 0.9867562 1.923049 0.7939295 2.14607 0.8184921 1.720988 0.9714676 1.741143 1.171744 1.553341 1.178134 1.527418 0.9807804 1.553341 1.178134 1.366433 1.185687 1.334774 0.9892476 1.301494 0.7938293 1.501427 0.7834717 1.527418 0.9807804 1.501427 0.7834717 1.701232 0.772288 1.334774 0.9892476 1.366433 1.185687 1.144785 1.177448 1.134134 0.9951829 1.144785 1.177448 0.9218058 1.168442 1.134134 0.9951829 0.9331629 1.001408 0.946368 0.8329492 1.134134 0.9951829 1.125636 0.8129946 1.301494 0.7938293 2.746819 1.366301 2.949308 1.351747 2.942911 1.536836 2.740981 1.560693 2.540723 1.582362 2.544188 1.379456 2.746819 1.366301 2.544188 1.379456 2.54767 1.176077 2.751583 1.171874 2.954225 1.168236 2.949308 1.351747 2.544188 1.379456 2.540723 1.582362 2.327592 1.563952 2.329067 1.372878 2.327592 1.563952 2.114236 1.546613 2.115575 1.366075 2.115953 1.184694 2.331074 1.180846 2.331074 1.180846 2.54767 1.176077 2.544188 1.379456 2.115575 1.366075 2.114236 1.546613 1.938695 1.533356 1.93381 1.355753 1.938695 1.533356 1.762799 1.52137 1.752009 1.346627 1.741143 1.171744 1.92892 1.178162 1.93381 1.355753 1.92892 1.178162 2.115953 1.184694 1.556305 1.360682 1.752009 1.346627 1.762799 1.52137 1.558809 1.543393 1.355477 1.563761 1.361272 1.373937 1.556305 1.360682 1.361272 1.373937 1.366433 1.185687 1.553341 1.178134 1.741143 1.171744 1.752009 1.346627 1.361272 1.373937 1.355477 1.563761 1.130161 1.537294 1.137411 1.357277 1.130161 1.537294 0.9048003 1.510518 0.9135875 1.340134 0.9218058 1.168442 1.144785 1.177448 1.137411 1.357277 1.144785 1.177448 1.366433 1.185687 2.960973 -0.8569641 2.998388 -0.7053214 2.776697 -0.6675412 2.776697 -0.6675412 2.557002 -0.6329244 2.555102 -0.8296988 2.555102 -0.8296988 2.552898 -1.029698 2.736861 -1.020133 2.75811 -0.8444732 2.736861 -1.020133 2.924069 -1.011041 2.555102 -0.8296988 2.557002 -0.6329244 2.349398 -0.6796942 2.339182 -0.8452025 2.349398 -0.6796942 2.142389 -0.7255225 2.122098 -0.8586572 2.102337 -0.9924522 2.328716 -1.009718 2.339182 -0.8452025 2.328716 -1.009718 2.552898 -1.029698 2.122098 -0.8586572 2.142389 -0.7255225 1.920292 -0.6968967 1.920292 -0.6968967 1.695077 -0.6667837 1.709023 -0.8503834 1.915595 -0.8542437 1.709023 -0.8503834 1.722174 -1.032091 1.915595 -0.8542437 1.912291 -1.011494 2.102337 -0.9924522 1.512284 -0.8475128 1.709023 -0.8503834 1.695077 -0.6667837 1.4978 -0.6527299 1.303986 -0.639338 1.315205 -0.8439035 1.512284 -0.8475128 1.315205 -0.8439035 1.335189 -1.052725 1.529229 -1.042818 1.722174 -1.032091 1.709023 -0.8503834 1.315205 -0.8439035 1.303986 -0.639338 1.112521 -0.6614999 1.112521 -0.6614999 0.9226671 -0.6810038 0.9387338 -0.8638687 1.126851 -0.8548781 0.9387338 -0.8638687 0.9564942 -1.05603 1.146932 -1.047752 1.335189 -1.052725 1.315205 -0.8439035 0.2731127 1.386956 0.06185424 1.395423 0.07748347 1.212313 0.2866447 1.183815 0.5008802 1.155957 0.4839143 1.375961 0.2731127 1.386956 0.4839143 1.375961 0.469611 1.595203 0.2570349 1.589434 0.04634332 1.585539 0.06185424 1.395423 0.2943084 -0.8457287 0.08987933 -0.8101223 0.09867322 -0.9812434 0.2981031 -1.022234 0.4973115 -1.063297 0.4990609 -0.880909 0.2943084 -0.8457287 0.4990609 -0.880909 0.5008781 -0.6990193 0.2914406 -0.6693152 0.0812602 -0.6386413 0.08987933 -0.8101223 0.2814183 -0.4787206 0.06795048 -0.4706819 0.0812602 -0.6386413 0.2914406 -0.6693152 0.5008781 -0.6990193 0.4948545 -0.4869372 0.2814183 -0.4787206 0.4948545 -0.4869372 0.4891805 -0.2749366 0.2717152 -0.2886697 0.0549544 -0.3032227 0.06795048 -0.4706819 0.06993412 -0.1082684 0.0549544 -0.3032227 0.2717152 -0.2886697 0.2789111 -0.09908741 0.2717152 -0.2886697 0.4891805 -0.2749366 0.4878289 -0.09105557 0.4863851 0.09325987 0.2854353 0.08955264 0.2789111 -0.09908741 0.2854353 0.08955264 0.08503675 0.08666789 0.08441179 0.2728344 0.08503675 0.08666789 0.2854353 0.08955264 0.2884099 0.2727104 0.2854353 0.08955264 0.4863851 0.09325987 0.4919487 0.2724301 0.496556 0.4509417 0.2897356 0.4554037 0.2897356 0.4554037 0.08323311 0.4593957 0.08441179 0.2728344 0.2773461 0.6513133 0.06558001 0.6530798 0.08323311 0.4593957 0.2897356 0.4554037 0.496556 0.4509417 0.4879324 0.64857 0.2773461 0.6513133 0.4879324 0.64857 0.4800117 0.8464745 0.2654904 0.8469937 0.05012392 0.8463042 0.06558001 0.6530798 0.06310164 1.032025 0.05012392 0.8463042 0.2654904 0.8469937 0.2767105 1.016217 0.2654904 0.8469937 0.4800117 0.8464745 0.2767105 1.016217 0.4906076 1.000713 0.5008802 1.155957 0.2866447 1.183815 0.07748347 1.212313 0.06310164 1.032025 -1.771605 1.005695 -1.998001 1.030918 -1.999485 0.8238751 -1.765526 0.8108754 -1.530924 0.7985825 -1.543394 0.9830227 -1.771605 1.005695 -1.543394 0.9830227 -1.555307 1.163971 -1.776982 1.19976 -1.999122 1.237491 -1.998001 1.030918 -1.543394 0.9830227 -1.530924 0.7985825 -1.315481 0.8142598 -1.331154 1.013621 -1.315481 0.8142598 -1.100351 0.8301792 -1.119318 1.046273 -1.13843 1.258337 -1.346493 1.211836 -1.331154 1.013621 -1.346493 1.211836 -1.555307 1.163971 -0.9169836 1.031124 -1.119318 1.046273 -1.100351 0.8301792 -0.9169836 1.031124 -0.9169193 0.8321198 -0.7336998 0.8343738 -0.9169836 1.031124 -0.7141801 1.015904 -0.6937401 1.196575 -0.9173994 1.228515 -1.13843 1.258337 -1.119318 1.046273 -0.7141801 1.015904 -0.7336998 0.8343738 -0.5420287 0.8260436 -0.5197337 1.00615 -0.5420287 0.8260436 -0.3535116 0.8198095 -0.3266972 0.9951606 -0.3022379 1.170759 -0.4960111 1.183833 -0.5197337 1.00615 -0.4960111 1.183833 -0.6937401 1.196575 -0.3266972 0.9951606 -0.3535116 0.8198095 -0.1520125 0.8339447 -0.1323199 1.01375 -0.1520125 0.8339447 0.05012392 0.8463042 0.06310164 1.032025 0.07748347 1.212313 -0.1114829 1.193398 -0.1323199 1.01375 -0.1114829 1.193398 -0.3022379 1.170759 -1.763745 0.6371816 -1.993405 0.6428844 -1.99193 0.4632626 -1.76278 0.4626184 -1.530816 0.4576517 -1.531683 0.6282114 -1.763745 0.6371816 -1.531683 0.6282114 -1.530924 0.7985825 -1.765526 0.8108754 -1.999485 0.8238751 -1.993405 0.6428844 -1.316235 0.631133 -1.531683 0.6282114 -1.530816 0.4576517 -1.315929 0.4481124 -1.1013 0.4383222 -1.101218 0.634153 -1.101218 0.634153 -1.100351 0.8301792 -1.315481 0.8142598 -1.316235 0.631133 -1.315481 0.8142598 -1.530924 0.7985825 -1.101218 0.634153 -1.1013 0.4383222 -0.8967106 0.4663605 -0.9067719 0.6494036 -0.8967106 0.4663605 -0.692461 0.4932431 -0.9067719 0.6494036 -0.7119291 0.6632439 -0.7336998 0.8343738 -0.9067719 0.6494036 -0.9169193 0.8321198 -1.100351 0.8301792 -0.5189211 0.6419749 -0.7119291 0.6632439 -0.692461 0.4932431 -0.4950228 0.4611871 -0.3038609 0.4301952 -0.3280146 0.6249707 -0.5189211 0.6419749 -0.3280146 0.6249707 -0.3535116 0.8198095 -0.5420287 0.8260436 -0.7336998 0.8343738 -0.7119291 0.6632439 -0.1318007 0.6391802 -0.3280146 0.6249707 -0.3038609 0.4301952 -0.1123434 0.4451596 0.08323311 0.4593957 0.06558001 0.6530798 -0.1318007 0.6391802 0.06558001 0.6530798 0.05012392 0.8463042 -0.1520125 0.8339447 -0.3535116 0.8198095 -0.3280146 0.6249707 -1.749691 0.2879031 -1.976972 0.2798644 -1.963332 0.09667831 -1.749691 0.2879031 -1.73842 0.1149227 -1.512938 0.1342754 -1.749691 0.2879031 -1.521291 0.2958731 -1.530816 0.4576517 -1.76278 0.4626184 -1.99193 0.4632626 -1.976972 0.2798644 -1.321201 0.2805618 -1.521291 0.2958731 -1.512938 0.1342754 -1.327004 0.1132953 -1.140584 0.09143775 -1.120901 0.2647128 -1.120901 0.2647128 -1.1013 0.4383222 -1.315929 0.4481124 -1.315929 0.4481124 -1.530816 0.4576517 -1.521291 0.2958731 -1.120901 0.2647128 -1.140584 0.09143775 -0.9382548 0.08098793 -0.9170724 0.2734122 -0.9382548 0.08098793 -0.7360125 0.06964451 -0.7135304 0.2819381 -0.692461 0.4932431 -0.8967106 0.4663605 -0.9170724 0.2734122 -0.8967106 0.4663605 -1.1013 0.4383222 -0.7135304 0.2819381 -0.7360125 0.06964451 -0.5474174 0.0787211 -0.522266 0.2707853 -0.5474174 0.0787211 -0.3592016 0.08754146 -0.3313683 0.2597036 -0.3038609 0.4301952 -0.4950228 0.4611871 -0.522266 0.2707853 -0.4950228 0.4611871 -0.692461 0.4932431 -0.3313683 0.2597036 -0.3592016 0.08754146 -0.1370584 0.08736032 -0.1240702 0.265819 -0.1370584 0.08736032 0.08503675 0.08666789 0.08441179 0.2728344 0.08323311 0.4593957 -0.1123434 0.4451596 -0.1240702 0.265819 -0.1123434 0.4451596 -0.3038609 0.4301952 -1.953435 -0.09275674 -1.949209 -0.2847503 -1.745043 -0.2691226 -1.741442 -0.07632249 -1.745043 -0.2691226 -1.540961 -0.2543686 -1.527297 -0.05978369 -1.512938 0.1342754 -1.73842 0.1149227 -1.741442 -0.07632249 -1.73842 0.1149227 -1.963332 0.09667831 -1.334212 -0.07867699 -1.527297 -0.05978369 -1.540961 -0.2543686 -1.341856 -0.270474 -1.144033 -0.287212 -1.141664 -0.09783154 -1.334212 -0.07867699 -1.141664 -0.09783154 -1.140584 0.09143775 -1.327004 0.1132953 -1.512938 0.1342754 -1.527297 -0.05978369 -1.141664 -0.09783154 -1.144033 -0.287212 -0.9208832 -0.2624589 -0.9208832 -0.2624589 -0.6992694 -0.2420181 -0.717489 -0.08675956 -0.9287033 -0.09041792 -0.717489 -0.08675956 -0.7360125 0.06964451 -0.9382548 0.08098793 -1.140584 0.09143775 -1.141664 -0.09783154 -0.5237652 -0.08752983 -0.717489 -0.08675956 -0.6992694 -0.2420181 -0.4993633 -0.2526203 -0.2999116 -0.2635696 -0.3292651 -0.08941799 -0.5237652 -0.08752983 -0.3292651 -0.08941799 -0.3592016 0.08754146 -0.5474174 0.0787211 -0.7360125 0.06964451 -0.717489 -0.08675956 -0.1298694 -0.09780222 -0.3292651 -0.08941799 -0.2999116 -0.2635696 -0.1235519 -0.2827522 0.0549544 -0.3032227 0.06993412 -0.1082684 -0.1298694 -0.09780222 0.06993412 -0.1082684 0.08503675 0.08666789 -0.1370584 0.08736032 -0.3592016 0.08754146 -0.3292651 -0.08941799 -1.950554 -0.4617477 -1.953646 -0.6383998 -1.750717 -0.64053 -1.747887 -0.4548919 -1.750717 -0.64053 -1.545722 -0.6439434 -1.544323 -0.4480445 -1.540961 -0.2543686 -1.745043 -0.2691226 -1.747887 -0.4548919 -1.745043 -0.2691226 -1.949209 -0.2847503 -1.336473 -0.4605183 -1.544323 -0.4480445 -1.545722 -0.6439434 -1.3293 -0.6494384 -1.112992 -0.6559353 -1.12892 -0.4714524 -1.336473 -0.4605183 -1.12892 -0.4714524 -1.144033 -0.287212 -1.341856 -0.270474 -1.540961 -0.2543686 -1.544323 -0.4480445 -1.12892 -0.4714524 -1.112992 -0.6559353 -0.9255297 -0.648944 -0.9233577 -0.4555848 -0.9255297 -0.648944 -0.7379871 -0.6413954 -0.7182587 -0.4406703 -0.6992694 -0.2420181 -0.9208832 -0.2624589 -0.9233577 -0.4555848 -0.9208832 -0.2624589 -1.144033 -0.287212 -0.7182587 -0.4406703 -0.7379871 -0.6413954 -0.5494871 -0.6476151 -0.5256808 -0.450125 -0.5494871 -0.6476151 -0.3627227 -0.6555098 -0.3322101 -0.4591125 -0.2999116 -0.2635696 -0.4993633 -0.2526203 -0.5256808 -0.450125 -0.4993633 -0.2526203 -0.6992694 -0.2420181 -0.3322101 -0.4591125 -0.3627227 -0.6555098 -0.1410484 -0.6467575 -0.1410484 -0.6467575 0.0812602 -0.6386413 0.06795048 -0.4706819 -0.1320804 -0.4647083 0.06795048 -0.4706819 0.0549544 -0.3032227 -0.1320804 -0.4647083 -0.1235519 -0.2827522 -0.2999116 -0.2635696 -1.745494 -0.8358042 -1.947424 -0.8233356 -1.941674 -1.006773 -1.741352 -1.028781 -1.5397 -1.053407 -1.54232 -0.8493702 -1.745494 -0.8358042 -1.54232 -0.8493702 -1.545722 -0.6439434 -1.750717 -0.64053 -1.953646 -0.6383998 -1.947424 -0.8233356 -1.54232 -0.8493702 -1.5397 -1.053407 -1.324303 -1.034041 -1.326008 -0.8419172 -1.324303 -1.034041 -1.110731 -1.018501 -1.326008 -0.8419172 -1.112045 -0.8365254 -1.112992 -0.6559353 -1.3293 -0.6494384 -1.545722 -0.6439434 -1.54232 -0.8493702 -1.112045 -0.8365254 -1.110731 -1.018501 -0.9350247 -1.005042 -0.92998 -0.8272448 -0.9350247 -1.005042 -0.7589306 -0.9920951 -0.7486321 -0.8170267 -0.7379871 -0.6413954 -0.9255297 -0.648944 -0.92998 -0.8272448 -0.9255297 -0.648944 -1.112992 -0.6559353 -0.7486321 -0.8170267 -0.7589306 -0.9920951 -0.5552583 -1.011975 -0.5552583 -1.011975 -0.351956 -1.034542 -0.356939 -0.8439207 -0.5528445 -0.8292071 -0.356939 -0.8439207 -0.3627227 -0.6555098 -0.5494871 -0.6476151 -0.7379871 -0.6413954 -0.7486321 -0.8170267 -0.356939 -0.8439207 -0.351956 -1.034542 -0.1272751 -1.007853 -0.1272751 -1.007853 0.09867322 -0.9812434 0.08987933 -0.8101223 0.08987933 -0.8101223 0.0812602 -0.6386413 -0.1410484 -0.6467575 -0.1339145 -0.8272548 -0.1410484 -0.6467575 -0.3627227 -0.6555098 -1.960575 1.390058 -1.999122 1.237491 -1.776982 1.19976 -1.776982 1.19976 -1.555307 1.163971 -1.553884 1.363523 -1.553884 1.363523 -1.552713 1.564587 -1.738049 1.552459 -1.757691 1.376469 -1.738049 1.552459 -1.923042 1.542438 -1.553884 1.363523 -1.555307 1.163971 -1.346493 1.211836 -1.337183 1.377431 -1.346493 1.211836 -1.13843 1.258337 -1.120285 1.390864 -1.099315 1.527421 -1.325808 1.542025 -1.337183 1.377431 -1.325808 1.542025 -1.552713 1.564587 -0.9129105 1.386433 -1.120285 1.390864 -1.13843 1.258337 -0.9173994 1.228515 -0.6937401 1.196575 -0.7049931 1.380891 -0.7049931 1.380891 -0.7170856 1.563878 -0.9077935 1.544322 -0.9129105 1.386433 -0.9077935 1.544322 -1.099315 1.527421 -0.50994 1.37749 -0.7049931 1.380891 -0.6937401 1.196575 -0.4960111 1.183833 -0.3022379 1.170759 -0.3137646 1.374572 -0.50994 1.37749 -0.3137646 1.374572 -0.330673 1.582442 -0.5233836 1.57231 -0.7170856 1.563878 -0.7049931 1.380891 -0.3137646 1.374572 -0.3022379 1.170759 -0.1114829 1.193398 -0.1114829 1.193398 0.07748347 1.212313 0.06185424 1.395423 -0.1258265 1.386677 0.06185424 1.395423 0.04634332 1.585539 -0.1445952 1.579658 -0.330673 1.582442 -0.3137646 1.374572</float_array>
          <technique_common>
            <accessor source="#Plane_001-mesh-map-0-array" count="2016" stride="2">
              <param name="S" type="float"/>
              <param name="T" type="float"/>
            </accessor>
          </technique_common>
        </source>
        <vertices id="Plane_001-mesh-vertices">
          <input semantic="POSITION" source="#Plane_001-mesh-positions"/>
        </vertices>
        <polylist count="672">
          <input semantic="VERTEX" source="#Plane_001-mesh-vertices" offset="0"/>
          <input semantic="NORMAL" source="#Plane_001-mesh-normals" offset="1"/>
          <input semantic="TEXCOORD" source="#Plane_001-mesh-map-0" offset="2" set="0"/>
          <vcount>3 3 3 3 3 3 3 3 3 3 3 3 3 3 3 3 3 3 3 3 3 3 3 3 3 3 3 3 3 3 3 3 3 3 3 3 3 3 3 3 3 3 3 3 3 3 3 3 3 3 3 3 3 3 3 3 3 3 3 3 3 3 3 3 3 3 3 3 3 3 3 3 3 3 3 3 3 3 3 3 3 3 3 3 3 3 3 3 3 3 3 3 3 3 3 3 3 3 3 3 3 3 3 3 3 3 3 3 3 3 3 3 3 3 3 3 3 3 3 3 3 3 3 3 3 3 3 3 3 3 3 3 3 3 3 3 3 3 3 3 3 3 3 3 3 3 3 3 3 3 3 3 3 3 3 3 3 3 3 3 3 3 3 3 3 3 3 3 3 3 3 3 3 3 3 3 3 3 3 3 3 3 3 3 3 3 3 3 3 3 3 3 3 3 3 3 3 3 3 3 3 3 3 3 3 3 3 3 3 3 3 3 3 3 3 3 3 3 3 3 3 3 3 3 3 3 3 3 3 3 3 3 3 3 3 3 3 3 3 3 3 3 3 3 3 3 3 3 3 3 3 3 3 3 3 3 3 3 3 3 3 3 3 3 3 3 3 3 3 3 3 3 3 3 3 3 3 3 3 3 3 3 3 3 3 3 3 3 3 3 3 3 3 3 3 3 3 3 3 3 3 3 3 3 3 3 3 3 3 3 3 3 3 3 3 3 3 3 3 3 3 3 3 3 3 3 3 3 3 3 3 3 3 3 3 3 3 3 3 3 3 3 3 3 3 3 3 3 3 3 3 3 3 3 3 3 3 3 3 3 3 3 3 3 3 3 3 3 3 3 3 3 3 3 3 3 3 3 3 3 3 3 3 3 3 3 3 3 3 3 3 3 3 3 3 3 3 3 3 3 3 3 3 3 3 3 3 3 3 3 3 3 3 3 3 3 3 3 3 3 3 3 3 3 3 3 3 3 3 3 3 3 3 3 3 3 3 3 3 3 3 3 3 3 3 3 3 3 3 3 3 3 3 3 3 3 3 3 3 3 3 3 3 3 3 3 3 3 3 3 3 3 3 3 3 3 3 3 3 3 3 3 3 3 3 3 3 3 3 3 3 3 3 3 3 3 3 3 3 3 3 3 3 3 3 3 3 3 3 3 3 3 3 3 3 3 3 3 3 3 3 3 3 3 3 3 3 3 3 3 3 3 3 3 3 3 3 3 3 3 3 3 3 3 3 3 3 3 3 3 3 3 3 3 3 3 3 3 3 3 3 3 3 3 3 3 3 3 3 3 3 3 3 3 3 3 3 3 3 3 3 3 3 3 3 3 3 3 3 3 3 3 3 3 3 3 3 3 3 3 3 3 3 3 3 3 3 3 3 3 3 3 3 3 3 3 3 3 3 3 3 3 3 3 3 3 3 3 3 3 3 3 3 3 3 3 3 3 3 3 3 3 3 3 3 3 3 3 3 3 3 3 3 3 3 3 3 3 3 3 3 3 3 3 3 3 3 3 3 3 3 3 </vcount>
          <p>0 0 0 329 1 1 141 2 2 141 2 3 86 3 4 0 0 5 0 0 6 281 4 7 111 5 8 111 5 9 180 6 10 0 0 11 1 7 12 298 8 13 85 9 14 85 9 15 94 10 16 1 7 17 1 7 18 288 11 19 116 12 20 116 12 21 175 13 22 1 7 23 2 14 24 304 15 25 116 12 26 116 12 27 95 16 28 2 14 29 2 14 30 289 17 31 121 18 32 121 18 33 170 19 34 2 14 35 165 20 36 121 18 37 3 21 38 3 21 39 289 17 40 96 22 41 96 22 42 126 23 43 3 21 44 3 21 45 314 24 46 165 20 47 160 25 48 126 23 49 4 26 50 4 26 51 290 27 52 97 28 53 97 28 54 131 29 55 4 26 56 131 29 57 160 25 58 4 26 59 5 30 60 319 31 61 131 29 62 131 29 63 98 32 64 5 30 65 5 30 66 292 33 67 136 34 68 136 34 69 155 35 70 5 30 71 150 36 72 136 34 73 6 37 74 6 37 75 292 33 76 99 38 77 6 37 78 293 39 79 141 2 80 141 2 81 150 36 82 6 37 83 7 40 84 283 41 85 104 42 86 104 42 87 146 43 88 7 40 89 7 40 90 333 44 91 105 45 92 105 45 93 89 46 94 7 40 95 146 43 96 140 47 97 8 48 98 8 48 99 327 49 100 147 50 101 147 50 102 145 51 103 8 48 104 8 48 105 333 44 106 146 43 107 9 52 108 327 49 109 139 53 110 9 52 111 326 54 112 148 55 113 9 52 114 331 56 115 144 57 116 144 57 117 147 50 118 9 52 119 148 55 120 138 58 121 10 59 122 10 59 123 325 60 124 149 61 125 149 61 126 143 62 127 10 59 128 10 59 129 331 56 130 148 55 131 149 61 132 137 63 133 11 64 134 11 64 135 324 65 136 150 36 137 150 36 138 142 66 139 11 64 140 11 64 141 330 67 142 149 61 143 12 68 144 284 69 145 103 70 146 103 70 147 151 71 148 12 68 149 12 68 150 328 72 151 104 42 152 104 42 153 90 73 154 12 68 155 13 74 156 323 75 157 135 76 158 135 76 159 152 77 160 13 74 161 152 77 162 140 47 163 13 74 164 13 74 165 328 72 166 151 71 167 152 77 168 134 78 169 14 79 170 14 79 171 321 80 172 153 81 173 14 79 174 326 54 175 139 53 176 14 79 177 327 49 178 152 77 179 15 82 180 321 80 181 133 83 182 133 83 183 154 84 184 15 82 185 15 82 186 325 60 187 138 58 188 138 58 189 153 81 190 15 82 191 16 85 192 320 86 193 132 87 194 132 87 195 155 35 196 16 85 197 16 85 198 324 65 199 137 63 200 137 63 201 154 84 202 16 85 203 17 88 204 285 89 205 102 90 206 17 88 207 318 91 208 156 92 209 17 88 210 323 75 211 103 70 212 103 70 213 91 93 214 17 88 215 18 94 216 318 91 217 130 95 218 130 95 219 157 96 220 18 94 221 157 96 222 135 76 223 18 94 224 135 76 225 156 92 226 18 94 227 157 96 228 129 97 229 19 98 230 19 98 231 316 99 232 158 100 233 158 100 234 134 78 235 19 98 236 19 98 237 322 101 238 157 96 239 158 100 240 128 102 241 20 103 242 20 103 243 315 104 244 159 105 245 159 105 246 133 83 247 20 103 248 20 103 249 321 80 250 158 100 251 159 105 252 127 106 253 21 107 254 21 107 255 314 24 256 160 25 257 160 25 258 132 87 259 21 107 260 21 107 261 320 86 262 159 105 263 92 108 264 101 109 265 22 110 266 22 110 267 313 111 268 161 112 269 161 112 270 102 90 271 22 110 272 22 110 273 285 89 274 92 108 275 23 113 276 313 111 277 125 114 278 125 114 279 162 115 280 23 113 281 23 113 282 317 116 283 130 95 284 130 95 285 161 112 286 23 113 287 162 115 288 124 117 289 24 118 290 124 117 291 163 119 292 24 118 293 24 118 294 316 99 295 129 97 296 129 97 297 162 115 298 24 118 299 25 120 300 311 121 301 123 122 302 123 122 303 164 123 304 25 120 305 25 120 306 315 104 307 128 102 308 128 102 309 163 119 310 25 120 311 26 124 312 310 125 313 122 126 314 122 126 315 165 20 316 26 124 317 26 124 318 314 24 319 127 106 320 127 106 321 164 123 322 26 124 323 93 127 324 100 128 325 27 129 326 27 129 327 308 130 328 166 131 329 166 131 330 101 109 331 27 129 332 27 129 333 286 132 334 93 127 335 28 133 336 308 130 337 120 134 338 120 134 339 167 135 340 28 133 341 28 133 342 312 136 343 125 114 344 125 114 345 166 131 346 28 133 347 167 135 348 119 137 349 29 138 350 29 138 351 306 139 352 168 140 353 168 140 354 124 117 355 29 138 356 29 138 357 312 136 358 167 135 359 168 140 360 118 141 361 30 142 362 30 142 363 305 143 364 169 144 365 169 144 366 123 122 367 30 142 368 30 142 369 311 121 370 168 140 371 169 144 372 117 145 373 31 146 374 31 146 375 304 15 376 170 19 377 31 146 378 309 147 379 122 126 380 31 146 381 310 125 382 169 144 383 32 148 384 278 149 385 106 150 386 106 150 387 171 151 388 32 148 389 32 148 390 308 130 391 100 128 392 100 128 393 84 152 394 32 148 395 171 151 396 107 153 397 33 154 398 33 154 399 295 155 400 172 156 401 172 156 402 120 134 403 33 154 404 120 134 405 171 151 406 33 154 407 172 156 408 108 157 409 34 158 410 34 158 411 296 159 412 173 160 413 173 160 414 119 137 415 34 158 416 34 158 417 307 161 418 172 156 419 35 162 420 296 159 421 109 163 422 109 163 423 174 164 424 35 162 425 35 162 426 305 143 427 118 141 428 118 141 429 173 160 430 35 162 431 174 164 432 110 165 433 36 166 434 36 166 435 298 8 436 175 13 437 175 13 438 117 145 439 36 166 440 36 166 441 305 143 442 174 164 443 88 167 444 105 45 445 37 168 446 105 45 447 176 169 448 37 168 449 176 169 450 87 170 451 37 168 452 37 168 453 280 171 454 88 167 455 176 169 456 145 51 457 38 172 458 38 172 459 332 173 460 177 174 461 177 174 462 115 175 463 38 172 464 38 172 465 303 176 466 176 169 467 177 174 468 144 57 469 39 177 470 144 57 471 178 178 472 39 177 473 39 177 474 301 179 475 114 180 476 39 177 477 302 181 478 177 174 479 40 182 480 331 56 481 143 62 482 143 62 483 179 183 484 40 182 485 40 182 486 300 184 487 113 185 488 113 185 489 178 178 490 40 182 491 179 183 492 142 66 493 41 186 494 142 66 495 180 6 496 41 186 497 41 186 498 299 187 499 112 188 500 112 188 501 179 183 502 41 186 503 42 189 504 385 190 505 238 191 506 238 191 507 183 192 508 42 189 509 42 189 510 337 193 511 208 194 512 208 194 513 277 195 514 42 189 515 43 196 516 354 197 517 182 198 518 182 198 519 191 199 520 43 196 521 43 196 522 344 200 523 213 201 524 213 201 525 272 202 526 43 196 527 44 203 528 360 204 529 213 201 530 213 201 531 192 205 532 44 203 533 44 203 534 345 206 535 218 207 536 218 207 537 267 208 538 44 203 539 262 209 540 218 207 541 45 210 542 45 210 543 345 206 544 193 211 545 193 211 546 223 212 547 45 210 548 45 210 549 370 213 550 262 209 551 257 214 552 223 212 553 46 215 554 46 215 555 346 216 556 194 217 557 194 217 558 228 218 559 46 215 560 228 218 561 257 214 562 46 215 563 47 219 564 375 220 565 228 218 566 228 218 567 195 221 568 47 219 569 47 219 570 348 222 571 233 223 572 233 223 573 252 224 574 47 219 575 247 225 576 233 223 577 48 226 578 48 226 579 348 222 580 196 227 581 48 226 582 349 228 583 238 191 584 238 191 585 247 225 586 48 226 587 49 229 588 339 230 589 201 231 590 201 231 591 243 232 592 49 229 593 49 229 594 389 233 595 202 234 596 202 234 597 186 235 598 49 229 599 243 232 600 237 236 601 50 237 602 50 237 603 383 238 604 244 239 605 244 239 606 242 240 607 50 237 608 50 237 609 389 233 610 243 232 611 51 241 612 383 238 613 236 242 614 51 241 615 382 243 616 245 244 617 51 241 618 387 245 619 241 246 620 241 246 621 244 239 622 51 241 623 245 244 624 235 247 625 52 248 626 52 248 627 381 249 628 246 250 629 246 250 630 240 251 631 52 248 632 52 248 633 387 245 634 245 244 635 246 250 636 234 252 637 53 253 638 53 253 639 380 254 640 247 225 641 247 225 642 239 255 643 53 253 644 53 253 645 386 256 646 246 250 647 54 257 648 340 258 649 200 259 650 200 259 651 248 260 652 54 257 653 54 257 654 384 261 655 201 231 656 201 231 657 187 262 658 54 257 659 55 263 660 379 264 661 232 265 662 232 265 663 249 266 664 55 263 665 249 266 666 237 236 667 55 263 668 55 263 669 384 261 670 248 260 671 249 266 672 231 267 673 56 268 674 56 268 675 377 269 676 250 270 677 56 268 678 382 243 679 236 242 680 56 268 681 383 238 682 249 266 683 57 271 684 377 269 685 230 272 686 230 272 687 251 273 688 57 271 689 57 271 690 381 249 691 235 247 692 235 247 693 250 270 694 57 271 695 58 274 696 376 275 697 229 276 698 229 276 699 252 224 700 58 274 701 58 274 702 380 254 703 234 252 704 234 252 705 251 273 706 58 274 707 59 277 708 341 278 709 199 279 710 59 277 711 374 280 712 253 281 713 59 277 714 379 264 715 200 259 716 200 259 717 188 282 718 59 277 719 60 283 720 374 280 721 227 284 722 227 284 723 254 285 724 60 283 725 254 285 726 232 265 727 60 283 728 232 265 729 253 281 730 60 283 731 254 285 732 226 286 733 61 287 734 61 287 735 372 288 736 255 289 737 255 289 738 231 267 739 61 287 740 61 287 741 378 290 742 254 285 743 255 289 744 225 291 745 62 292 746 62 292 747 371 293 748 256 294 749 256 294 750 230 272 751 62 292 752 62 292 753 377 269 754 255 289 755 256 294 756 224 295 757 63 296 758 63 296 759 370 213 760 257 214 761 257 214 762 229 276 763 63 296 764 63 296 765 376 275 766 256 294 767 189 297 768 198 298 769 64 299 770 64 299 771 369 300 772 258 301 773 258 301 774 199 279 775 64 299 776 64 299 777 341 278 778 189 297 779 65 302 780 369 300 781 222 303 782 222 303 783 259 304 784 65 302 785 65 302 786 373 305 787 227 284 788 227 284 789 258 301 790 65 302 791 259 304 792 221 306 793 66 307 794 221 306 795 260 308 796 66 307 797 66 307 798 372 288 799 226 286 800 226 286 801 259 304 802 66 307 803 67 309 804 367 310 805 220 311 806 220 311 807 261 312 808 67 309 809 67 309 810 371 293 811 225 291 812 225 291 813 260 308 814 67 309 815 68 313 816 366 314 817 219 315 818 219 315 819 262 209 820 68 313 821 68 313 822 370 213 823 224 295 824 224 295 825 261 312 826 68 313 827 190 316 828 197 317 829 69 318 830 69 318 831 364 319 832 263 320 833 263 320 834 198 298 835 69 318 836 69 318 837 342 321 838 190 316 839 70 322 840 364 319 841 217 323 842 217 323 843 264 324 844 70 322 845 70 322 846 368 325 847 222 303 848 222 303 849 263 320 850 70 322 851 264 324 852 216 326 853 71 327 854 71 327 855 362 328 856 265 329 857 265 329 858 221 306 859 71 327 860 71 327 861 368 325 862 264 324 863 265 329 864 215 330 865 72 331 866 72 331 867 361 332 868 266 333 869 266 333 870 220 311 871 72 331 872 72 331 873 367 310 874 265 329 875 266 333 876 214 334 877 73 335 878 214 334 879 267 208 880 73 335 881 73 335 882 365 336 883 219 315 884 73 335 885 366 314 886 266 333 887 74 337 888 334 338 889 203 339 890 203 339 891 268 340 892 74 337 893 74 337 894 364 319 895 197 317 896 197 317 897 181 341 898 74 337 899 268 340 900 204 342 901 75 343 902 75 343 903 351 344 904 269 345 905 75 343 906 363 346 907 217 323 908 217 323 909 268 340 910 75 343 911 269 345 912 205 347 913 76 348 914 76 348 915 352 349 916 270 350 917 270 350 918 216 326 919 76 348 920 76 348 921 363 346 922 269 345 923 270 350 924 206 351 925 77 352 926 206 351 927 271 353 928 77 352 929 77 352 930 361 332 931 215 330 932 215 330 933 270 350 934 77 352 935 271 353 936 207 354 937 78 355 938 207 354 939 272 202 940 78 355 941 272 202 942 214 334 943 78 355 944 78 355 945 361 332 946 271 353 947 185 356 948 202 234 949 79 357 950 202 234 951 273 358 952 79 357 953 273 358 954 184 359 955 79 357 956 79 357 957 336 360 958 185 356 959 273 358 960 242 240 961 80 361 962 80 361 963 388 362 964 274 363 965 274 363 966 212 364 967 80 361 968 80 361 969 359 365 970 273 358 971 81 366 972 388 362 973 241 246 974 241 246 975 275 367 976 81 366 977 275 367 978 211 368 979 81 366 980 81 366 981 358 369 982 274 363 983 82 370 984 387 245 985 240 251 986 240 251 987 276 371 988 82 370 989 82 370 990 356 372 991 210 373 992 210 373 993 275 367 994 82 370 995 276 371 996 239 255 997 83 374 998 239 255 999 277 195 1000 83 374 1001 83 374 1002 355 375 1003 209 376 1004 209 376 1005 276 371 1006 83 374 1007 0 0 1008 180 6 1009 329 1 1010 141 2 1011 293 39 1012 86 3 1013 0 0 1014 86 3 1015 281 4 1016 111 5 1017 299 187 1018 180 6 1019 1 7 1020 175 13 1021 298 8 1022 85 9 1023 279 377 1024 94 10 1025 1 7 1026 94 10 1027 288 11 1028 116 12 1029 304 15 1030 175 13 1031 2 14 1032 170 19 1033 304 15 1034 116 12 1035 288 11 1036 95 16 1037 2 14 1038 95 16 1039 289 17 1040 121 18 1041 309 147 1042 170 19 1043 165 20 1044 309 147 1045 121 18 1046 3 21 1047 121 18 1048 289 17 1049 96 22 1050 290 27 1051 126 23 1052 3 21 1053 126 23 1054 314 24 1055 160 25 1056 314 24 1057 126 23 1058 4 26 1059 126 23 1060 290 27 1061 97 28 1062 291 378 1063 131 29 1064 131 29 1065 319 31 1066 160 25 1067 5 30 1068 155 35 1069 319 31 1070 131 29 1071 291 378 1072 98 32 1073 5 30 1074 98 32 1075 292 33 1076 136 34 1077 324 65 1078 155 35 1079 150 36 1080 324 65 1081 136 34 1082 6 37 1083 136 34 1084 292 33 1085 6 37 1086 99 38 1087 293 39 1088 141 2 1089 329 1 1090 150 36 1091 7 40 1092 89 46 1093 283 41 1094 104 42 1095 328 72 1096 146 43 1097 7 40 1098 146 43 1099 333 44 1100 105 45 1101 282 379 1102 89 46 1103 146 43 1104 328 72 1105 140 47 1106 8 48 1107 140 47 1108 327 49 1109 147 50 1110 332 173 1111 145 51 1112 8 48 1113 145 51 1114 333 44 1115 9 52 1116 147 50 1117 327 49 1118 9 52 1119 139 53 1120 326 54 1121 9 52 1122 148 55 1123 331 56 1124 144 57 1125 332 173 1126 147 50 1127 148 55 1128 326 54 1129 138 58 1130 10 59 1131 138 58 1132 325 60 1133 149 61 1134 330 67 1135 143 62 1136 10 59 1137 143 62 1138 331 56 1139 149 61 1140 325 60 1141 137 63 1142 11 64 1143 137 63 1144 324 65 1145 150 36 1146 329 1 1147 142 66 1148 11 64 1149 142 66 1150 330 67 1151 12 68 1152 90 73 1153 284 69 1154 103 70 1155 323 75 1156 151 71 1157 12 68 1158 151 71 1159 328 72 1160 104 42 1161 283 41 1162 90 73 1163 13 74 1164 151 71 1165 323 75 1166 135 76 1167 322 101 1168 152 77 1169 152 77 1170 327 49 1171 140 47 1172 13 74 1173 140 47 1174 328 72 1175 152 77 1176 322 101 1177 134 78 1178 14 79 1179 134 78 1180 321 80 1181 14 79 1182 153 81 1183 326 54 1184 14 79 1185 139 53 1186 327 49 1187 15 82 1188 153 81 1189 321 80 1190 133 83 1191 320 86 1192 154 84 1193 15 82 1194 154 84 1195 325 60 1196 138 58 1197 326 54 1198 153 81 1199 16 85 1200 154 84 1201 320 86 1202 132 87 1203 319 31 1204 155 35 1205 16 85 1206 155 35 1207 324 65 1208 137 63 1209 325 60 1210 154 84 1211 17 88 1212 91 93 1213 285 89 1214 17 88 1215 102 90 1216 318 91 1217 17 88 1218 156 92 1219 323 75 1220 103 70 1221 284 69 1222 91 93 1223 18 94 1224 156 92 1225 318 91 1226 130 95 1227 317 116 1228 157 96 1229 157 96 1230 322 101 1231 135 76 1232 135 76 1233 323 75 1234 156 92 1235 157 96 1236 317 116 1237 129 97 1238 19 98 1239 129 97 1240 316 99 1241 158 100 1242 321 80 1243 134 78 1244 19 98 1245 134 78 1246 322 101 1247 158 100 1248 316 99 1249 128 102 1250 20 103 1251 128 102 1252 315 104 1253 159 105 1254 320 86 1255 133 83 1256 20 103 1257 133 83 1258 321 80 1259 159 105 1260 315 104 1261 127 106 1262 21 107 1263 127 106 1264 314 24 1265 160 25 1266 319 31 1267 132 87 1268 21 107 1269 132 87 1270 320 86 1271 92 108 1272 286 132 1273 101 109 1274 22 110 1275 101 109 1276 313 111 1277 161 112 1278 318 91 1279 102 90 1280 22 110 1281 102 90 1282 285 89 1283 23 113 1284 161 112 1285 313 111 1286 125 114 1287 312 136 1288 162 115 1289 23 113 1290 162 115 1291 317 116 1292 130 95 1293 318 91 1294 161 112 1295 162 115 1296 312 136 1297 124 117 1298 124 117 1299 311 121 1300 163 119 1301 24 118 1302 163 119 1303 316 99 1304 129 97 1305 317 116 1306 162 115 1307 25 120 1308 163 119 1309 311 121 1310 123 122 1311 310 125 1312 164 123 1313 25 120 1314 164 123 1315 315 104 1316 128 102 1317 316 99 1318 163 119 1319 26 124 1320 164 123 1321 310 125 1322 122 126 1323 309 147 1324 165 20 1325 26 124 1326 165 20 1327 314 24 1328 127 106 1329 315 104 1330 164 123 1331 93 127 1332 287 380 1333 100 128 1334 27 129 1335 100 128 1336 308 130 1337 166 131 1338 313 111 1339 101 109 1340 27 129 1341 101 109 1342 286 132 1343 28 133 1344 166 131 1345 308 130 1346 120 134 1347 307 161 1348 167 135 1349 28 133 1350 167 135 1351 312 136 1352 125 114 1353 313 111 1354 166 131 1355 167 135 1356 307 161 1357 119 137 1358 29 138 1359 119 137 1360 306 139 1361 168 140 1362 311 121 1363 124 117 1364 29 138 1365 124 117 1366 312 136 1367 168 140 1368 306 139 1369 118 141 1370 30 142 1371 118 141 1372 305 143 1373 169 144 1374 310 125 1375 123 122 1376 30 142 1377 123 122 1378 311 121 1379 169 144 1380 305 143 1381 117 145 1382 31 146 1383 117 145 1384 304 15 1385 31 146 1386 170 19 1387 309 147 1388 31 146 1389 122 126 1390 310 125 1391 32 148 1392 84 152 1393 278 149 1394 106 150 1395 294 381 1396 171 151 1397 32 148 1398 171 151 1399 308 130 1400 100 128 1401 287 380 1402 84 152 1403 171 151 1404 294 381 1405 107 153 1406 33 154 1407 107 153 1408 295 155 1409 172 156 1410 307 161 1411 120 134 1412 120 134 1413 308 130 1414 171 151 1415 172 156 1416 295 155 1417 108 157 1418 34 158 1419 108 157 1420 296 159 1421 173 160 1422 306 139 1423 119 137 1424 34 158 1425 119 137 1426 307 161 1427 35 162 1428 173 160 1429 296 159 1430 109 163 1431 297 382 1432 174 164 1433 35 162 1434 174 164 1435 305 143 1436 118 141 1437 306 139 1438 173 160 1439 174 164 1440 297 382 1441 110 165 1442 36 166 1443 110 165 1444 298 8 1445 175 13 1446 304 15 1447 117 145 1448 36 166 1449 117 145 1450 305 143 1451 88 167 1452 282 379 1453 105 45 1454 105 45 1455 333 44 1456 176 169 1457 176 169 1458 303 176 1459 87 170 1460 37 168 1461 87 170 1462 280 171 1463 176 169 1464 333 44 1465 145 51 1466 38 172 1467 145 51 1468 332 173 1469 177 174 1470 302 181 1471 115 175 1472 38 172 1473 115 175 1474 303 176 1475 177 174 1476 332 173 1477 144 57 1478 144 57 1479 331 56 1480 178 178 1481 39 177 1482 178 178 1483 301 179 1484 39 177 1485 114 180 1486 302 181 1487 40 182 1488 178 178 1489 331 56 1490 143 62 1491 330 67 1492 179 183 1493 40 182 1494 179 183 1495 300 184 1496 113 185 1497 301 179 1498 178 178 1499 179 183 1500 330 67 1501 142 66 1502 142 66 1503 329 1 1504 180 6 1505 41 186 1506 180 6 1507 299 187 1508 112 188 1509 300 184 1510 179 183 1511 42 189 1512 277 195 1513 385 190 1514 238 191 1515 349 228 1516 183 192 1517 42 189 1518 183 192 1519 337 193 1520 208 194 1521 355 375 1522 277 195 1523 43 196 1524 272 202 1525 354 197 1526 182 198 1527 335 383 1528 191 199 1529 43 196 1530 191 199 1531 344 200 1532 213 201 1533 360 204 1534 272 202 1535 44 203 1536 267 208 1537 360 204 1538 213 201 1539 344 200 1540 192 205 1541 44 203 1542 192 205 1543 345 206 1544 218 207 1545 365 336 1546 267 208 1547 262 209 1548 365 336 1549 218 207 1550 45 210 1551 218 207 1552 345 206 1553 193 211 1554 346 216 1555 223 212 1556 45 210 1557 223 212 1558 370 213 1559 257 214 1560 370 213 1561 223 212 1562 46 215 1563 223 212 1564 346 216 1565 194 217 1566 347 384 1567 228 218 1568 228 218 1569 375 220 1570 257 214 1571 47 219 1572 252 224 1573 375 220 1574 228 218 1575 347 384 1576 195 221 1577 47 219 1578 195 221 1579 348 222 1580 233 223 1581 380 254 1582 252 224 1583 247 225 1584 380 254 1585 233 223 1586 48 226 1587 233 223 1588 348 222 1589 48 226 1590 196 227 1591 349 228 1592 238 191 1593 385 190 1594 247 225 1595 49 229 1596 186 235 1597 339 230 1598 201 231 1599 384 261 1600 243 232 1601 49 229 1602 243 232 1603 389 233 1604 202 234 1605 338 385 1606 186 235 1607 243 232 1608 384 261 1609 237 236 1610 50 237 1611 237 236 1612 383 238 1613 244 239 1614 388 362 1615 242 240 1616 50 237 1617 242 240 1618 389 233 1619 51 241 1620 244 239 1621 383 238 1622 51 241 1623 236 242 1624 382 243 1625 51 241 1626 245 244 1627 387 245 1628 241 246 1629 388 362 1630 244 239 1631 245 244 1632 382 243 1633 235 247 1634 52 248 1635 235 247 1636 381 249 1637 246 250 1638 386 256 1639 240 251 1640 52 248 1641 240 251 1642 387 245 1643 246 250 1644 381 249 1645 234 252 1646 53 253 1647 234 252 1648 380 254 1649 247 225 1650 385 190 1651 239 255 1652 53 253 1653 239 255 1654 386 256 1655 54 257 1656 187 262 1657 340 258 1658 200 259 1659 379 264 1660 248 260 1661 54 257 1662 248 260 1663 384 261 1664 201 231 1665 339 230 1666 187 262 1667 55 263 1668 248 260 1669 379 264 1670 232 265 1671 378 290 1672 249 266 1673 249 266 1674 383 238 1675 237 236 1676 55 263 1677 237 236 1678 384 261 1679 249 266 1680 378 290 1681 231 267 1682 56 268 1683 231 267 1684 377 269 1685 56 268 1686 250 270 1687 382 243 1688 56 268 1689 236 242 1690 383 238 1691 57 271 1692 250 270 1693 377 269 1694 230 272 1695 376 275 1696 251 273 1697 57 271 1698 251 273 1699 381 249 1700 235 247 1701 382 243 1702 250 270 1703 58 274 1704 251 273 1705 376 275 1706 229 276 1707 375 220 1708 252 224 1709 58 274 1710 252 224 1711 380 254 1712 234 252 1713 381 249 1714 251 273 1715 59 277 1716 188 282 1717 341 278 1718 59 277 1719 199 279 1720 374 280 1721 59 277 1722 253 281 1723 379 264 1724 200 259 1725 340 258 1726 188 282 1727 60 283 1728 253 281 1729 374 280 1730 227 284 1731 373 305 1732 254 285 1733 254 285 1734 378 290 1735 232 265 1736 232 265 1737 379 264 1738 253 281 1739 254 285 1740 373 305 1741 226 286 1742 61 287 1743 226 286 1744 372 288 1745 255 289 1746 377 269 1747 231 267 1748 61 287 1749 231 267 1750 378 290 1751 255 289 1752 372 288 1753 225 291 1754 62 292 1755 225 291 1756 371 293 1757 256 294 1758 376 275 1759 230 272 1760 62 292 1761 230 272 1762 377 269 1763 256 294 1764 371 293 1765 224 295 1766 63 296 1767 224 295 1768 370 213 1769 257 214 1770 375 220 1771 229 276 1772 63 296 1773 229 276 1774 376 275 1775 189 297 1776 342 321 1777 198 298 1778 64 299 1779 198 298 1780 369 300 1781 258 301 1782 374 280 1783 199 279 1784 64 299 1785 199 279 1786 341 278 1787 65 302 1788 258 301 1789 369 300 1790 222 303 1791 368 325 1792 259 304 1793 65 302 1794 259 304 1795 373 305 1796 227 284 1797 374 280 1798 258 301 1799 259 304 1800 368 325 1801 221 306 1802 221 306 1803 367 310 1804 260 308 1805 66 307 1806 260 308 1807 372 288 1808 226 286 1809 373 305 1810 259 304 1811 67 309 1812 260 308 1813 367 310 1814 220 311 1815 366 314 1816 261 312 1817 67 309 1818 261 312 1819 371 293 1820 225 291 1821 372 288 1822 260 308 1823 68 313 1824 261 312 1825 366 314 1826 219 315 1827 365 336 1828 262 209 1829 68 313 1830 262 209 1831 370 213 1832 224 295 1833 371 293 1834 261 312 1835 190 316 1836 343 386 1837 197 317 1838 69 318 1839 197 317 1840 364 319 1841 263 320 1842 369 300 1843 198 298 1844 69 318 1845 198 298 1846 342 321 1847 70 322 1848 263 320 1849 364 319 1850 217 323 1851 363 346 1852 264 324 1853 70 322 1854 264 324 1855 368 325 1856 222 303 1857 369 300 1858 263 320 1859 264 324 1860 363 346 1861 216 326 1862 71 327 1863 216 326 1864 362 328 1865 265 329 1866 367 310 1867 221 306 1868 71 327 1869 221 306 1870 368 325 1871 265 329 1872 362 328 1873 215 330 1874 72 331 1875 215 330 1876 361 332 1877 266 333 1878 366 314 1879 220 311 1880 72 331 1881 220 311 1882 367 310 1883 266 333 1884 361 332 1885 214 334 1886 214 334 1887 360 204 1888 267 208 1889 73 335 1890 267 208 1891 365 336 1892 73 335 1893 219 315 1894 366 314 1895 74 337 1896 181 341 1897 334 338 1898 203 339 1899 350 387 1900 268 340 1901 74 337 1902 268 340 1903 364 319 1904 197 317 1905 343 386 1906 181 341 1907 268 340 1908 350 387 1909 204 342 1910 75 343 1911 204 342 1912 351 344 1913 75 343 1914 269 345 1915 363 346 1916 217 323 1917 364 319 1918 268 340 1919 269 345 1920 351 344 1921 205 347 1922 76 348 1923 205 347 1924 352 349 1925 270 350 1926 362 328 1927 216 326 1928 76 348 1929 216 326 1930 363 346 1931 270 350 1932 352 349 1933 206 351 1934 206 351 1935 353 388 1936 271 353 1937 77 352 1938 271 353 1939 361 332 1940 215 330 1941 362 328 1942 270 350 1943 271 353 1944 353 388 1945 207 354 1946 207 354 1947 354 197 1948 272 202 1949 272 202 1950 360 204 1951 214 334 1952 78 355 1953 214 334 1954 361 332 1955 185 356 1956 338 385 1957 202 234 1958 202 234 1959 389 233 1960 273 358 1961 273 358 1962 359 365 1963 184 359 1964 79 357 1965 184 359 1966 336 360 1967 273 358 1968 389 233 1969 242 240 1970 80 361 1971 242 240 1972 388 362 1973 274 363 1974 358 369 1975 212 364 1976 80 361 1977 212 364 1978 359 365 1979 81 366 1980 274 363 1981 388 362 1982 241 246 1983 387 245 1984 275 367 1985 275 367 1986 357 389 1987 211 368 1988 81 366 1989 211 368 1990 358 369 1991 82 370 1992 275 367 1993 387 245 1994 240 251 1995 386 256 1996 276 371 1997 82 370 1998 276 371 1999 356 372 2000 210 373 2001 357 389 2002 275 367 2003 276 371 2004 386 256 2005 239 255 2006 239 255 2007 385 190 2008 277 195 2009 83 374 2010 277 195 2011 355 375 2012 209 376 2013 356 372 2014 276 371 2015</p>
        </polylist>
      </mesh>
    </geometry>
  </library_geometries>
  <library_controllers/>
  <library_visual_scenes>
    <visual_scene id="Scene" name="Scene">
      <node id="Plane_002" name="Plane_002" type="NODE">
        <matrix sid="transform">1 0 0 0 0 -4.37114e-8 -1 0 0 1 -4.37114e-8 0 0 0 0 1</matrix>
        <instance_geometry url="#Plane_001-mesh" name="Plane_002"/>
      </node>
    </visual_scene>
  </library_visual_scenes>
  <scene>
    <instance_visual_scene url="#Scene"/>
  </scene>
</COLLADA>