<?xml version="1.0" encoding="utf-8"?>
<COLLADA xmlns="http://www.collada.org/2005/11/COLLADASchema" version="1.4.1">
  <asset>
    <contributor>
      <author>Blender User</author>
      <authoring_tool>Blender 2.77.0 commit date:2016-04-05, commit time:18:12, hash:abf6f08</authoring_tool>
    </contributor>
    <created>2016-06-07T18:47:46</created>
    <modified>2016-06-07T18:47:46</modified>
    <unit name="meter" meter="1"/>
    <up_axis>Z_UP</up_axis>
  </asset>
  <library_images/>
  <library_effects/>
  <library_geometries>
    <geometry id="Plane_026-mesh" name="Plane.026">
      <mesh>
        <source id="Plane_026-mesh-positions">
          <float_array id="Plane_026-mesh-positions-array" count="867">0.7538643 0.1885471 -0.757161 0.774334 0.1007518 -0.6335249 0.8913117 0.159027 -0.7864131 0.6983395 0.2470932 -0.8889579 0.5967865 0.2007236 -0.7771695 0.6141758 0.1333942 -0.5907151 0.8460808 0.1750106 -0.6994259 0.8383713 0.2220535 -0.8890419 0.6259136 0.1828918 -0.8403788 -0.7533379 0.1804428 -0.7597536 -0.7452221 0.1033611 -0.6338537 -0.6372566 0.1896133 -0.7568994 -0.7453365 0.1758346 -0.8849237 -0.8557873 0.1415576 -0.7591791 -0.8810558 0.1660766 -0.6462265 -0.6468124 0.1564178 -0.6614626 -0.6294174 0.1526031 -0.9075136 -0.8314324 0.144905 -0.8790572 -0.3121834 0.2184906 -0.7379704 -0.3255787 0.1799144 -0.6314318 -0.1375694 0.2262382 -0.7460296 -0.3117066 0.2159767 -0.9121916 -0.4126453 0.2166576 -0.7271337 -0.4032173 0.2075767 -0.6475564 -0.1298522 0.1590194 -0.6401031 -0.1438484 0.1899299 -0.8500587 -0.3919659 0.2056446 -0.8660037 0.2035942 0.162281 -0.7164821 0.2355518 0.1724491 -0.620065 0.4072266 0.1585216 -0.7536506 0.2432918 0.1845569 -0.8606411 0.07909774 0.1581726 -0.7601853 0.1195487 0.2010631 -0.6958393 0.4255905 0.1939163 -0.6038867 0.3679314 0.174406 -0.8841927 0.1227207 0.2090682 -0.8456025 0.2106113 0.1770591 0.7508369 0.1664695 0.1801166 0.863457 0.3339653 0.1708087 0.7291395 0.2114353 0.181652 0.638769 0.1151332 0.2128009 0.8043033 0.07316589 0.1751728 0.8975467 0.3525486 0.1699085 0.8087823 0.3874588 0.2261962 0.6441027 0.1220951 0.1415615 0.6707308 0.2639008 0.1891613 0.2823736 0.1946067 0.2065448 0.3850034 0.3445282 0.1811885 0.2864238 0.2546997 0.2029075 0.1380817 0.1577892 0.1889286 0.277419 0.122507 0.1433086 0.4001262 0.3516312 0.2088909 0.4329605 0.40695 0.1669902 0.07737302 0.169733 0.2015705 0.1227698 0.2553673 0.2510738 -0.2725917 0.2568913 0.1573162 -0.09839409 0.3964901 0.1644363 -0.2637358 0.2154064 0.1925659 -0.3926573 0.1117362 0.2084102 -0.2739566 0.1180725 0.1931476 -0.1695336 0.3913078 0.1516876 -0.1637642 0.437561 0.1810722 -0.3357124 0.1357841 0.2014465 -0.4191745 -0.2708283 0.1769542 0.7022479 -0.2547398 0.1669864 0.8918286 -0.2033061 0.1910438 0.7576493 -0.2819462 0.17177 0.6106135 -0.3907147 0.2154464 0.7188556 -0.4132137 0.22336 0.877955 -0.1474018 0.216156 0.8954896 -0.1414966 0.1846294 0.6078171 -0.4008026 0.1238079 0.5528027 -0.2286567 0.1873512 0.2515597 -0.258255 0.1350688 0.3732905 -0.1546897 0.1757259 0.2737889 -0.2433223 0.2406711 0.1292564 -0.4053555 0.1686534 0.2416846 -0.4017506 0.1788806 0.4073134 -0.1772022 0.1418399 0.3838511 -0.1125488 0.2277126 0.1462173 -0.3492146 0.1313266 0.1065797 -0.2661591 0.2090778 -0.2512353 -0.1881885 0.2345905 -0.1059394 -0.1412582 0.2209091 -0.2650742 -0.3162136 0.1921157 -0.4112393 -0.4489975 0.174633 -0.2359687 -0.3688412 0.2190628 -0.1411991 -0.08028602 0.1650848 -0.1194425 -0.1626243 0.2013359 -0.3975983 -0.3860645 0.2313404 -0.3677868 -0.7763558 0.1882534 0.7374022 -0.7579212 0.2663765 0.8513311 -0.647728 0.2020206 0.7275747 -0.7781639 0.1815509 0.5958808 -0.8841953 0.2160472 0.7411654 -0.8867302 0.1851234 0.876664 -0.6566582 0.1613674 0.8420082 -0.6576843 0.1507434 0.5892667 -0.8975086 0.1713829 0.6458041 -0.7417889 0.1884784 0.1761696 -0.7697258 0.1383018 0.3836187 -0.5816689 0.1397247 0.2657197 -0.7549305 0.1734104 0.1245816 -0.8392925 0.2043972 0.2301656 -0.8974667 0.1861858 0.3604222 -0.6225529 0.1923179 0.3391638 -0.625433 0.1506958 0.1592292 -0.8757191 0.1872177 0.1205297 -0.757721 0.1743221 -0.2600412 -0.768486 0.1612548 -0.1497123 -0.5932598 0.1741771 -0.2585582 -0.7145863 0.1888523 -0.3575946 -0.8818836 0.1630439 -0.2498495 -0.8924542 0.1513671 -0.1682383 -0.6140938 0.1593074 -0.105809 -0.6385651 0.1435031 -0.3878408 -0.8686752 0.1521873 -0.383552 0.7281475 0.1698265 0.736945 0.6956692 0.1513786 0.8656436 0.8748016 0.1603298 0.7440897 0.7351513 0.1967353 0.6319934 0.5937538 0.1754741 0.7266368 0.5976868 0.1868457 0.8469766 0.8676643 0.1519012 0.8752686 0.9013329 0.1776275 0.6844656 0.6189919 0.1963329 0.6528801 0.7510719 0.2044677 0.2684929 0.7269173 0.2061996 0.3963798 0.9051476 0.2352447 0.2493736 0.7400036 0.1968555 0.1026764 0.6768646 0.1605014 0.2485592 0.5892506 0.2190227 0.382797 0.8898144 0.2251281 0.3343433 0.8213101 0.2051277 0.08614414 0.6224346 0.2020912 0.1056323 0.766367 0.1738338 -0.2727702 0.7617226 0.2058334 -0.1475309 0.879673 0.1895103 -0.2980809 0.7644215 0.1556034 -0.4029331 0.6006737 0.1468105 -0.2686829 0.63344 0.2005958 -0.176772 0.8839588 0.2110538 -0.1597539 0.8846359 0.1655902 -0.4161349 0.6611233 0.1394176 -0.3770152 -1.070599 0.2108573 0.6304361 -0.9982166 0.1522464 0.7542129 -1.033026 0.1424846 0.8759617 0.5930653 0.1392498 1.002716 0.7400837 0.1326999 0.9354807 0.8537274 0.1557445 0.9929284 1.034246 0.1943721 -0.6618074 0.9669151 0.1949539 -0.7832227 0.9612656 0.2248363 -0.8959466 -0.622078 0.1944866 -1.021009 -0.7244949 0.1771736 -1.022258 -0.8933792 0.136856 -0.9913795 -0.8832913 0.2520504 1.023725 -0.7716694 0.2069644 0.9828137 -0.6610184 0.235733 0.9783471 -0.4365101 0.2192096 0.9566302 -0.2800617 0.209156 1.021379 -0.1894817 0.2146053 1.031639 0.02282524 0.2283935 1.006331 0.1695308 0.1646442 0.9412751 0.3772755 0.1883125 0.9526643 0.8329144 0.2297172 -1.007577 0.7146092 0.2372837 -1.002966 0.612978 0.2488994 -0.9773325 0.3566322 0.2127819 -0.9563676 0.2337226 0.2022399 -0.9934703 0.1633052 0.1823329 -0.9113762 -0.1180076 0.1852188 -0.9679318 -0.2546349 0.2311496 -0.936309 -0.3860378 0.210144 -0.991759 -0.5671692 0.217657 -0.6197193 -0.5568867 0.2132301 -0.7002127 -0.52458 0.2245235 -0.845546 -0.07082366 0.224821 -0.6430094 -0.05915069 0.1578674 -0.7735293 0.005655288 0.1356391 -0.8330124 0.4774723 0.1520576 -0.6366475 0.5562363 0.1502742 -0.7479547 0.498539 0.1889705 -0.8714398 -1.01395 0.1280364 -0.9058957 -0.9680481 0.1249408 -0.7612268 -0.9760456 0.1183338 -0.6297292 -0.9725914 0.1424446 -0.4034202 -0.9968891 0.1513347 -0.261727 -0.9828167 0.1332645 -0.1590892 -1.011124 0.194107 0.1186102 -1.023447 0.176691 0.2196745 -1.003798 0.1924266 0.3667013 1.020349 0.1160869 0.8189716 1.000843 0.1464099 0.7509853 0.9979744 0.1653594 0.6357113 0.9692841 0.2089271 0.3592824 0.9795494 0.1557865 0.2819725 1.005072 0.2395343 0.1610304 0.958271 0.2323608 -0.1624121 0.9781017 0.1815586 -0.3033661 0.948904 0.164648 -0.4263982 -0.5897465 0.2334022 0.8144916 -0.5270367 0.1832485 0.7085853 -0.5121269 0.1314258 0.6119279 -0.4537258 0.1299152 0.3327561 -0.4825039 0.1475811 0.2427519 -0.493269 0.1882209 0.1159386 -0.4563599 0.1918048 -0.1070542 -0.5129719 0.2287464 -0.2344745 -0.5559597 0.1860923 -0.3761647 -0.06715393 0.160778 0.9347646 -0.04139518 0.1772155 0.7808471 -0.03805351 0.1290912 0.6123046 -0.01287841 0.200941 0.37827 -0.02449798 0.1418056 0.258972 -0.0411148 0.2182025 0.1768723 0.01451873 0.2578983 -0.1860815 0.007379531 0.2030181 -0.2526412 -0.06215667 0.2382659 -0.4017937 0.4216499 0.2098865 0.8111174 0.457304 0.216011 0.732358 0.4813233 0.1478137 0.6187401 0.5220604 0.1811065 0.3791994 0.5322514 0.156847 0.2230424 0.5366726 0.2430477 0.1441473 0.5196476 0.1847705 -0.1445857 0.4806824 0.1263866 -0.2284418 0.5531921 0.1679229 -0.3766243 0.3923664 0.1947841 0.5755042 0.2199039 0.1755466 0.5170192 0.02592086 0.1967391 0.5337897 0.4469299 0.1978969 -0.04331529 0.2692318 0.2057514 -0.01213932 0.1418285 0.2214469 0.002504646 0.3951454 0.1534175 -0.5204014 0.1928119 0.1368865 -0.492906 0.04612541 0.1761455 -0.5377434 -0.1814975 0.1618423 0.5024296 -0.2882576 0.1544303 0.4355115 -0.3516998 0.1258869 0.4810261 -0.08521461 0.1793689 0.04765492 -0.2098236 0.1687965 -0.004205763 -0.3522415 0.1909084 0.01038932 -0.2049255 0.2171058 -0.5480563 -0.3261566 0.2492027 -0.5271596 -0.4410381 0.2198619 -0.4971483 -0.6234722 0.1250267 0.4977207 -0.7615872 0.1655712 0.4867234 -0.8792191 0.2115631 0.4986926 -0.6035957 0.1844406 0.005582392 -0.764431 0.1811923 0.01092463 -0.8674145 0.1923217 -0.001938521 -0.6526375 0.1982173 -0.4716364 -0.7609501 0.1620769 -0.4886123 -0.9370575 0.09857749 -0.4956779 0.8858681 0.186552 0.4922201 0.7376824 0.1951045 0.5099879 0.5945759 0.2155075 0.5068916 0.8554783 0.2193164 -0.01055413 0.7661972 0.1684913 -0.0424413 0.6602707 0.2070426 -0.008091211 0.8345356 0.1576938 -0.5048272 0.8164215 0.1521091 -0.5711193 0.7099838 0.09693145 -0.5342173 -1.00275 0.2013874 0.9830213 0.9901962 0.1174888 0.9764107 -0.9287548 0.1914691 -1.025724 0.9453621 0.247158 -0.99606 -0.5507031 0.2491092 0.9575383 -0.03827857 0.2145881 1.099947 0.4752159 0.2453289 0.9236314 0.4604378 0.1560325 -0.9794191 1.04904e-4 0.1661663 -0.9571855 -0.498003 0.1936149 -1.01317 -0.9485493 0.1427612 -0.4809363 -0.9979668 0.194849 0.004287481 -1.04492 0.2212696 0.4998784 0.9891491 0.1840972 0.5056527 0.9747734 0.2857189 -0.0237599 0.9911461 0.1434822 -0.5582224 -0.5051174 0.1624393 0.4319425 -0.4735279 0.1813983 0.0117585 -0.5399513 0.2162189 -0.5219989 -0.04985046 0.1428356 0.5262466 0.05080986 0.2253112 -0.005047082 -0.03974151 0.2287635 -0.5371927 0.4609985 0.2352523 0.5166423 0.5200443 0.1882305 -0.03700196 0.529747 0.07316589 -0.4719767</float_array>
          <technique_common>
            <accessor source="#Plane_026-mesh-positions-array" count="289" stride="3">
              <param name="X" type="float"/>
              <param name="Y" type="float"/>
              <param name="Z" type="float"/>
            </accessor>
          </technique_common>
        </source>
        <source id="Plane_026-mesh-normals">
          <float_array id="Plane_026-mesh-normals-array" count="1536">0.30164 0.8002297 0.5183106 -0.5196318 0.7977032 -0.3060271 -0.6439597 0.6984321 0.3122639 0.05027109 0.8758286 0.479997 0.193173 0.9779588 -0.07925194 -0.388396 0.8491178 -0.3579772 -0.7407276 0.6698157 -0.05167025 -0.1690782 0.9106365 0.3770331 0.1656556 0.9252685 0.3412281 0.1756759 0.9826496 -0.05947864 0.009847164 0.8543549 0.5195969 -0.1599812 0.984562 0.07102018 0.1038105 0.9687098 -0.2254438 -0.8000509 0.3692501 -0.4728351 -0.4235532 0.7997426 0.4254581 -0.06406527 0.8965988 0.4381852 -0.3023419 0.8041343 0.511818 0.4222628 0.8553675 -0.3000679 -0.1378881 0.961063 -0.2394678 -0.4006834 0.8824108 0.246585 -0.08243143 0.9438145 0.3200301 -0.4347203 0.8632003 0.256717 -0.5191415 0.7713792 -0.3680577 -0.5302507 0.8244419 -0.1978127 -0.07766973 0.9961094 -0.04163676 0.2039214 0.9781498 0.04048365 -0.4515671 0.860731 -0.2350093 -0.0152226 0.9383673 0.3453047 -0.3547036 0.9338473 -0.04598677 -0.1463865 0.9892252 -0.002118051 -0.3403489 0.9393387 -0.04249262 -0.08873695 0.9958028 -0.02241981 0.2467756 0.9008355 0.3572076 0.3807318 0.7711277 -0.5102996 -0.002395331 0.9935171 0.1136578 0.04955935 0.9963903 -0.06892263 -0.01268422 0.8438571 0.5364182 0.5459806 0.764267 -0.3432217 0.07101702 0.8686776 -0.4902608 -0.7268166 0.6603475 0.1888888 0.1583122 0.9872926 -0.01381266 -0.03655654 0.8825763 0.4687458 0.564007 0.7684657 -0.3022527 0.1596434 0.9871647 -0.004457235 -0.02713322 0.9961766 -0.08304178 -0.009631991 0.9971113 0.0753414 -0.110428 0.9934211 0.03033816 0.1144396 0.9800386 -0.1625671 0.3647383 0.9056146 -0.2163984 0.1547315 0.9367349 0.3139841 0.05390143 0.8149113 -0.5770738 0.1845782 0.9540402 0.2360894 -7.38625e-4 0.9945104 -0.1046357 0.05439203 0.9982663 0.02249497 -0.1361399 0.909938 0.3917638 0.7127704 0.4928806 0.4990263 0.04839998 0.9850155 0.165536 -0.1264473 0.982066 0.139848 -0.124558 0.9797586 0.1567114 0.5081084 0.7909179 0.3409907 -0.1812787 0.8827722 0.4334183 0.02899402 0.9462857 -0.3220292 0.1562089 0.9448983 -0.2876907 -0.4996997 0.8357105 0.2277897 0.4140182 0.8997704 0.137848 0.01900643 0.9807667 0.1942561 -0.2511749 0.9315609 0.2628793 -0.2203732 0.8320503 -0.5090462 0.05051785 0.9987231 -4.98104e-4 -0.3410831 0.9364864 -0.08158355 0.1092687 0.9757418 0.1897062 -0.4999916 0.8656751 -0.02480268 0.05780756 0.997473 0.04130458 -0.09182465 0.9941856 -0.05624294 -0.329172 0.8724591 0.3611939 0.5578002 0.7690059 -0.3122321 0.06873983 0.8817469 -0.4666877 -0.1276061 0.8723604 -0.4719153 -0.4304796 0.8994749 -0.07504928 -0.2493603 0.8248026 0.5074644 0.005466639 0.9865429 -0.163411 -0.595939 0.7488272 0.2900252 0.3013026 0.8622153 0.4071874 0.4008376 0.9130467 -0.07533246 0.1060482 0.9761041 -0.1896699 0.07784199 0.9859067 -0.1480841 -0.08888709 0.9657445 0.2437964 0.04217952 0.9358258 -0.3499303 0.09361356 0.9916671 0.08850371 0.2452605 0.9685443 0.04206162 0.1178146 0.9925124 -0.03223049 0.1022192 0.9550029 0.2784257 -0.00663048 0.9954309 0.09525465 -0.2463294 0.6841499 0.6864844 -0.01881355 0.9996767 0.01710498 0.1012136 0.9907981 0.0898602 -0.01565676 0.8803926 0.473987 0.05007261 0.8677651 -0.4944456 -0.02131283 0.989076 0.1458578 0.05584245 0.9839361 -0.1695631 0.512266 0.8481948 0.1347191 0.3599551 0.9229514 0.136357 -0.111542 0.943962 -0.3106349 -0.2027983 0.9419156 -0.2677085 0.1667371 0.8633753 -0.4762164 -0.1340283 0.8788378 -0.4579089 0.2575229 0.8988199 0.3546896 0.5602592 0.7906165 -0.2470532 -0.2636454 0.8987924 -0.3502334 -0.06337994 0.9962869 -0.05827128 0.26203 0.8173894 -0.5130448 0.1472473 0.9387173 -0.311654 0.3086034 0.9508929 0.02380692 0.3439817 0.9105819 -0.2291661 -0.223424 0.9714399 -0.0799148 0.2522312 0.9595197 0.1253058 -0.2605603 0.9627143 0.07272994 0.1146107 0.9680914 -0.222853 -0.4103404 0.9044573 -0.1165235 0.5040193 0.8477007 0.1654333 -0.09197509 0.9947386 -0.04511761 -0.007489144 0.9951312 -0.09827405 0.08610856 0.9962603 -0.007128655 0.1858792 0.9434375 -0.2745444 0.2932252 0.9518517 -0.08942699 -0.1660996 0.8581806 -0.4857337 -0.2944437 0.9396556 -0.1742135 0.1587396 0.9719287 0.1736561 -0.1181528 0.9224972 0.3674764 0.248966 0.9523328 -0.1762903 -0.6607238 0.7499499 -0.03192716 0.008581995 0.8146716 0.5798591 0.05789834 0.9507335 0.3045548 0.176637 0.8749225 -0.4508991 -0.03838026 0.948737 -0.3137276 -0.3168471 0.9071176 0.2770304 0.03966271 0.9176856 0.3953226 0.1117835 0.8863672 -0.4492858 -0.03398239 0.9293974 0.3675131 0.2737152 0.891372 -0.361298 -0.08399552 0.9509763 -0.2976391 -0.2460491 0.9167535 0.3146788 -0.7002115 0.5968617 0.3917397 0.3678185 0.929856 0.008803129 -0.05704075 0.9880936 -0.1428905 0.1828446 0.8073545 0.561023 -0.3448185 0.9276726 -0.1432618 -0.2188337 0.9547739 0.2012925 -0.1064254 0.9874977 -0.1162848 0.0861811 0.9418018 0.3249343 0.5018593 0.6737184 0.5424398 -0.5787009 0.7745086 0.2554247 -0.05178445 0.9946627 -0.08924436 0.2984263 0.8661325 0.4009442 -0.346865 0.9343175 -0.0820713 -0.07805889 0.9890045 0.125607 -0.1480297 0.9321797 0.3303456 0.5889101 0.7070362 -0.391516 0.3614796 0.9026154 -0.233705 -0.2583937 0.9657387 0.02411597 0.1851207 0.7962458 -0.5759541 -0.4577065 0.8272104 0.325926 -0.4629492 0.8660048 0.1889812 -0.2401838 0.8856391 -0.3974357 -0.07566303 0.9414504 0.3285518 0.08208405 0.9186545 -0.3864406 0.6607529 0.6676354 -0.3430287 -0.7507595 0.5695301 -0.3346577 -0.1097584 0.9929108 -0.04562151 0.2409791 0.9648713 -0.1046544 0.08955663 0.9317479 -0.3518887 0.1607818 0.9642207 -0.2107792 0.2099115 0.8738323 -0.4385824 -0.4908397 0.8133136 -0.3124059 0.02952265 0.9633063 0.266776 0.2107325 0.9702944 0.1188305 0.2950977 0.9188474 0.2619864 0.3274863 0.9067382 -0.2656663 -0.1523013 0.9858652 0.06981563 0.04660093 0.981393 -0.1862688 0.4445028 0.8268231 -0.3446462 -0.03077352 0.9789066 0.2019774 -0.2151855 0.8994132 0.3804619 0.3394427 0.9316529 -0.1296215 0.2479119 0.9111084 -0.3292735 -0.0178256 0.9974031 0.06978118 -0.05010586 0.9911774 0.1227068 -0.2134748 0.9601241 0.1805279 0.001271247 0.9598042 -0.2806677 -0.141956 0.9840692 -0.1070345 0.1114339 0.9920421 0.05860972 0.05063605 0.9986414 0.01230865 -0.08100521 0.9906881 0.1094321 0.1220521 0.9845849 -0.1252829 -0.1838175 0.9761095 0.1158511 -0.212086 0.9558367 -0.2034597 -1.8517e-4 0.9930611 0.1175991 -0.5628758 0.8265333 0.003688156 0.04782402 0.9911018 -0.1242182 -0.2010363 0.9779469 0.05660682 -4.5494e-4 0.989118 0.1471238 -0.3030684 0.949017 -0.08669704 -0.4516776 0.8906043 -0.05302339 -0.4445758 0.7140091 0.5408729 -0.09742659 0.9911555 -0.09010654 -0.09172129 0.9917463 -0.08959078 -0.2098941 0.9698388 -0.1239243 -0.002392888 0.9027475 -0.4301643 0.2974901 0.9316532 0.2086194 0.126093 0.9754229 0.1806952 0.2795402 0.9549772 -0.09937733 0.5437726 0.7979429 0.2599973 0.06120765 0.9958525 0.06731629 0.08030223 0.9186968 0.3867141 -0.0179789 0.9629747 0.2689916 0.2413174 0.9697182 0.03758317 0.0322445 0.9676443 0.2502494 0.05615931 0.9983475 -0.01217949 0.0873031 0.9456665 0.3131983 0.1429291 0.9891343 0.03442019 0.01902621 0.960362 0.2781059 0.2344518 0.8545806 -0.4633835 -0.005889415 0.9998918 -0.01348733 -0.3665542 0.9125879 0.1811667 -0.4862444 0.867661 -0.1035895 0.13889 0.9868057 0.0832113 0.04288071 0.925785 -0.3756107 -0.4928014 0.8689377 0.0457623 -0.1852725 0.9791634 0.08314681 0.6707538 0.7125339 0.2058758 -0.02269721 0.9713022 0.2367637 0.1215894 0.9635093 0.2384661 -0.1088556 0.9933182 -0.0383346 -0.1419325 0.9663567 -0.2144992 -0.139453 0.9841058 -0.1099491 -0.4896779 0.8707279 -0.04526364 -0.5086137 0.8609769 -0.00557512 -0.07793712 0.9489014 0.3057975 0.04588449 0.9972215 0.05868452 0.2972764 0.9059591 -0.3014382 0.01672953 0.9688869 -0.2469376 0.4089527 0.8652376 0.2900373 -0.2414445 0.8726096 -0.4245669 -0.1294394 0.9914364 -0.01730293 -0.1676366 0.9748823 -0.1466376 0.0582959 0.9417506 -0.3312214 -0.04902225 0.9967094 -0.06455516 -0.2718468 0.9085333 -0.3172801 -0.1651994 0.977063 -0.134377 -0.1081715 0.9926609 -0.05406832 0.06854724 0.9783356 -0.1953483 4.04757e-4 0.9960398 -0.08890777 -0.1627402 0.9740526 -0.1572811 -0.08838856 0.9695207 0.2285108 -0.2242474 0.9209792 -0.3186074 0.1760147 0.676265 -0.7153213 0.03001922 0.9410234 0.3370072 0.2458268 0.9493294 0.1958138 0.1136652 0.9914202 0.06454801 -0.02459055 0.8985071 0.43827 -0.2551288 0.7679181 0.5875468 -0.1157389 0.990885 0.06893122 -0.4613546 0.8857231 0.05144667 0.1220949 0.9879462 0.09515833 0.2727528 0.876181 0.3973824 0.06608748 0.9959262 0.06134742 -0.4240179 0.8699274 0.2518637 -0.009783029 0.9756556 0.2190903 -0.3608331 0.7864134 0.5013517 -0.03075081 0.949603 0.3119433 0.09536176 0.9928486 -0.07181787 -0.5176886 0.8520747 -0.07724708 0.4245887 0.8998092 -0.1003398 -0.3356381 0.8998497 0.2785994 -0.446539 0.8945873 0.01779025 0.9230061 0.3141817 -0.2221477 -0.2913412 0.8073758 0.5130932 -0.5660281 0.8160145 -0.1171856 -0.278693 0.9360794 -0.2146758 -0.1347859 0.9895039 0.05210423 0.1482538 0.9621399 -0.228709 -0.1611371 0.929236 0.3324987 -0.2885646 0.9574056 0.01025098 -0.4540398 0.8606021 -0.2306771 -0.340952 0.9383909 -0.056342 -0.0996055 0.9936217 0.05286556 -0.2226886 0.9734448 0.05305796 0.4019556 0.6596984 0.6350038 -0.005822658 0.9934571 0.1140576 -0.2808673 0.9482545 -0.148078 0.05316448 0.9974284 -0.04806458 -0.04352045 0.9986925 0.02681964 0.1147606 0.9293423 0.3509314 -0.6601889 0.611499 0.4361416 0.1243105 0.8267417 -0.5486758 -0.02309018 0.8368573 -0.5469341 -0.05691415 0.9436799 -0.325928 0.3254465 0.9449642 0.03357756 0.3394236 0.9404545 0.01835829 0.3118336 0.9258012 0.2136635 -0.1359645 0.9906052 -0.01466584 0.131791 0.9895293 -0.05884897 -0.2066066 0.9708076 0.1218461 -0.1512655 0.9880902 0.02822262 0.1947757 0.7552292 -0.6258525 0.1073119 0.9732326 0.2032299 -0.01600742 0.8890649 -0.4575012 0.5129221 0.8389375 -0.1819201 -0.09115564 0.9715829 -0.218443 0.5034983 0.8249782 -0.256711 -0.04422527 0.9658612 0.2552576 0.4139824 0.8651545 0.283066 0.09792613 0.9910144 0.09110969 0.1558476 0.8820661 0.444602 0.0423417 0.9588631 0.2806934 -0.08134132 0.960968 -0.264432 0.219693 0.953184 0.2077868 -0.4965674 0.8333109 0.2429279 -0.1156767 0.9834764 0.1392597 0.01190316 0.9288693 -0.3702164 0.1023744 0.9056237 0.4115401 0.2492555 0.9104506 -0.3300778 -0.07713896 0.992664 0.09310144 -0.4871578 0.8518686 -0.1923469 0.05290883 0.9985791 -0.006372332 -0.4999559 0.8567859 0.1263409 -0.1066823 0.9884003 -0.1080927 -0.5092087 0.8601701 -0.02853155 -0.234341 0.875413 0.4227725 -0.2107409 0.8829962 -0.4194115 0.5455408 0.7644482 -0.3435179 0.09470182 0.7653504 0.6366086 -0.3988269 0.9163724 0.0346235 0.02510547 0.9613985 -0.2740123 0.1287549 0.9478664 0.2914986 -0.5808134 0.7876917 0.205421 -0.6447896 0.7582439 0.09650218 0.07516378 0.9434685 -0.3228276 -0.1867111 0.8873245 -0.4216566 -0.5825288 0.7955062 0.1668235 0.030155 0.9886618 -0.1471006 0.0994752 0.976831 -0.1894888 -0.1570446 0.9773867 0.1416057 -0.3684718 0.9089041 0.1952486 0.2306585 0.9730308 0.00278753 0.09057337 0.9571358 0.2751137 -0.6139168 0.5498523 0.5663645 -0.4006134 0.8865209 -0.2314945 -0.02994149 0.9964138 0.07914 0.1009513 0.9909205 0.08880007 0.1360118 0.9820419 0.130746 0.02893435 0.9872615 0.1564531 -0.2826342 0.9465403 0.1554975 0.3389107 0.9197285 -0.198089 0.495524 0.6433308 -0.5835937 0.5240342 0.8503428 0.04801505 0.2575322 0.8517948 0.456205 -0.1390761 0.8418413 -0.5214989 -0.04630053 0.8738126 -0.4840535 0.1337454 0.9904878 -0.03234767 0.450512 0.778503 0.4370035 0.0939573 0.9812132 -0.1685016 0.2320234 0.9011702 0.3661385 -0.1574731 0.7195561 -0.676344 0.1199213 0.9923961 -0.02773022 0.1929184 0.9712359 0.1395828 0.3558851 0.8220375 -0.4445226 0.5224278 0.8522663 0.02667438 0.3351126 0.942178 5.26237e-4 0.03769308 0.9972526 0.06376969 0.1733816 0.925844 -0.3357852 0.1052392 0.9849818 -0.1368786 -0.416557 0.9091035 0.00332123 0.500078 0.8482622 0.1742799 -0.02163362 0.9494175 -0.3132706 0.149072 0.9322269 -0.3297432 -0.127997 0.9872079 -0.09506505 -0.09322988 0.9798783 -0.1764848 0.467751 0.8522989 -0.2340847 0.469085 0.8798578 0.07621949 -0.1214224 0.8721502 -0.4739313 -0.1881936 0.8646738 -0.4657493 -0.4516177 0.889319 -0.07178771 0.1824659 0.9712415 0.152958 0.2772108 0.9585928 -0.06522446 0.03644442 0.8229735 0.5669096 -0.2508205 0.9316077 0.2630518 -0.2380285 0.8796498 -0.4117749 -0.1247094 0.9223012 0.3657979 -0.3238107 0.9208359 0.2172738 0.03499168 0.9856726 -0.1650003 0.1690405 0.9728651 -0.1579839 0.02911245 0.9222691 0.3854507 0.1419359 0.9037238 -0.4039029 0.2623199 0.7323432 0.6283802 -0.3680872 0.9175891 -0.1501402 -0.7078233 0.6124954 0.3519029 0.3592202 0.9271131 -0.1068745 0.09101837 0.8861466 -0.4543788 -0.06051999 0.8477134 0.5269908 -0.2000398 0.941252 -0.2720823 -0.1215539 0.9734212 0.1941032 0.6435702 0.7626365 -0.06483113 -0.07709217 0.9941283 0.07593345 0.5472602 0.8321257 0.08985096 -0.7694098 0.5308859 -0.3552023 -0.04843038 0.9950748 -0.08649128 -0.3498266 0.9324784 -0.09003025 -0.1075999 0.9858858 -0.1282632 -0.07039314 0.9898399 0.1235391 0.1023471 0.9777079 0.1833373 -0.3469147 0.9298377 -0.1226881 0.3744205 0.9025093 -0.2128061 -0.2600994 0.9258545 0.2741201 -0.1100729 0.8878883 0.4466972 -0.08441722 0.9776216 0.1926912 -0.4982624 0.8472676 0.1840444 0.2088315 0.8882588 -0.4091281 -0.2797995 0.9600538 -0.003020048 -0.2533559 0.876034 -0.4103357 0.5919172 0.6168586 -0.5187674 -0.6793034 0.7066352 0.1980245 -0.2179483 0.8977286 0.3828601 -0.1334532 0.9884285 -0.07210803 0.2135395 0.9108969 -0.3530833 0.2896654 0.944167 -0.1569798 0.1852916 0.8776775 -0.4419836 -0.2169678 0.9633808 0.1575515 -0.1037781 0.9935488 -0.04572832 0.1816046 0.9255996 0.3320922 0.3556299 0.9309977 -0.08228391 0.05823391 0.9611649 0.2697607 0.2969148 0.9185349 0.2610275 0.3767923 0.9009805 -0.2150856 0.05155962 0.9922465 -0.1130863 0.05596858 0.9792452 -0.1947985 -0.2877376 0.9390014 0.1883711 0.2962814 0.8469111 -0.4415416 0.290962 0.9190052 -0.2660275 -0.0739094 0.9181666 0.3892397 0.3051257 0.95192 -0.0273261 0.1087281 0.967581 0.227959 -0.162882 0.9354746 0.3136188 0.02620583 0.9978314 -0.06038057 0.1178103 0.9743341 -0.1918167 0.04754918 0.9833736 0.1752588 0.1013551 0.9936778 0.0482859 0.02139008 0.9988428 0.04307883 -0.09791761 0.9868616 0.1285161 -0.04269689 0.9715771 -0.2328413 -0.1186762 0.9749872 0.1879261 0.001298248 0.9357677 -0.3526149 -0.01443886 0.9953795 0.09492796 -0.1864499 0.9183546 0.3490865 -0.02693217 0.9756664 -0.2176002 0.03337454 0.9742548 -0.2229657 0.3796185 0.8614183 -0.3374142 0.5803802 0.7230487 0.3746459 -0.5419574 0.8358697 -0.08720189 -0.06937295 0.9784438 0.1945126 -0.2375963 0.9705604 0.03950423 -0.07868993 0.9940087 -0.07586026 -0.3204602 0.9157254 -0.242389 0.9444671 0.1477116 0.2935356 0.0491091 0.9942122 -0.09555387 0.2768612 0.916626 0.2883479 0.1039474 0.9868484 0.1237955 0.1954583 0.9048961 -0.3780996 -0.01079928 0.9902037 0.1392121 0.2541069 0.9642031 0.07577806 -0.172852 0.9835423 -0.05260151 0.2699794 0.962866 5.2807e-4 0.04724419 0.9535063 0.2976472 0.1023235 0.9940284 0.03791391 0.200536 0.9674984 0.154053 0.005023121 0.989816 0.1422641 0.04173791 0.9671502 0.2507557 -0.3594799 0.9228936 0.1379922 0.1380922 0.984705 0.1062389 0.1586601 0.7652903 0.623825 0.1197781 0.9363425 -0.3300242 0.09033733 0.9956141 0.02432632 -0.4779809 0.8626924 -0.1652161 0.1157422 0.9406148 -0.3191358 -0.1295654 0.9908467 -0.03788995 0.3220725 0.7996023 -0.5068584 0.06820225 0.9935522 0.09056842 0.00171113 0.9859517 0.1670218 -0.2042889 0.9760212 -0.07515668 -0.4828389 0.8746886 -0.04226547 0.4723069 0.6748687 0.5669908 -0.2844098 0.9180882 0.2760893 0.04950284 0.9638983 0.2616288 0.5463424 0.5500642 0.6316166 0.3015372 0.9445248 -0.130186 -0.1327588 0.9911479 -0.001015067 -0.1541121 0.8757369 -0.4575309 -0.03328841 0.9989048 -0.03288233 -0.2944489 0.843023 -0.4501247 -0.146347 0.9887394 -0.03125876 -0.06619262 0.9661576 -0.2493152 -0.2775302 0.9505435 -0.1394419 -0.5506269 0.7788973 0.3002151 -0.493377 0.858195 -0.1417065 -0.1030656 0.9740123 -0.2016868 -0.08702927 0.9954239 -0.0394634 -0.006958544 0.9908832 -0.1345438 0.0399537 0.9884908 -0.1459104 -0.1860353 0.9734237 -0.1335561 0.254863 0.9639518 0.07643127 -0.499752 0.8488889 -0.1721504 -0.2317162 0.9185495 -0.3202723</float_array>
          <technique_common>
            <accessor source="#Plane_026-mesh-normals-array" count="512" stride="3">
              <param name="X" type="float"/>
              <param name="Y" type="float"/>
              <param name="Z" type="float"/>
            </accessor>
          </technique_common>
        </source>
        <vertices id="Plane_026-mesh-vertices">
          <input semantic="POSITION" source="#Plane_026-mesh-positions"/>
        </vertices>
        <polylist count="512">
          <input semantic="VERTEX" source="#Plane_026-mesh-vertices" offset="0"/>
          <input semantic="NORMAL" source="#Plane_026-mesh-normals" offset="1"/>
          <vcount>3 3 3 3 3 3 3 3 3 3 3 3 3 3 3 3 3 3 3 3 3 3 3 3 3 3 3 3 3 3 3 3 3 3 3 3 3 3 3 3 3 3 3 3 3 3 3 3 3 3 3 3 3 3 3 3 3 3 3 3 3 3 3 3 3 3 3 3 3 3 3 3 3 3 3 3 3 3 3 3 3 3 3 3 3 3 3 3 3 3 3 3 3 3 3 3 3 3 3 3 3 3 3 3 3 3 3 3 3 3 3 3 3 3 3 3 3 3 3 3 3 3 3 3 3 3 3 3 3 3 3 3 3 3 3 3 3 3 3 3 3 3 3 3 3 3 3 3 3 3 3 3 3 3 3 3 3 3 3 3 3 3 3 3 3 3 3 3 3 3 3 3 3 3 3 3 3 3 3 3 3 3 3 3 3 3 3 3 3 3 3 3 3 3 3 3 3 3 3 3 3 3 3 3 3 3 3 3 3 3 3 3 3 3 3 3 3 3 3 3 3 3 3 3 3 3 3 3 3 3 3 3 3 3 3 3 3 3 3 3 3 3 3 3 3 3 3 3 3 3 3 3 3 3 3 3 3 3 3 3 3 3 3 3 3 3 3 3 3 3 3 3 3 3 3 3 3 3 3 3 3 3 3 3 3 3 3 3 3 3 3 3 3 3 3 3 3 3 3 3 3 3 3 3 3 3 3 3 3 3 3 3 3 3 3 3 3 3 3 3 3 3 3 3 3 3 3 3 3 3 3 3 3 3 3 3 3 3 3 3 3 3 3 3 3 3 3 3 3 3 3 3 3 3 3 3 3 3 3 3 3 3 3 3 3 3 3 3 3 3 3 3 3 3 3 3 3 3 3 3 3 3 3 3 3 3 3 3 3 3 3 3 3 3 3 3 3 3 3 3 3 3 3 3 3 3 3 3 3 3 3 3 3 3 3 3 3 3 3 3 3 3 3 3 3 3 3 3 3 3 3 3 3 3 3 3 3 3 3 3 3 3 3 3 3 3 3 3 3 3 3 3 3 3 3 3 3 3 3 3 3 3 3 3 3 3 3 3 3 3 3 3 3 3 3 3 3 3 3 3 3 3 3 3 3 3 3 3 3 3 3 3 3 3 3 3 3 3 3 3 3 3 3 3 3 3 3 3 3 3 3 3 </vcount>
          <p>0 0 5 0 1 0 1 1 263 1 262 1 181 2 5 2 4 2 5 3 288 3 263 3 0 4 6 4 2 4 6 5 151 5 2 5 262 6 6 6 1 6 6 7 279 7 150 7 0 8 7 8 3 8 7 9 166 9 3 9 2 10 152 10 7 10 7 11 267 11 165 11 0 12 8 12 4 12 8 13 181 13 4 13 3 14 167 14 8 14 167 15 182 15 8 15 13 16 10 16 9 16 14 17 253 17 10 17 184 18 14 18 13 18 185 19 254 19 14 19 9 20 15 20 11 20 15 21 175 21 11 21 253 22 15 22 10 22 252 23 174 23 15 23 11 24 12 24 9 24 16 25 154 25 12 25 11 26 176 26 16 26 16 27 273 27 153 27 9 28 17 28 13 28 17 29 184 29 13 29 154 30 17 30 12 30 155 31 183 31 17 31 18 32 23 32 19 32 23 33 244 33 19 33 175 34 23 34 22 34 174 35 245 35 23 35 18 36 24 36 20 36 20 37 177 37 178 37 19 38 243 38 24 38 24 39 285 39 177 39 18 40 25 40 21 40 25 41 172 41 21 41 178 42 25 42 20 42 25 43 272 43 171 43 18 44 26 44 22 44 22 45 176 45 175 45 21 46 173 46 26 46 26 47 273 47 176 47 27 48 32 48 28 48 28 49 236 49 235 49 178 50 32 50 31 50 177 51 236 51 32 51 28 52 29 52 27 52 29 53 180 53 181 53 28 54 234 54 33 54 234 55 180 55 33 55 29 56 30 56 27 56 30 57 168 57 169 57 29 58 182 58 34 58 34 59 271 59 168 59 27 60 35 60 31 60 31 61 179 61 178 61 30 62 170 62 35 62 35 63 272 63 179 63 40 64 37 64 36 64 41 65 163 65 37 65 211 66 41 66 40 66 210 67 162 67 41 67 36 68 42 68 38 68 38 69 219 69 220 69 163 70 42 70 37 70 164 71 219 71 42 71 38 72 39 72 36 72 39 73 228 73 229 73 220 74 43 74 38 74 221 75 228 75 43 75 36 76 44 76 40 76 44 77 211 77 40 77 229 78 44 78 39 78 230 79 212 79 44 79 49 80 46 80 45 80 50 81 229 81 46 81 49 82 213 82 50 82 213 83 230 83 50 83 45 84 51 84 47 84 47 85 222 85 223 85 229 86 51 86 46 86 51 87 286 87 222 87 47 88 48 88 45 88 52 89 232 89 48 89 223 90 52 90 47 90 52 91 287 91 231 91 48 92 49 92 45 92 49 93 215 93 214 93 232 94 53 94 48 94 53 95 284 95 215 95 54 96 59 96 55 96 55 97 233 97 232 97 217 98 59 98 58 98 59 99 284 99 233 99 54 100 60 100 56 100 60 101 226 101 56 101 55 102 231 102 60 102 231 103 225 103 60 103 54 104 61 104 57 104 57 105 234 105 235 105 226 106 61 106 56 106 61 107 288 107 234 107 57 108 58 108 54 108 62 109 217 109 58 109 235 110 62 110 57 110 236 111 218 111 62 111 67 112 64 112 63 112 68 113 160 113 64 113 202 114 68 114 67 114 68 115 268 115 159 115 64 116 65 116 63 116 69 117 211 117 65 117 64 118 161 118 69 118 161 119 210 119 69 119 63 120 70 120 66 120 66 121 237 121 238 121 211 122 70 122 65 122 70 123 283 123 237 123 66 124 67 124 63 124 67 125 203 125 202 125 66 126 239 126 71 126 71 127 280 127 203 127 76 128 73 128 72 128 77 129 238 129 73 129 76 130 204 130 77 130 77 131 280 131 239 131 72 132 78 132 74 132 74 133 213 133 214 133 238 134 78 134 73 134 78 135 283 135 213 135 72 136 79 136 75 136 75 137 240 137 241 137 74 138 215 138 79 138 215 139 240 139 79 139 72 140 80 140 76 140 76 141 206 141 205 141 75 142 242 142 80 142 80 143 281 143 206 143 81 144 86 144 82 144 82 145 242 145 241 145 85 146 207 146 86 146 207 147 242 147 86 147 82 148 83 148 81 148 87 149 217 149 83 149 241 150 87 150 82 150 87 151 284 151 216 151 81 152 88 152 84 152 84 153 243 153 244 153 83 154 218 154 88 154 88 155 285 155 243 155 81 156 89 156 85 156 85 157 209 157 208 157 84 158 245 158 89 158 245 159 209 159 89 159 94 160 91 160 90 160 95 161 157 161 91 161 145 162 95 162 94 162 95 163 264 163 156 163 90 164 96 164 92 164 92 165 201 165 202 165 91 166 158 166 96 166 158 167 201 167 96 167 92 168 93 168 90 168 97 169 247 169 93 169 202 170 97 170 92 170 203 171 246 171 97 171 90 172 98 172 94 172 98 173 145 173 94 173 93 174 248 174 98 174 98 175 276 175 144 175 103 176 100 176 99 176 100 177 248 177 247 177 190 178 104 178 103 178 191 179 248 179 104 179 99 180 105 180 101 180 101 181 204 181 205 181 100 182 246 182 105 182 105 183 280 183 204 183 99 184 106 184 102 184 102 185 249 185 250 185 205 186 106 186 101 186 206 187 249 187 106 187 102 188 103 188 99 188 107 189 190 189 103 189 250 190 107 190 102 190 107 191 275 191 189 191 112 192 109 192 108 192 109 193 251 193 250 193 112 194 188 194 113 194 188 195 251 195 113 195 109 196 110 196 108 196 114 197 208 197 110 197 250 198 114 198 109 198 114 199 281 199 207 199 110 200 111 200 108 200 111 201 252 201 253 201 110 202 209 202 115 202 209 203 252 203 115 203 108 204 116 204 112 204 116 205 187 205 112 205 253 206 116 206 111 206 254 207 186 207 116 207 117 208 122 208 118 208 118 209 147 209 148 209 220 210 122 210 121 210 122 211 270 211 147 211 117 212 123 212 119 212 119 213 192 213 193 213 148 214 123 214 118 214 123 215 265 215 192 215 117 216 124 216 120 216 120 217 255 217 256 217 193 218 124 218 119 218 194 219 255 219 124 219 117 220 125 220 121 220 121 221 221 221 220 221 256 222 125 222 120 222 257 223 221 223 125 223 130 224 127 224 126 224 127 225 257 225 256 225 223 226 131 226 130 226 222 227 257 227 131 227 126 228 132 228 128 228 132 229 196 229 128 229 127 230 255 230 132 230 255 231 195 231 132 231 126 232 133 232 129 232 133 233 259 233 129 233 128 234 197 234 133 234 133 235 278 235 258 235 129 236 130 236 126 236 134 237 223 237 130 237 129 238 260 238 134 238 134 239 287 239 224 239 135 240 140 240 136 240 136 241 260 241 259 241 139 242 225 242 140 242 140 243 287 243 260 243 135 244 141 244 137 244 137 245 198 245 199 245 136 246 258 246 141 246 141 247 278 247 198 247 137 248 138 248 135 248 138 249 261 249 262 249 199 250 142 250 137 250 200 251 261 251 142 251 135 252 143 252 139 252 139 253 227 253 226 253 138 254 263 254 143 254 143 255 288 255 227 255 0 256 4 256 5 256 1 257 5 257 263 257 181 258 180 258 5 258 5 259 180 259 288 259 0 260 1 260 6 260 6 261 150 261 151 261 262 262 261 262 6 262 6 263 261 263 279 263 0 264 2 264 7 264 7 265 165 265 166 265 2 266 151 266 152 266 7 267 152 267 267 267 0 268 3 268 8 268 8 269 182 269 181 269 3 270 166 270 167 270 167 271 271 271 182 271 13 272 14 272 10 272 14 273 254 273 253 273 184 274 185 274 14 274 185 275 274 275 254 275 9 276 10 276 15 276 15 277 174 277 175 277 253 278 252 278 15 278 252 279 282 279 174 279 11 280 16 280 12 280 16 281 153 281 154 281 11 282 175 282 176 282 16 283 176 283 273 283 9 284 12 284 17 284 17 285 183 285 184 285 154 286 155 286 17 286 155 287 266 287 183 287 18 288 22 288 23 288 23 289 245 289 244 289 175 290 174 290 23 290 174 291 282 291 245 291 18 292 19 292 24 292 20 293 24 293 177 293 19 294 244 294 243 294 24 295 243 295 285 295 18 296 20 296 25 296 25 297 171 297 172 297 178 298 179 298 25 298 25 299 179 299 272 299 18 300 21 300 26 300 22 301 26 301 176 301 21 302 172 302 173 302 26 303 173 303 273 303 27 304 31 304 32 304 28 305 32 305 236 305 178 306 177 306 32 306 177 307 285 307 236 307 28 308 33 308 29 308 29 309 33 309 180 309 28 310 235 310 234 310 234 311 288 311 180 311 29 312 34 312 30 312 30 313 34 313 168 313 29 314 181 314 182 314 34 315 182 315 271 315 27 316 30 316 35 316 31 317 35 317 179 317 30 318 169 318 170 318 35 319 170 319 272 319 40 320 41 320 37 320 41 321 162 321 163 321 211 322 210 322 41 322 210 323 269 323 162 323 36 324 37 324 42 324 38 325 42 325 219 325 163 326 164 326 42 326 164 327 270 327 219 327 38 328 43 328 39 328 39 329 43 329 228 329 220 330 221 330 43 330 221 331 286 331 228 331 36 332 39 332 44 332 44 333 212 333 211 333 229 334 230 334 44 334 230 335 283 335 212 335 49 336 50 336 46 336 50 337 230 337 229 337 49 338 214 338 213 338 213 339 283 339 230 339 45 340 46 340 51 340 47 341 51 341 222 341 229 342 228 342 51 342 51 343 228 343 286 343 47 344 52 344 48 344 52 345 231 345 232 345 223 346 224 346 52 346 52 347 224 347 287 347 48 348 53 348 49 348 49 349 53 349 215 349 232 350 233 350 53 350 53 351 233 351 284 351 54 352 58 352 59 352 55 353 59 353 233 353 217 354 216 354 59 354 59 355 216 355 284 355 54 356 55 356 60 356 60 357 225 357 226 357 55 358 232 358 231 358 231 359 287 359 225 359 54 360 56 360 61 360 57 361 61 361 234 361 226 362 227 362 61 362 61 363 227 363 288 363 57 364 62 364 58 364 62 365 218 365 217 365 235 366 236 366 62 366 236 367 285 367 218 367 67 368 68 368 64 368 68 369 159 369 160 369 202 370 201 370 68 370 68 371 201 371 268 371 64 372 69 372 65 372 69 373 210 373 211 373 64 374 160 374 161 374 161 375 269 375 210 375 63 376 65 376 70 376 66 377 70 377 237 377 211 378 212 378 70 378 70 379 212 379 283 379 66 380 71 380 67 380 67 381 71 381 203 381 66 382 238 382 239 382 71 383 239 383 280 383 76 384 77 384 73 384 77 385 239 385 238 385 76 386 205 386 204 386 77 387 204 387 280 387 72 388 73 388 78 388 74 389 78 389 213 389 238 390 237 390 78 390 78 391 237 391 283 391 72 392 74 392 79 392 75 393 79 393 240 393 74 394 214 394 215 394 215 395 284 395 240 395 72 396 75 396 80 396 76 397 80 397 206 397 75 398 241 398 242 398 80 399 242 399 281 399 81 400 85 400 86 400 82 401 86 401 242 401 85 402 208 402 207 402 207 403 281 403 242 403 82 404 87 404 83 404 87 405 216 405 217 405 241 406 240 406 87 406 87 407 240 407 284 407 81 408 83 408 88 408 84 409 88 409 243 409 83 410 217 410 218 410 88 411 218 411 285 411 81 412 84 412 89 412 85 413 89 413 209 413 84 414 244 414 245 414 245 415 282 415 209 415 94 416 95 416 91 416 95 417 156 417 157 417 145 418 146 418 95 418 95 419 146 419 264 419 90 420 91 420 96 420 92 421 96 421 201 421 91 422 157 422 158 422 158 423 268 423 201 423 92 424 97 424 93 424 97 425 246 425 247 425 202 426 203 426 97 426 203 427 280 427 246 427 90 428 93 428 98 428 98 429 144 429 145 429 93 430 247 430 248 430 98 431 248 431 276 431 103 432 104 432 100 432 100 433 104 433 248 433 190 434 191 434 104 434 191 435 276 435 248 435 99 436 100 436 105 436 101 437 105 437 204 437 100 438 247 438 246 438 105 439 246 439 280 439 99 440 101 440 106 440 102 441 106 441 249 441 205 442 206 442 106 442 206 443 281 443 249 443 102 444 107 444 103 444 107 445 189 445 190 445 250 446 251 446 107 446 107 447 251 447 275 447 112 448 113 448 109 448 109 449 113 449 251 449 112 450 187 450 188 450 188 451 275 451 251 451 109 452 114 452 110 452 114 453 207 453 208 453 250 454 249 454 114 454 114 455 249 455 281 455 110 456 115 456 111 456 111 457 115 457 252 457 110 458 208 458 209 458 209 459 282 459 252 459 108 460 111 460 116 460 116 461 186 461 187 461 253 462 254 462 116 462 254 463 274 463 186 463 117 464 121 464 122 464 118 465 122 465 147 465 220 466 219 466 122 466 122 467 219 467 270 467 117 468 118 468 123 468 119 469 123 469 192 469 148 470 149 470 123 470 123 471 149 471 265 471 117 472 119 472 124 472 120 473 124 473 255 473 193 474 194 474 124 474 194 475 277 475 255 475 117 476 120 476 125 476 121 477 125 477 221 477 256 478 257 478 125 478 257 479 286 479 221 479 130 480 131 480 127 480 127 481 131 481 257 481 223 482 222 482 131 482 222 483 286 483 257 483 126 484 127 484 132 484 132 485 195 485 196 485 127 486 256 486 255 486 255 487 277 487 195 487 126 488 128 488 133 488 133 489 258 489 259 489 128 490 196 490 197 490 133 491 197 491 278 491 129 492 134 492 130 492 134 493 224 493 223 493 129 494 259 494 260 494 134 495 260 495 287 495 135 496 139 496 140 496 136 497 140 497 260 497 139 498 226 498 225 498 140 499 225 499 287 499 135 500 136 500 141 500 137 501 141 501 198 501 136 502 259 502 258 502 141 503 258 503 278 503 137 504 142 504 138 504 138 505 142 505 261 505 199 506 200 506 142 506 200 507 279 507 261 507 135 508 138 508 143 508 139 509 143 509 227 509 138 510 262 510 263 510 143 511 263 511 288 511</p>
        </polylist>
      </mesh>
    </geometry>
  </library_geometries>
  <library_controllers>
    <controller id="GroundFoliage_Gras-skin" name="GroundFoliage">
      <skin source="#Plane_026-mesh">
        <bind_shape_matrix>1 0 0 0 0 -4.37114e-8 -1 0 0 1 -4.37114e-8 0 0 0 0 1</bind_shape_matrix>
        <source id="GroundFoliage_Gras-skin-joints">
          <Name_array id="GroundFoliage_Gras-skin-joints-array" count="1">Bone</Name_array>
          <technique_common>
            <accessor source="#GroundFoliage_Gras-skin-joints-array" count="1" stride="1">
              <param name="JOINT" type="name"/>
            </accessor>
          </technique_common>
        </source>
        <source id="GroundFoliage_Gras-skin-bind_poses">
          <float_array id="GroundFoliage_Gras-skin-bind_poses-array" count="16">1 0 0 0 0 0 1 0 0 -1 0 0 0 0 0 1</float_array>
          <technique_common>
            <accessor source="#GroundFoliage_Gras-skin-bind_poses-array" count="1" stride="16">
              <param name="TRANSFORM" type="float4x4"/>
            </accessor>
          </technique_common>
        </source>
        <source id="GroundFoliage_Gras-skin-weights">
          <float_array id="GroundFoliage_Gras-skin-weights-array" count="289">1 1 1 1 1 1 1 1 1 1 1 1 1 1 1 1 1 1 1 1 1 1 1 1 1 1 1 1 1 1 1 1 1 1 1 1 1 1 1 1 1 1 1 1 1 1 1 1 1 1 1 1 1 1 1 1 1 1 1 1 1 1 1 1 1 1 1 1 1 1 1 1 1 1 1 1 1 1 1 1 1 1 1 1 1 1 1 1 1 1 1 1 1 1 1 1 1 1 1 1 1 1 1 1 1 1 1 1 1 1 1 1 1 1 1 1 1 1 1 1 1 1 1 1 1 1 1 1 1 1 1 1 1 1 1 1 1 1 1 1 1 1 1 1 1 1 1 1 1 1 1 1 1 1 1 1 1 1 1 1 1 1 1 1 1 1 1 1 1 1 1 1 1 1 1 1 1 1 1 1 1 1 1 1 1 1 1 1 1 1 1 1 1 1 1 1 1 1 1 1 1 1 1 1 1 1 1 1 1 1 1 1 1 1 1 1 1 1 1 1 1 1 1 1 1 1 1 1 1 1 1 1 1 1 1 1 1 1 1 1 1 1 1 1 1 1 1 1 1 1 1 1 1 1 1 1 1 1 1 1 1 1 1 1 1 1 1 1 1 1 1 1 1 1 1 1 1 1 1 1 1 1 1 1 1 1 1 1 1</float_array>
          <technique_common>
            <accessor source="#GroundFoliage_Gras-skin-weights-array" count="289" stride="1">
              <param name="WEIGHT" type="float"/>
            </accessor>
          </technique_common>
        </source>
        <joints>
          <input semantic="JOINT" source="#GroundFoliage_Gras-skin-joints"/>
          <input semantic="INV_BIND_MATRIX" source="#GroundFoliage_Gras-skin-bind_poses"/>
        </joints>
        <vertex_weights count="289">
          <input semantic="JOINT" source="#GroundFoliage_Gras-skin-joints" offset="0"/>
          <input semantic="WEIGHT" source="#GroundFoliage_Gras-skin-weights" offset="1"/>
          <vcount>1 1 1 1 1 1 1 1 1 1 1 1 1 1 1 1 1 1 1 1 1 1 1 1 1 1 1 1 1 1 1 1 1 1 1 1 1 1 1 1 1 1 1 1 1 1 1 1 1 1 1 1 1 1 1 1 1 1 1 1 1 1 1 1 1 1 1 1 1 1 1 1 1 1 1 1 1 1 1 1 1 1 1 1 1 1 1 1 1 1 1 1 1 1 1 1 1 1 1 1 1 1 1 1 1 1 1 1 1 1 1 1 1 1 1 1 1 1 1 1 1 1 1 1 1 1 1 1 1 1 1 1 1 1 1 1 1 1 1 1 1 1 1 1 1 1 1 1 1 1 1 1 1 1 1 1 1 1 1 1 1 1 1 1 1 1 1 1 1 1 1 1 1 1 1 1 1 1 1 1 1 1 1 1 1 1 1 1 1 1 1 1 1 1 1 1 1 1 1 1 1 1 1 1 1 1 1 1 1 1 1 1 1 1 1 1 1 1 1 1 1 1 1 1 1 1 1 1 1 1 1 1 1 1 1 1 1 1 1 1 1 1 1 1 1 1 1 1 1 1 1 1 1 1 1 1 1 1 1 1 1 1 1 1 1 1 1 1 1 1 1 1 1 1 1 1 1 1 1 1 1 1 1 1 1 1 1 1 1 </vcount>
          <v>0 0 0 1 0 2 0 3 0 4 0 5 0 6 0 7 0 8 0 9 0 10 0 11 0 12 0 13 0 14 0 15 0 16 0 17 0 18 0 19 0 20 0 21 0 22 0 23 0 24 0 25 0 26 0 27 0 28 0 29 0 30 0 31 0 32 0 33 0 34 0 35 0 36 0 37 0 38 0 39 0 40 0 41 0 42 0 43 0 44 0 45 0 46 0 47 0 48 0 49 0 50 0 51 0 52 0 53 0 54 0 55 0 56 0 57 0 58 0 59 0 60 0 61 0 62 0 63 0 64 0 65 0 66 0 67 0 68 0 69 0 70 0 71 0 72 0 73 0 74 0 75 0 76 0 77 0 78 0 79 0 80 0 81 0 82 0 83 0 84 0 85 0 86 0 87 0 88 0 89 0 90 0 91 0 92 0 93 0 94 0 95 0 96 0 97 0 98 0 99 0 100 0 101 0 102 0 103 0 104 0 105 0 106 0 107 0 108 0 109 0 110 0 111 0 112 0 113 0 114 0 115 0 116 0 117 0 118 0 119 0 120 0 121 0 122 0 123 0 124 0 125 0 126 0 127 0 128 0 129 0 130 0 131 0 132 0 133 0 134 0 135 0 136 0 137 0 138 0 139 0 140 0 141 0 142 0 143 0 144 0 145 0 146 0 147 0 148 0 149 0 150 0 151 0 152 0 153 0 154 0 155 0 156 0 157 0 158 0 159 0 160 0 161 0 162 0 163 0 164 0 165 0 166 0 167 0 168 0 169 0 170 0 171 0 172 0 173 0 174 0 175 0 176 0 177 0 178 0 179 0 180 0 181 0 182 0 183 0 184 0 185 0 186 0 187 0 188 0 189 0 190 0 191 0 192 0 193 0 194 0 195 0 196 0 197 0 198 0 199 0 200 0 201 0 202 0 203 0 204 0 205 0 206 0 207 0 208 0 209 0 210 0 211 0 212 0 213 0 214 0 215 0 216 0 217 0 218 0 219 0 220 0 221 0 222 0 223 0 224 0 225 0 226 0 227 0 228 0 229 0 230 0 231 0 232 0 233 0 234 0 235 0 236 0 237 0 238 0 239 0 240 0 241 0 242 0 243 0 244 0 245 0 246 0 247 0 248 0 249 0 250 0 251 0 252 0 253 0 254 0 255 0 256 0 257 0 258 0 259 0 260 0 261 0 262 0 263 0 264 0 265 0 266 0 267 0 268 0 269 0 270 0 271 0 272 0 273 0 274 0 275 0 276 0 277 0 278 0 279 0 280 0 281 0 282 0 283 0 284 0 285 0 286 0 287 0 288</v>
        </vertex_weights>
      </skin>
    </controller>
  </library_controllers>
  <library_visual_scenes>
    <visual_scene id="Scene" name="Scene">
      <node id="GroundFoliage" name="GroundFoliage" type="NODE">
        <matrix sid="transform">1 0 0 0 0 -4.37114e-8 -1 0 0 1 -4.37114e-8 0 0 0 0 1</matrix>
        <node id="Bone" name="Bone" sid="Bone" type="JOINT">
          <matrix sid="transform">1 0 0 0 0 1 -5.96046e-8 0 0 5.96046e-8 1 0 0 0 0 1</matrix>
        </node>
      </node>
      <node id="Gras" name="Gras" type="NODE">
        <translate sid="location">0 0 0</translate>
        <rotate sid="rotationZ">0 0 1 0</rotate>
        <rotate sid="rotationY">0 1 0 0</rotate>
        <rotate sid="rotationX">1 0 0 0</rotate>
        <scale sid="scale">1 1 1</scale>
        <instance_controller url="#GroundFoliage_Gras-skin">
          <skeleton>#Bone</skeleton>
        </instance_controller>
      </node>
    </visual_scene>
  </library_visual_scenes>
  <scene>
    <instance_visual_scene url="#Scene"/>
  </scene>
</COLLADA>